<?xml version="1.0" encoding="UTF-8"?>
<?xml-stylesheet type="text/xsl" media="screen" href="/~d/styles/rss2full.xsl"?><?xml-stylesheet type="text/css" media="screen" href="http://feeds.feedburner.com/~d/styles/itemcontent.css"?><rss xmlns:content="http://purl.org/rss/1.0/modules/content/" xmlns:wfw="http://wellformedweb.org/CommentAPI/" xmlns:dc="http://purl.org/dc/elements/1.1/" xmlns:atom="http://www.w3.org/2005/Atom" xmlns:sy="http://purl.org/rss/1.0/modules/syndication/" xmlns:slash="http://purl.org/rss/1.0/modules/slash/" version="2.0">

<channel>
	<title>InternetMix.cz</title>
	
	<link>http://www.internetmix.cz</link>
	<description>Webové aplikace, internetový marketing</description>
	<lastBuildDate>Sat, 01 Jan 2011 11:43:18 +0000</lastBuildDate>
	<language>en</language>
	<sy:updatePeriod>hourly</sy:updatePeriod>
	<sy:updateFrequency>1</sy:updateFrequency>
	<generator>http://wordpress.org/?v=3.2.1</generator>
		<atom10:link xmlns:atom10="http://www.w3.org/2005/Atom" rel="self" type="application/rss+xml" href="http://feeds.feedburner.com/Internetmixcz" /><feedburner:info xmlns:feedburner="http://rssnamespace.org/feedburner/ext/1.0" uri="internetmixcz" /><atom10:link xmlns:atom10="http://www.w3.org/2005/Atom" rel="hub" href="http://pubsubhubbub.appspot.com/" /><item>
		<title>Nejlepší iPhone aplikace roku 2010</title>
		<link>http://www.internetmix.cz/nejlepsi-iphone-aplikace-roku-2010/</link>
		<comments>http://www.internetmix.cz/nejlepsi-iphone-aplikace-roku-2010/#comments</comments>
		<pubDate>Sat, 01 Jan 2011 11:42:14 +0000</pubDate>
		<dc:creator>Jan Zdarsa</dc:creator>
				<category><![CDATA[Apple]]></category>
		<category><![CDATA[apple]]></category>
		<category><![CDATA[iphone]]></category>

		<guid isPermaLink="false">http://www.internetmix.cz/?p=69</guid>
		<description><![CDATA[Jaké jsou nejlepší iPhone aplikace roku 2010? Které iPhone aplikace by definitivně neměly ve vašem iPhone chybět? Podívejte se na žebříček iPhone aplikací!]]></description>
			<content:encoded><![CDATA[<p>Máme tady nový rok a já bych se rád poohlédnul po tom předchozím. V tomto příspěvku bych vám rád představil nejlepší iPhone aplikace roku 2010, respektive ty aplikace, které jsem v minulém roce nejvíce používal či které jsem si nejvíce oblíbil. <span id="more-69"></span></p>
<p>Ve svém přehledu vynechám nativní iPhone aplikace jako například Mail. Ačkoli zrovna aplikaci Mail jsem dost často nahrazoval webovou aplikací Gmail, kterou bych osobně vyhodnotil jako nejlepší webovou aplikaci pro mobilní zařízení! Z nějakého důvodu ale zatím stále používám nativní aplikaci mail, ale již delší dobu přemýšlím o její náhradu například aplikací Mailroom. Ale to se zatím nestalo a tak se pojďme podívat na můj výběr nejlepších iPhone aplikací roku 2010.</p>
<h2>TOP15 nejlepších aplikací na iPhone</h2>
<p><strong>Calvetica</strong> (2,39 €)<br />
Kalendář s jednoduchým čistým designem a rychlé zákládání nových událostí v kalendáři. To aplikaci Calvetica charakterizuje na 100%. Zahodil jsem nativní aplikaci a na iPhone již používám pouze Calveticu. Vítám i práci vývojářů, kteří tento skvělý kalendář posouvají s každou verzí o kus dál.</p>
<p><a href="http://www.internetmix.cz/wp-content/uploads/calvetica.jpg"><img class="aligncenter size-full wp-image-86" title="calvetica" src="http://www.internetmix.cz/wp-content/uploads/calvetica.jpg" alt="" width="480" height="320" /></a></p>
<p><strong>Camera+</strong> (0,79 €)<br />
Jestli mi Calvetica nahradila nativní iPhone kalendář, tak aplikace Camera+ udělala to samé s nativním fotoaparátem. Snímání s Camera+ je velmi rychlé, nechybí možnost použití stabilizace či rychlé snímání sekvence snímků. Pokud k tomu přidáme spoustu možností editace fotek, tak se vám cena 0,79 € bude zdát jako směšná. Na iPhone 3G údajně není aplikace příliš rychlá, ale to potvrdit či vyvrátit nemohu.</p>
<p><strong>Reeder</strong> (2,39 €)<br />
Máte několik svých oblíbených webů, u kterých sledujete RSS feedy? Používáte Google Reader jako správce RSS odběrů? Jestli potřebujete i nějakou čtečku pro iPhone, tak už hledat nemusíte. S Reederem nešlápnete vedle. Rychlost, uživatelské prostředí, funkce. U Reederu jen těžko budete hledat slabá místa. Definitivně nejlepší RSS čtečka pro iPhone i iPad!</p>
<p><strong>Remember the Milk / Things</strong> (zdarma / 7,99 €)<br />
Ohledně úkolovníku jsem stále na vážkách. Na střídačku používám právě Remember the Milk, které občas střídám s aplikací Things. RTM mě dostalo svojí jednoduchostí a rychlostí zadávání úkolů. Uživatelské rozhraní pro přidávání se mi opravdu líbí a synchronizace probíhá na jedničku (rychle a spolehlivě). Ale chybí mi desktop aplikace, ve které pro změnu vyniká Things. A pokud potřebujete řídit více projektů, tak mi definitivně více vyhovuje Things. Bohužel over-the-air synchronizace se &#8222;odkládá&#8220; o několik dalších měsíců.</p>

<a href='http://www.internetmix.cz/nejlepsi-iphone-aplikace-roku-2010/rtm/' title='rtm'><img width="173" height="260" src="http://www.internetmix.cz/wp-content/uploads/rtm-173x260.jpg" class="attachment-thumbnail" alt="rtm" title="rtm" /></a>
<a href='http://www.internetmix.cz/nejlepsi-iphone-aplikace-roku-2010/things/' title='things'><img width="180" height="260" src="http://www.internetmix.cz/wp-content/uploads/things-180x260.jpg" class="attachment-thumbnail" alt="things" title="things" /></a>

<p><strong>1Password Pro</strong> (11,99 €)<br />
Kvalitnější správce hesel, přihlašovacích údajů a licencí těžko pohledat, především pokud používáte jako desktop počítač Mac. Ale už ani to neplatí, protože 1Password si nově můžete stáhnout i pro PC. Na desktopu nechybí ani rozšíření pro Safari, Firefox či Chrome a synchronizace přes skvělý Dropbox. Jasná volba! Možná bych si jen počkal na nějakou tu slevu..</p>
<p><strong>TextExpander</strong> (3,99 €)<br />
Jestli na iPhone často píšete některé fráze (či klidně i bloky textu) opakovaně, tak doporučuji se na TextExpander podívat. V aplikaci si navolíte texty a zkratky k nim. Poté v jakékoli podporované aplikaci stačí napsat nastavenou zkratku a aplikace místo ní napíše nadefinovaný text. Lépe vám aplikaci představí následující <a href="http://smilesoftware.com/TextExpander/touch/screencast.html">screencast</a>.</p>
<p><strong>Calcbot</strong> (1,59 €)<br />
Kalkulačku s roztomilejší ikonkou byste v Appstore hledali jen těžce. Ale to není jediná přednost, celkový design kalkulačky je velice povedený a výborně se ovládá a nechybí zde ani historie výpočtů, které můžete odeslat například přes email. Nativní aplikace šla pryč, Calcbot zvítězil!</p>
<p style="text-align: center;"><object classid="clsid:d27cdb6e-ae6d-11cf-96b8-444553540000" width="560" height="340" codebase="http://download.macromedia.com/pub/shockwave/cabs/flash/swflash.cab#version=6,0,40,0"><param name="allowFullScreen" value="true" /><param name="allowscriptaccess" value="always" /><param name="src" value="http://www.youtube.com/v/BOk48WNfB9g?fs=1&amp;hl=cs_CZ" /><param name="allowfullscreen" value="true" /><embed type="application/x-shockwave-flash" width="560" height="340" src="http://www.youtube.com/v/BOk48WNfB9g?fs=1&amp;hl=cs_CZ" allowscriptaccess="always" allowfullscreen="true"></embed></object></p>
<p><strong>Shazam</strong> (zdarma / 4,99 €)<br />
Nemůžete si vzpomenout, co to právě hraje za písničku? Stačí vytáhnout Shazam, kousek nahrát a Shazam již písničku identifikuje za vás. Shazam mám v iPhone již pravděpodobně více jak 2 roky a od té doby mi pomohla mockrát.</p>
<p><strong>Instapaper</strong> (zdarma / 3,99 €)<br />
Pravděpodobně nemusím příliš představovat skvělou službu na ukládání článků ke čtení později. Službu Instapaper podporuje většina iPhone aplikací, kde lidé narazí na delší texty (Twitter, Reeder), ale články si můžete ukládat i z Google Readeru, bookmarkletu a dalšími způsoby. Ideální úložiště delších článků nejen pro offline čtení.</p>
<p><strong>Mindnode</strong> (4,99 €)<br />
Jednoduché a přitom příjemné tvoření mindmap na iPhone. Nechybí ani bratříček na iPad a skvělá desktop aplikace. Pokud rádi brainstormujete, tak by se vám Mindnode mohl hodit.</p>
<p style="text-align: center;"><object classid="clsid:d27cdb6e-ae6d-11cf-96b8-444553540000" width="480" height="385" codebase="http://download.macromedia.com/pub/shockwave/cabs/flash/swflash.cab#version=6,0,40,0"><param name="allowFullScreen" value="true" /><param name="allowscriptaccess" value="always" /><param name="src" value="http://www.youtube.com/v/nqeC_XaNh_8?fs=1&amp;hl=cs_CZ" /><param name="allowfullscreen" value="true" /><embed type="application/x-shockwave-flash" width="480" height="385" src="http://www.youtube.com/v/nqeC_XaNh_8?fs=1&amp;hl=cs_CZ" allowscriptaccess="always" allowfullscreen="true"></embed></object></p>
<p><strong>Connections</strong> (2,39 €)<br />
Příjemná iPhone aplikace pro vyhledávání MHD či dopravy obecně. Využívám ji především v Praze na MHD. Sama si umí naleznout nejbližší zastávku a celkově jsem s touto jednoduchou aplikací spokojený.</p>
<p><strong>Twitter / Facebook</strong> (zdarma)<br />
Na sociální sítě jsem si oblíbil oficiální klienty. Ačkoli jsem zkoušel různé náhrady, tak jsem se vždy vrátil k těmto klientům. A k iPhone aplikaci Twitter pravděpodobně ani žádné výhrady nemám.</p>
<p><strong>Evernote</strong> (zdarma)<br />
Služba Evernote slouží k ukládání poznámek. A ačkoli není aplikace Evernote v ničem nijak zvlášť revoluční, tak pro čtení uložených poznámek je dostatečná a jedná se tak o skvělého společníka v iPhone.</p>
<h2>iPhone aplikace, které stojí za zmínku</h2>
<p><strong>Word Lens</strong> (zdarma)<br />
Aplikace založená na rozšířené realitě, která mi dává smysl. iPhone fotoaparátem zaberete text v cizím jazyce a aplikace vám ho realtime na obrazovce iPhone přeloží. Zatím umí překlad jen z angličtiny do španělštiny a naopak. Z mého pohledu se zatím stále jedná spíše o demo technologie, ale určitě si aplikaci vyzkoušejte.</p>
<p style="text-align: center;"><object classid="clsid:d27cdb6e-ae6d-11cf-96b8-444553540000" width="560" height="340" codebase="http://download.macromedia.com/pub/shockwave/cabs/flash/swflash.cab#version=6,0,40,0"><param name="allowFullScreen" value="true" /><param name="allowscriptaccess" value="always" /><param name="src" value="http://www.youtube.com/v/h2OfQdYrHRs?fs=1&amp;hl=cs_CZ" /><param name="allowfullscreen" value="true" /><embed type="application/x-shockwave-flash" width="560" height="340" src="http://www.youtube.com/v/h2OfQdYrHRs?fs=1&amp;hl=cs_CZ" allowscriptaccess="always" allowfullscreen="true"></embed></object></p>
<p><strong>Google Mobile</strong> (zdarma)<br />
Na aplikaci od Google jsem si stále nějak nezvykl, respektive používám ji jen minimálně. Uvítal bych integraci do systému stejně tak, jako to mají uživatelé Androidu. To by ale Apple musel dát zelenou v některém z dalších iOS a nepředpokládám, že se tak stane. Hlasové vyhledávání ale minimálně stojí za zkoušku!</p>
<p><strong>Zlaté slevy</strong> (zdarma)<br />
Slevových serverů se vyrojilo desítky a tak přišel čas i pro agregátory. Jedním z nich se stal server ZlateSlevy.cz, který má i svojí iPhone aplikaci. Můžete si zde zvolit, že vás zajímají například sportovní nabídky v Praze a aplikace vám vyfiltruje aktuální nabídky. Aplikace mi přijde užitečná, ačkoli by potřebovala ještě dotáhnout (například mi neukazovat slevy, které jsem již viděl).</p>
<p><strong>Lunchtime</strong> (zdarma)<br />
Jestli patříte mezi zaměstnance ve větším městě a na obědy chodíte na meníčka do restaurací, tak vám mohu aplikaci Lunchtime doporučit. Jednoduchá, ale užitečná aplikace.</p>
<p>A jaké jsou vaše oblíbené iPhone aplikace? Které aplikace považujete za nejužitečnější? Nebo které vám nejvíce usnadnili život? Pochlubte se v diskuzi pod články!</p>
<iframe src="http://www.facebook.com/plugins/like.php?href=http://www.internetmix.cz/nejlepsi-iphone-aplikace-roku-2010/&amp;layout=standard&amp;show_faces=1&amp;width=450&amp;action=like&amp;colorscheme=light&amp;font=" scrolling="no" frameborder="0" style="border:none; overflow:hidden; width:450px; height:25px"></iframe>]]></content:encoded>
			<wfw:commentRss>http://www.internetmix.cz/nejlepsi-iphone-aplikace-roku-2010/feed/</wfw:commentRss>
		<slash:comments>0</slash:comments>
		</item>
		<item>
		<title>Tak trochu netradiční ohlédnutí za WebExpo 2010</title>
		<link>http://www.internetmix.cz/tak-trochu-netradicni-ohlednuti-za-webexpo-2010/</link>
		<comments>http://www.internetmix.cz/tak-trochu-netradicni-ohlednuti-za-webexpo-2010/#comments</comments>
		<pubDate>Tue, 28 Sep 2010 13:10:51 +0000</pubDate>
		<dc:creator>Jan Zdarsa</dc:creator>
				<category><![CDATA[Uncategorized]]></category>
		<category><![CDATA[konference]]></category>

		<guid isPermaLink="false">http://www.internetmix.cz/?p=62</guid>
		<description><![CDATA[Techcrunch v těchto dnech pořádá konferenci Disrupt, kde byl představen startup Storify. Jelikož mě celkem zaujal, tak jsem si tento nástroj vyzkoušel v praxi. Využil jsem ho jako své ohlédnutí za WebExpo 2010. Líbí se vám Storify? Sdělte své dojmy v komentářích!]]></description>
			<content:encoded><![CDATA[<p>Techcrunch v těchto dnech pořádá konferenci Disrupt, kde byl představen startup Storify. Jelikož mě celkem zaujal, tak jsem si tento nástroj vyzkoušel v praxi. Využil jsem ho jako své ohlédnutí za WebExpo 2010.</p>
<p>Líbí se vám Storify? Sdělte své dojmy v komentářích!</p>
<p><script src="http://storify.com/janzdarsa/webexpo-2010.js"></script></p>
<iframe src="http://www.facebook.com/plugins/like.php?href=http://www.internetmix.cz/tak-trochu-netradicni-ohlednuti-za-webexpo-2010/&amp;layout=standard&amp;show_faces=1&amp;width=450&amp;action=like&amp;colorscheme=light&amp;font=" scrolling="no" frameborder="0" style="border:none; overflow:hidden; width:450px; height:25px"></iframe>]]></content:encoded>
			<wfw:commentRss>http://www.internetmix.cz/tak-trochu-netradicni-ohlednuti-za-webexpo-2010/feed/</wfw:commentRss>
		<slash:comments>2</slash:comments>
		</item>
		<item>
		<title>iPad prodán, Kindle je úžasný!</title>
		<link>http://www.internetmix.cz/ipad-prodan-kindle-je-uzasny/</link>
		<comments>http://www.internetmix.cz/ipad-prodan-kindle-je-uzasny/#comments</comments>
		<pubDate>Thu, 23 Sep 2010 08:51:04 +0000</pubDate>
		<dc:creator>Jan Zdarsa</dc:creator>
				<category><![CDATA[Uncategorized]]></category>
		<category><![CDATA[kindle]]></category>

		<guid isPermaLink="false">http://www.internetmix.cz/?p=40</guid>
		<description><![CDATA[Nedávno jsem se rozhodl prodat iPad. Přestože se jedná pro konzumaci obsahu o vynikající zařízení, tak konzumace mi po večerech nestačí a většinou musím i večer čichnout k práci a k té mi iPad většinou neposlouží, vždy jsem musel nastartovat svůj Macbook. A proč si tak v těch vyjímečných chvilkách volna neužít klidu dokonale při [...]]]></description>
			<content:encoded><![CDATA[<p>Nedávno jsem se rozhodl prodat iPad. Přestože se jedná pro konzumaci obsahu o vynikající zařízení, tak konzumace mi po večerech nestačí a většinou musím i večer čichnout k práci a k té mi iPad většinou neposlouží, vždy jsem musel nastartovat svůj Macbook. A proč si tak v těch vyjímečných chvilkách volna neužít klidu dokonale při čtení knih, například s Kindle? &#8230;<span id="more-40"></span></p>
<p><strong>Kindle vs iPad</strong><br />
iPad jsem neprodal, protože by byl Kindle lepší zařízení. iPad mám stále rád a doporučím ho každému, kdo by si pro něj našel využití. Jedná se o skvělé zařízení do domácnosti. Kdykoli potřebujete mrknout na Internet, vezmete iPad a bez žádného bootování systému můžete okamžitě surfovat, v pohodlí svého gauče. Stejně tak si můžete zahrát některou z výborných her z AppStore. Takové pohodlí vám žádný notebook ani netbook nenabídne. A díky dotykové obrazovce se pocit pohodlí ještě znásobí.</p>
<p style="text-align: center;"><object classid="clsid:d27cdb6e-ae6d-11cf-96b8-444553540000" width="560" height="340" codebase="http://download.macromedia.com/pub/shockwave/cabs/flash/swflash.cab#version=6,0,40,0"><param name="allowFullScreen" value="true" /><param name="allowscriptaccess" value="always" /><param name="src" value="http://www.youtube.com/v/HGmRKSds9OY?fs=1&amp;hl=cs_CZ" /><param name="allowfullscreen" value="true" /><embed type="application/x-shockwave-flash" width="560" height="340" src="http://www.youtube.com/v/HGmRKSds9OY?fs=1&amp;hl=cs_CZ" allowscriptaccess="always" allowfullscreen="true"></embed></object></p>
<p>Kindle nemá AppStore plný výborných aplikací a her. Není ani lepší na občasné surfování na Internetu. Kindle zkrátka a jednoduše vyniká v tom, k čemu je určený &#8211; ve čtení ebooků a jiných delších dokumentů. Skvělý design, technologie elekronického papíru E-Ink, nízká váha, jednoduchost, skvělé služby od Amazonu a přijatelná cena &#8211; to dělá z Kindle 3 naprostý bestseller.</p>
<p><strong>Kindle 3  &#8211; lehký a s výtečným displejem</strong><br />
Po prvním spuštěním oceníte, kam se technologie elektronického papíru posunula. Oproti čtečce PRS505 od Sony oceníte mnohem lepší kontrast. Kindle 3 se prodává s 6 palcovým displejem, což mi přijde po krátké zkušenosti tak akorát, Kindle můžete díky menší velikosti brát kamkoli sebou. Narozdíl od iPadu nepřitahuje tolik pozornosti v MHD. Jak si lidé všimnou, že v tom máte jenom text, tak si raději začnou všímat kolegy s Bleskem v ruce vedle vás.</p>
<p style="text-align: center;"><a href="http://www.internetmix.cz/wp-content/uploads/amazon-kindle-3-xl.jpg"><img class="aligncenter size-large wp-image-45" title="amazon-kindle-3-xl" src="http://www.internetmix.cz/wp-content/uploads/amazon-kindle-3-xl-550x340.jpg" alt="" width="550" height="340" /></a></p>
<p>S Kindle odlehčím očím, protože technologie elektronického papíru by měla být pro mé oči příjemná změna po celodenním civění na LCD obrazovku. Narozdíl od iPadu je příjemné číst i delší dobu v leže, protože Kindle váží pouhých 240 gramů. Srovnejte to například s nějakou tlustší knihou a pochopíte, proč je Kindle ideální pomocník. Ergonomie není lidem v Amazonu cizí a tak se drží v ruce opravdu příjemně (narozdíl například od iPhone 4).</p>
<p><strong>Kindle 3G vs Kindle pouze s WiFi</strong><br />
Kindle 3 se prodává v provedení s WiFi, ale také s 3G. Já jsem si vybral Kindle 3G a to nejen z toho důvodu, že jen ten se prodává v bílé barvě. Kindle totiž obsahuje internetový prohlížeč (experimentálně). Sice to není na žádné velké surfování, ale pro případné nouzové připojení funguje parádně. Říkáte si, proč platit další internetový tarif pro Kindle, když připojení využijete jen minimálně? Amazon za vás totiž poplatky za Internet platí, nic tak již platit nemusíte. Internet zdarma v Kindle 3G nyní funguje asi v 60 zemích, což se při cestování do zahraničí určitě hodí.</p>
<p><strong>Whispernet &#8211; doručování PDF či ebooků bezdrátově</strong><br />
Do Kindle 3 můžete nahrávat obsah přes USB kabel, ale také můžete využít speciální Kindle email (něco@kindle.com), který ke svému Kindle získáte. Pokud odešlete na tento email PDF dokument, tak vám ho Amazon zdarma překonvertuje do Kindle formátu, takže si pak můžete snadno měnit například velikost písma. Výsledek byl vždy překvapivě výborný!</p>
<p><a href="http://www.internetmix.cz/wp-content/uploads/kindle_3_review.jpg"><img class="aligncenter size-large wp-image-46" title="kindle_3_review" src="http://www.internetmix.cz/wp-content/uploads/kindle_3_review-392x550.jpg" alt="" width="392" height="550" /></a></p>
<p><strong>Nepřekonvertované PDF</strong><br />
Překonvertovat soubory do Kindle formátu můžete buď přes nějakou aplikaci (doporučuji Calibre, která je dostupná pro všechny operační systémy) nebo přes Kindle email. Pokud ale nahrajete PDF přímo do Kindle přes USB, tak ani v tomto případě se nejedná o velký problém. Písmo je na 6 palcové obrazovce opravdu malé, ale číst se dá. Konverzi ale určitě doporučuji!</p>
<p><strong>Kolik zaplatím za doručení přes Kindle email?</strong><br />
Pokud si chcete posílat soubory na Kindle bezdrátově, tak využijete svoji Kinde email adresu. Pokud máte verzi s 3G, tak pokud vám Amazon pošle soubor a vy nejste zrovna na WiFi, tak zaplatíte poplatek podle velikosti souboru (platí se za 1MB). Tomu se dá vyhnout dvěma způsoby:</p>
<ul>
<li>budete si soubory posílat na adresu něco@free.kindle.com a soubor vám bude doručen až v tu chvíli, kdy jste na WiFi</li>
<li>na webu Amazonu si nastavíte, že pokud byste měli za doručení zaplatit více než $0.00, tak ať vám to doručí až ve chvíli, kdy jste na WiFi</li>
</ul>
<p>S Kindle WiFi nemusíte přemýšlet o tom, jestli za doručení zaplatíte, vždy vám jsou soubory doručeny zdarma ve chvíli, kdy se připojíte na WiFi.</p>
<p><strong>Čtení článků z Internetu</strong><br />
Pro čtení novinek z webů můžete použít experimentální prohlížeč, ale existují i jiné možnosti. Například služba Kindlefeeder.com vám doručí nové články z webů, které si vyberete, ve formě ebooku každý den. Službu můžete pro odběry z až 12 webů používat zcela zdarma!</p>
<p><a href="http://www.internetmix.cz/wp-content/uploads/Amazon-Kindle-3.jpg"><img class="aligncenter size-large wp-image-47" title="Amazon-Kindle-3" src="http://www.internetmix.cz/wp-content/uploads/Amazon-Kindle-3-530x550.jpg" alt="" width="530" height="550" /></a></p>
<p>Další možností je například vynikající služba Instapaper. Pokud si zde ukládáte články pro čtení později, tak si můžete stáhnout “ebook” s těmito články v Kindle formátu nebo si je posílat na svůj Kindle email! U obou služeb je problém v tom, že si nemůžete nadefinovat přesnou hodinu doručení. Navíc u Instapaper autor přemýšlí, že na free.kindle.com email se bude doručovat jen omezeně.</p>
<p>Existují i jiné možnosti, jak si nové články z Internetu do Kindle ukládat. Pokud preferujete desktopové aplikace, tak byste i pro tyto účely mohli využít již zmíněnou aplikaci Calibre. Pokud vám ale programování není cizí, tak se vám možná zalíbí <a href="http://www.misantrop.info/amazon-kindle-3-prvni-zkusenosti-par-tipu">skript od Martina Malého</a> na stahování zpráv z českých serverů do Kindle 3.</p>
<p><strong>Pro milovníky citátů</strong><br />
Kdykoli během čtení si můžete kurzorem najet na některé slovo a ve slovníku si najít jeho význam. Případně si dané slovo můžete vyhledat v Google či Wikipedii. Pokud si některou pasáž chcete uložit, tak stačí kurzorem danou větu označit a uložit, případně si k ní přidat poznámku. Pokud čtete ebooky koupené z Amazonu, tak si můžete zapnout funkci, kdy se vám budou zvýrazňovat pasáže, které si zamilovalo více čtenářů. Není ani problém některou větu přes pár kliknutí sdílet na Twitteru či Facebooku.</p>
<p><strong>Co ještě umí?</strong><br />
Na Kindle 3 si můžete uložit i mp3, at již audioknihy či prostě jen hudbu. Limitování budete prostorem, Kindle dokáže pojmout něco přes 3GB souborů. Pokud vás už nebaví číst, tak můžete zapnout funkci předčítání textů. Kindle 3G se zapnutou WiFi vydrží na baterie nějakých 10 dní, pokud vypnete WiFi, tak by měl vydržet až 3 týdny. Výdrž se ale bude samozřejmě odvíjet od toho, jak intenzivně budete Kindle využívat.</p>
<p><strong>Cena za Kindle 3 a poslání do ČR</strong><br />
Za Kindle 3 s WiFi zaplatíte 139 dolarů + 20 dolarů za poštovné. Za 3G verzi si zaplatíte o 50 dolarů více. Pokud si nebudete přikupovat žádné další příslušenství, tak se u WiFi verze bez problému vejdete do bezcelního limitu (neplatíte již DPH ani žádné clo), který činí zhruba 150 €. S 3G verzí bezcelní limit o pár dolarů přesáhnete, ale osobně jsem měl štěstí a žádnou daň jsem neplatil. Doručení zajišťuje UPS, s kterými jsem dlouhodobě nadmíru spokojený. Zavolali mi den dopředu a domluvili se se mnou na doručení.</p>
<p><strong>Verdikt</strong><br />
Pokud rádi čtete a jste toho názoru, že na ebooky již dozrál čas, tak nemusíte příliš přemýšlet. <a href="http://www.amazon.com/gp/product/B002Y27P3M?ie=UTF8&amp;tag=internecz-20&amp;linkCode=as2&amp;camp=1789&amp;creative=9325&amp;creativeASIN=B002Y27P3M">Kindle 3</a> koupíte za pouhé tři tisíce a určitě nešlápnete vedle. Pokud často cestujete, tak byste mohli ocenit i Internet zdarma u Kindle 3G. Na velké surfování a psaní dlouhých emailů to sice není, ale jako záložní řešení pro zahánění nudy například při čekání na letišti se to vyplatí. Kindle 3 vám mohu určitě doporučit!</p>
<p><strong>Zkušenosti s Kindle 3 od ostatních</strong><br />
<a href="http://www.misantrop.info/amazon-kindle-3-prvni-zkusenosti-par-tipu">Amazon Kindle 3 &#8211; první zkušenosti a pár tipů</a> od Martina Malého<br />
<a href="http://myego.cz/item/amazon-kindle-treti-generace-prvni-dojmy">Amazon Kindle třetí generace &#8211; první dojmy</a> od Radka Hulána<br />
<a href="http://podhledem.blogspot.com/2010/09/kindle-3-recenze-plna-nadseni-druhych.html">Kindle 3 – recenze plná nadšení a druhých dojmů</a> od Jiřího Štěpána<br />
<a href="http://blog.martinsimko.cz/2010/09/14/amazon-kindle-3-prvni-doteky/">Amazon Kindle 3 – první doteky</a> od Mártyho</p>
<iframe src="http://www.facebook.com/plugins/like.php?href=http://www.internetmix.cz/ipad-prodan-kindle-je-uzasny/&amp;layout=standard&amp;show_faces=1&amp;width=450&amp;action=like&amp;colorscheme=light&amp;font=" scrolling="no" frameborder="0" style="border:none; overflow:hidden; width:450px; height:25px"></iframe>]]></content:encoded>
			<wfw:commentRss>http://www.internetmix.cz/ipad-prodan-kindle-je-uzasny/feed/</wfw:commentRss>
		<slash:comments>11</slash:comments>
		</item>
		<item>
		<title>Nahrávání screencastů bez nutnosti instalací</title>
		<link>http://www.internetmix.cz/nahravani-screencastu-bez-instalace/</link>
		<comments>http://www.internetmix.cz/nahravani-screencastu-bez-instalace/#comments</comments>
		<pubDate>Sat, 31 Jul 2010 14:40:21 +0000</pubDate>
		<dc:creator>Jan Zdarsa</dc:creator>
				<category><![CDATA[Uncategorized]]></category>
		<category><![CDATA[bookmarklet]]></category>
		<category><![CDATA[screencast]]></category>

		<guid isPermaLink="false">http://www.internetmix.cz/?p=33</guid>
		<description><![CDATA[Potřebovali jste někdy kolegovi názorně ukázat nějaký postup, například nastavení některého programu? Většinou se vám do podobných operací nebude chtít z toho důvodu, že budete muset instalovat 3rd party aplikace. S webovou aplikací Screenr ale největší překážka odpadá! Stačí zajít na stránky Screenr.com, kliknout na Record a po načtení Javy již můžete začít screencast nahrávat. [...]]]></description>
			<content:encoded><![CDATA[<p>Potřebovali jste někdy kolegovi názorně ukázat nějaký postup, například nastavení některého programu? Většinou se vám do podobných operací nebude chtít z toho důvodu, že budete muset instalovat 3rd party aplikace. S webovou aplikací Screenr ale největší překážka odpadá!<span id="more-33"></span></p>
<p>Stačí zajít na stránky <a href="http://screenr.com/">Screenr.com</a>, kliknout na <em>Record</em> a po načtení Javy již můžete začít <strong>screencast nahrávat</strong>. Stačí jen nastavit velikost nahrávané části obrazovky a kliknout na nahrávání &#8211; 3, 2, 1 Go! Nahrávání můžete kdykoli zapauzovat a jestli máte počítač s mikrofonem, tak nahrávání můžete doprovodit i vašemi mluvenými poznámkami.</p>
<p><object type="application/x-shockwave-flash" data="http://vimeo.com/moogaloop.swf" width="480" height="270"><param name="allowscriptaccess" value="always"/><param name="allowfullscreen" value="true"/><param name="movie" value="http://vimeo.com/moogaloop.swf"/><param name="flashvars" value="clip_id=6399265&amp;color=00adef&amp;fullscreen=1&amp;server=vimeo.com&amp;show_byline=1&amp;show_portrait=1&amp;show_title=1"/></object></p>
<p>Pro publikování budete potřebovat Twitter účet na přihlášení, ale to by neměla být překážka. Screencast poté rovnou twítnete, nebo si ho necháte uložený pro sdílení později. Největším omezením je <strong>doba nahrávání screencastu</strong>, která byla stanovena na 5 minut. Pokud plánujete vytvářet screencasty s návody pro nějaké konkrétní publikum, tak tito uživatelé mohou odebírat váš RSS stream.</p>
<p>Jedná se o jednoduchou službu, takže pro <strong>profesionální tvůrce screencastů</strong> Screenr asi nebude, ale pro většinu uživatelů bohatě poslouží. Všechny screencasty jsou veřejné, takže pozor na citlivé informace. Teoreticky lze Screenr využít i k <a href="http://blog.screenr.com/post/224956304/how-to-add-your-webcam-to-your-screencast">nahrávání podcastů</a> z webové kamery. A pokud plánujete nahrávát screencasty pravidelně, tak doporučuji přidat bookmarklet Screenr do svého prohlížeče. Nahrávání je poté bleskově rychlé a snadné!</p>
<iframe src="http://www.facebook.com/plugins/like.php?href=http://www.internetmix.cz/nahravani-screencastu-bez-instalace/&amp;layout=standard&amp;show_faces=1&amp;width=450&amp;action=like&amp;colorscheme=light&amp;font=" scrolling="no" frameborder="0" style="border:none; overflow:hidden; width:450px; height:25px"></iframe>]]></content:encoded>
			<wfw:commentRss>http://www.internetmix.cz/nahravani-screencastu-bez-instalace/feed/</wfw:commentRss>
		<slash:comments>0</slash:comments>
		</item>
		<item>
		<title>Webové aplikace na InternetMix.cz</title>
		<link>http://www.internetmix.cz/webove-aplikace-na-internetmix-cz/</link>
		<comments>http://www.internetmix.cz/webove-aplikace-na-internetmix-cz/#comments</comments>
		<pubDate>Tue, 27 Jul 2010 18:45:56 +0000</pubDate>
		<dc:creator>Jan Zdarsa</dc:creator>
				<category><![CDATA[Uncategorized]]></category>
		<category><![CDATA[internetmix.cz]]></category>

		<guid isPermaLink="false">http://www.internetmix.cz/?p=21</guid>
		<description><![CDATA[Také se vám občas stane, že narazíte na zajímavou a užitečnou webovou aplikaci či službu, která vás prostě nadchne a divíte se, že jste o ní neslyšeli již dříve? Toto se mi stává celkem často. Někdy si takovou webovou aplikaci zapomenu zabookmarkovat a těžko ji pak hledám. Rozhodl jsem se, že si právě na web [...]]]></description>
			<content:encoded><![CDATA[<p>Také se vám občas stane, že narazíte na zajímavou a užitečnou webovou aplikaci či službu, která vás prostě nadchne a divíte se, že jste o ní neslyšeli již dříve? Toto se mi stává celkem často. Někdy si takovou webovou aplikaci zapomenu zabookmarkovat a těžko ji pak hledám.</p>
<p>Rozhodl jsem se, že si právě na web Internetmix.cz budu psát poznámky o těchto aplikacích a budu rád, když tyto zápisky pomohou i někomu dalšímu. Na českém webu se tomuto tématu nikdo příliš nevěnuje. Dříve jsem moc rád četl blog Všemi Osmi od Marka Prokopa, ale na psaní o webových aplikacích už mu nějak nezbývá čas. A tak zkusím čas od času sepsat na blog InternetMix.cz.</p>
<iframe src="http://www.facebook.com/plugins/like.php?href=http://www.internetmix.cz/webove-aplikace-na-internetmix-cz/&amp;layout=standard&amp;show_faces=1&amp;width=450&amp;action=like&amp;colorscheme=light&amp;font=" scrolling="no" frameborder="0" style="border:none; overflow:hidden; width:450px; height:25px"></iframe>]]></content:encoded>
			<wfw:commentRss>http://www.internetmix.cz/webove-aplikace-na-internetmix-cz/feed/</wfw:commentRss>
		<slash:comments>0</slash:comments>
		</item>
	</channel>
</rss>
