<?xml version="1.0" encoding="UTF-8"?>
<rss version="2.0"
	xmlns:content="http://purl.org/rss/1.0/modules/content/"
	xmlns:wfw="http://wellformedweb.org/CommentAPI/"
	xmlns:dc="http://purl.org/dc/elements/1.1/"
	xmlns:atom="http://www.w3.org/2005/Atom"
	xmlns:sy="http://purl.org/rss/1.0/modules/syndication/"
	xmlns:slash="http://purl.org/rss/1.0/modules/slash/"
	>

<channel>
	<title>Digital Tools For Architects &#187; jbraswell</title>
	<atom:link href="http://www.digitaltoolsforarchitects.com/author/jbraswell/feed/" rel="self" type="application/rss+xml" />
	<link>http://www.digitaltoolsforarchitects.com</link>
	<description>The Architect&#039;s Source for Tutorials, Techniques, Tips &#38; Tricks</description>
	<lastBuildDate>Fri, 30 Sep 2011 08:39:38 +0000</lastBuildDate>
	<language>en</language>
	<sy:updatePeriod>hourly</sy:updatePeriod>
	<sy:updateFrequency>1</sy:updateFrequency>
	<generator>http://wordpress.org/?v=3.2.1</generator>
		<item>
		<title>Jia-Lin Braswell&#8217;s Portfolio</title>
		<link>http://www.digitaltoolsforarchitects.com/2010/12/jia-lin-braswells-portfolio/</link>
		<comments>http://www.digitaltoolsforarchitects.com/2010/12/jia-lin-braswells-portfolio/#comments</comments>
		<pubDate>Thu, 16 Dec 2010 18:56:34 +0000</pubDate>
		<dc:creator>jbraswell</dc:creator>
				<category><![CDATA[Uncategorized]]></category>

		<guid isPermaLink="false">http://www.digitaltoolsforarchitects.com/?p=10761</guid>
		<description><![CDATA[ [...]]]></description>
			<content:encoded><![CDATA[<p><a rel="attachment wp-att-10759" href="http://www.digitaltoolsforarchitects.com/2010/12/jia-lin-braswells-portfolio/version-11/">Version 11</a></p>
]]></content:encoded>
			<wfw:commentRss>http://www.digitaltoolsforarchitects.com/2010/12/jia-lin-braswells-portfolio/feed/</wfw:commentRss>
		<slash:comments>0</slash:comments>
		</item>
		<item>
		<title>Braswell&#8217;s Assignment 7</title>
		<link>http://www.digitaltoolsforarchitects.com/2010/12/braswells-assignment-7/</link>
		<comments>http://www.digitaltoolsforarchitects.com/2010/12/braswells-assignment-7/#comments</comments>
		<pubDate>Tue, 07 Dec 2010 19:36:31 +0000</pubDate>
		<dc:creator>jbraswell</dc:creator>
				<category><![CDATA[Uncategorized]]></category>

		<guid isPermaLink="false">http://www.digitaltoolsforarchitects.com/?p=10411</guid>
		<description><![CDATA[ [...]]]></description>
			<content:encoded><![CDATA[<p><a rel="attachment wp-att-10409" href="http://www.digitaltoolsforarchitects.com/?attachment_id=10409"><img class="aligncenter size-medium wp-image-10409" src="http://www.digitaltoolsforarchitects.com/wp-content/uploads/2010/12/Untitled-91-300x149.jpg" alt="" width="300" height="149" /></a></p>
]]></content:encoded>
			<wfw:commentRss>http://www.digitaltoolsforarchitects.com/2010/12/braswells-assignment-7/feed/</wfw:commentRss>
		<slash:comments>1</slash:comments>
		</item>
		<item>
		<title>Braswell&#8217;s Excercise 7.3</title>
		<link>http://www.digitaltoolsforarchitects.com/2010/11/braswells-excercise-7-3/</link>
		<comments>http://www.digitaltoolsforarchitects.com/2010/11/braswells-excercise-7-3/#comments</comments>
		<pubDate>Tue, 30 Nov 2010 22:19:27 +0000</pubDate>
		<dc:creator>jbraswell</dc:creator>
				<category><![CDATA[Uncategorized]]></category>

		<guid isPermaLink="false">http://www.digitaltoolsforarchitects.com/?p=10244</guid>
		<description><![CDATA[ [...]]]></description>
			<content:encoded><![CDATA[<p><a rel="attachment wp-att-10243" href="http://www.digitaltoolsforarchitects.com/2010/11/braswells-excercise-7-3/untitled-3-3/"><img class="aligncenter size-medium wp-image-10243" src="http://www.digitaltoolsforarchitects.com/wp-content/uploads/2010/11/Untitled-3-300x84.jpg" alt="" width="300" height="84" /></a></p>
]]></content:encoded>
			<wfw:commentRss>http://www.digitaltoolsforarchitects.com/2010/11/braswells-excercise-7-3/feed/</wfw:commentRss>
		<slash:comments>0</slash:comments>
		</item>
		<item>
		<title>Braswell&#8217;s cover page</title>
		<link>http://www.digitaltoolsforarchitects.com/2010/11/braswells-cover-page/</link>
		<comments>http://www.digitaltoolsforarchitects.com/2010/11/braswells-cover-page/#comments</comments>
		<pubDate>Tue, 23 Nov 2010 22:12:24 +0000</pubDate>
		<dc:creator>jbraswell</dc:creator>
				<category><![CDATA[Uncategorized]]></category>

		<guid isPermaLink="false">http://www.digitaltoolsforarchitects.com/?p=10088</guid>
		<description><![CDATA[ [...]]]></description>
			<content:encoded><![CDATA[<p><a rel="attachment wp-att-10057" href="http://www.digitaltoolsforarchitects.com/?attachment_id=10057"><img class="aligncenter size-medium wp-image-10057" src="http://www.digitaltoolsforarchitects.com/wp-content/uploads/2010/11/Cover-Page-1-300x231.jpg" alt="" width="300" height="231" /></a></p>
]]></content:encoded>
			<wfw:commentRss>http://www.digitaltoolsforarchitects.com/2010/11/braswells-cover-page/feed/</wfw:commentRss>
		<slash:comments>0</slash:comments>
		</item>
		<item>
		<title>Jia-Lin Braswell&#8217;s Excercise 7.2</title>
		<link>http://www.digitaltoolsforarchitects.com/2010/11/jia-lin-braswells-excercise-7-2/</link>
		<comments>http://www.digitaltoolsforarchitects.com/2010/11/jia-lin-braswells-excercise-7-2/#comments</comments>
		<pubDate>Thu, 18 Nov 2010 21:48:50 +0000</pubDate>
		<dc:creator>jbraswell</dc:creator>
				<category><![CDATA[Uncategorized]]></category>

		<guid isPermaLink="false">http://www.digitaltoolsforarchitects.com/?p=9582</guid>
		<description><![CDATA[ [...]]]></description>
			<content:encoded><![CDATA[<p><a rel="attachment wp-att-9580" href="http://www.digitaltoolsforarchitects.com/2010/11/jia-lin-braswells-excercise-7-2/untitled-6-2/"><img class="aligncenter size-medium wp-image-9580" src="http://www.digitaltoolsforarchitects.com/wp-content/uploads/2010/11/Untitled-6-300x217.jpg" alt="" width="300" height="217" /></a></p>
]]></content:encoded>
			<wfw:commentRss>http://www.digitaltoolsforarchitects.com/2010/11/jia-lin-braswells-excercise-7-2/feed/</wfw:commentRss>
		<slash:comments>0</slash:comments>
		</item>
		<item>
		<title>Jia-Lin Braswell&#8217;s Assignment 6 PDF</title>
		<link>http://www.digitaltoolsforarchitects.com/2010/11/jia-lin-braswells-assignment-6-pdf/</link>
		<comments>http://www.digitaltoolsforarchitects.com/2010/11/jia-lin-braswells-assignment-6-pdf/#comments</comments>
		<pubDate>Tue, 16 Nov 2010 21:20:14 +0000</pubDate>
		<dc:creator>jbraswell</dc:creator>
				<category><![CDATA[Uncategorized]]></category>

		<guid isPermaLink="false">http://www.digitaltoolsforarchitects.com/?p=9340</guid>
		<description><![CDATA[ [...]]]></description>
			<content:encoded><![CDATA[<p><a rel="attachment wp-att-9274" href="http://www.digitaltoolsforarchitects.com/?attachment_id=9274"><img class="aligncenter size-medium wp-image-9274" src="http://www.digitaltoolsforarchitects.com/wp-content/uploads/2010/11/Tabloid-194x300.jpg" alt="" width="194" height="300" /></a></p>
]]></content:encoded>
			<wfw:commentRss>http://www.digitaltoolsforarchitects.com/2010/11/jia-lin-braswells-assignment-6-pdf/feed/</wfw:commentRss>
		<slash:comments>0</slash:comments>
		</item>
		<item>
		<title>Jia-Lin Braswell Portfolio Page</title>
		<link>http://www.digitaltoolsforarchitects.com/2010/11/jia-lin-braswell-portfolio-page/</link>
		<comments>http://www.digitaltoolsforarchitects.com/2010/11/jia-lin-braswell-portfolio-page/#comments</comments>
		<pubDate>Thu, 11 Nov 2010 22:01:46 +0000</pubDate>
		<dc:creator>jbraswell</dc:creator>
				<category><![CDATA[Uncategorized]]></category>

		<guid isPermaLink="false">http://www.digitaltoolsforarchitects.com/?p=9082</guid>
		<description><![CDATA[ [...]]]></description>
			<content:encoded><![CDATA[<p><a rel="attachment wp-att-9081" href="http://www.digitaltoolsforarchitects.com/2010/11/jia-lin-braswell-portfolio-page/version-32/"><img class="aligncenter size-medium wp-image-9081" src="http://www.digitaltoolsforarchitects.com/wp-content/uploads/2010/11/Version-32-300x231.jpg" alt="" width="300" height="231" /></a></p>
]]></content:encoded>
			<wfw:commentRss>http://www.digitaltoolsforarchitects.com/2010/11/jia-lin-braswell-portfolio-page/feed/</wfw:commentRss>
		<slash:comments>0</slash:comments>
		</item>
		<item>
		<title>Jia-Lin Braswell&#8217;s Excercise 6.4</title>
		<link>http://www.digitaltoolsforarchitects.com/2010/11/jia-lin-braswells-excercise-6-4/</link>
		<comments>http://www.digitaltoolsforarchitects.com/2010/11/jia-lin-braswells-excercise-6-4/#comments</comments>
		<pubDate>Tue, 09 Nov 2010 22:07:37 +0000</pubDate>
		<dc:creator>jbraswell</dc:creator>
				<category><![CDATA[Uncategorized]]></category>

		<guid isPermaLink="false">http://www.digitaltoolsforarchitects.com/?p=8855</guid>
		<description><![CDATA[ [...]]]></description>
			<content:encoded><![CDATA[<p><a rel="attachment wp-att-8853" href="http://www.digitaltoolsforarchitects.com/2010/11/jia-lin-braswells-excercise-6-4/section-2/"><img class="aligncenter size-medium wp-image-8853" src="http://www.digitaltoolsforarchitects.com/wp-content/uploads/2010/11/Section-2-300x146.png" alt="" width="300" height="146" /></a><a rel="attachment wp-att-8854" href="http://www.digitaltoolsforarchitects.com/2010/11/jia-lin-braswells-excercise-6-4/whole-view/"><img class="aligncenter size-medium wp-image-8854" src="http://www.digitaltoolsforarchitects.com/wp-content/uploads/2010/11/Whole-View-300x146.png" alt="" width="300" height="146" /></a><a rel="attachment wp-att-8853" href="http://www.digitaltoolsforarchitects.com/2010/11/jia-lin-braswells-excercise-6-4/section-2/"><img class="aligncenter size-medium wp-image-8853" src="http://www.digitaltoolsforarchitects.com/wp-content/uploads/2010/11/Section-2-300x146.png" alt="" width="300" height="146" /></a></p>
]]></content:encoded>
			<wfw:commentRss>http://www.digitaltoolsforarchitects.com/2010/11/jia-lin-braswells-excercise-6-4/feed/</wfw:commentRss>
		<slash:comments>0</slash:comments>
		</item>
		<item>
		<title>Jia-Lin Braswell&#8217;s Falling Water</title>
		<link>http://www.digitaltoolsforarchitects.com/2010/11/jia-lin-braswells-falling-water/</link>
		<comments>http://www.digitaltoolsforarchitects.com/2010/11/jia-lin-braswells-falling-water/#comments</comments>
		<pubDate>Thu, 04 Nov 2010 21:08:43 +0000</pubDate>
		<dc:creator>jbraswell</dc:creator>
				<category><![CDATA[Uncategorized]]></category>

		<guid isPermaLink="false">http://www.digitaltoolsforarchitects.com/?p=8617</guid>
		<description><![CDATA[ [...]]]></description>
			<content:encoded><![CDATA[<p><a rel="attachment wp-att-8616" href="http://www.digitaltoolsforarchitects.com/2010/11/jia-lin-braswells-falling-water/flw-falling-water-1/"><img class="aligncenter size-medium wp-image-8616" src="http://www.digitaltoolsforarchitects.com/wp-content/uploads/2010/11/flw-falling-water-1-300x267.jpg" alt="" width="300" height="267" /></a></p>
]]></content:encoded>
			<wfw:commentRss>http://www.digitaltoolsforarchitects.com/2010/11/jia-lin-braswells-falling-water/feed/</wfw:commentRss>
		<slash:comments>0</slash:comments>
		</item>
		<item>
		<title>Jia-Lin Braswell&#8217;s Exercise 6.3</title>
		<link>http://www.digitaltoolsforarchitects.com/2010/11/jia-lin-braswells-exercise-6-3/</link>
		<comments>http://www.digitaltoolsforarchitects.com/2010/11/jia-lin-braswells-exercise-6-3/#comments</comments>
		<pubDate>Thu, 04 Nov 2010 20:57:30 +0000</pubDate>
		<dc:creator>jbraswell</dc:creator>
				<category><![CDATA[Uncategorized]]></category>

		<guid isPermaLink="false">http://www.digitaltoolsforarchitects.com/?p=8588</guid>
		<description><![CDATA[ [...]]]></description>
			<content:encoded><![CDATA[<p><a rel="attachment wp-att-8586" href="http://www.digitaltoolsforarchitects.com/2010/11/jia-lin-braswells-exercise-6-3/untitled-18/"><img class="aligncenter size-medium wp-image-8586" src="http://www.digitaltoolsforarchitects.com/wp-content/uploads/2010/11/Untitled4-300x151.png" alt="" width="300" height="151" /></a></p>
]]></content:encoded>
			<wfw:commentRss>http://www.digitaltoolsforarchitects.com/2010/11/jia-lin-braswells-exercise-6-3/feed/</wfw:commentRss>
		<slash:comments>0</slash:comments>
		</item>
	</channel>
</rss>
