<?xml version="1.0" encoding="utf-8"?>



<feed xmlns="http://www.w3.org/2005/Atom" xmlns:media="http://search.yahoo.com/mrss/" xmlns:georss="http://www.georss.org/georss" xmlns:geo="http://www.w3.org/2003/01/geo/wgs84_pos#">

<title type="text">FriendFeed - christopherw</title>

<updated>2011-10-03T12:52:41Z</updated>

<id>http://friendfeed.com/christopherw</id>
<link rel="alternate" href="http://friendfeed.com/christopherw" title="FriendFeed - christopherw" type="text/html"/>
<link rel="self" href="http://friendfeed.com/christopherw?format=atom" title="FriendFeed - christopherw" type="application/atom+xml"/>
<link rel="http://api.friendfeed.com/2008/03#sup" href="http://friendfeed.com/api/sup.json#ec3d5a52" type="application/json"/>

<author><name>FriendFeed</name></author>
<icon>http://friendfeed.com/static/apple-touch-icon.png?v=2fd0</icon>

<entry>
<title type="text">Xifos Bonded ADSL</title>
<updated>2011-10-03T12:46:52Z</updated>
<published>2011-10-03T12:46:52Z</published>
<id>tag:friendfeed.com,2007:b1de83ee-43a8-60dc-2ce5-38171195fdfd</id>
<link href="http://www.xifos.net/bonded-adsl" rel="alternate" type="text/html"/>
<content type="xhtml" xml:base="http://friendfeed.com/">
<div xmlns="http://www.w3.org/1999/xhtml" style="font-size:10pt;font-family:Arial,sans-serif;color:black"><div style="">
<table style="border: 0; border-collapse: collapse">
<tr>
<td style="line-height:0; border:0; padding:0; vertical-align:top"><a href="http://friendfeed.com/christopherw" sid="deb736ce163811dd80f3003048343a40" class="l_profile"><img src="http://friendfeed.com/static/images/nomugshot-medium.png?v=0fa9" alt="Christopher" class="picture medium" style="border:1px solid #ccc;width:50px;height:50px"/></a></td>
<td style="border:0; padding:0; vertical-align: top; padding-left:8px; font-family:Arial, sans-serif; font-size:11pt">
<div style="margin-bottom:1pt; color:black">



<a href="http://friendfeed.com/christopherw" style="font-weight:bold;text-decoration:none;color:#00c">Christopher</a>






</div>
<div style="margin-top:2px; color:black">Xifos Bonded ADSL - <a style="text-decoration:none;color:#00c" rel="nofollow" href="http://www.xifos.net/bonded-adsl" title="http://www.xifos.net/bonded-adsl">http://www.xifos.net/bonded-...</a></div>




<div style="margin-top:2px; color:#737373; font-size:10pt">
<a href="http://friendfeed.com/christopherw/b1de83ee/xifos-bonded-adsl" style="color:#737373; text-decoration:none">6 hours ago</a>

from <a style="color:#737373; text-decoration:none" rel="nofollow" href="http://delicious.com/christopherw">delicious</a>

- <a href="http://friendfeed.com/christopherw/b1de83ee/xifos-bonded-adsl" style="color:#77c; text-decoration:none">Comment</a>
- <a href="http://friendfeed.com/christopherw/b1de83ee/xifos-bonded-adsl" style="color:#77c; text-decoration:none">Like</a>
</div>




</td>
</tr>
</table>
</div>
</div>
</content>








</entry>

<entry>
<title type="text">Help in dealing with BT broadband problems | runPCrun - IT Support for London</title>
<updated>2011-10-03T12:52:41Z</updated>
<published>2011-10-03T12:52:41Z</published>
<id>tag:friendfeed.com,2007:ae52972b-dd8b-53d7-12b4-9911b54ed59d</id>
<link href="http://www.runpcrun.com/bthelp" rel="alternate" type="text/html"/>
<content type="xhtml" xml:base="http://friendfeed.com/">
<div xmlns="http://www.w3.org/1999/xhtml" style="font-size:10pt;font-family:Arial,sans-serif;color:black"><div style="">
<table style="border: 0; border-collapse: collapse">
<tr>
<td style="line-height:0; border:0; padding:0; vertical-align:top"><a href="http://friendfeed.com/christopherw" sid="deb736ce163811dd80f3003048343a40" class="l_profile"><img src="http://friendfeed.com/static/images/nomugshot-medium.png?v=0fa9" alt="Christopher" class="picture medium" style="border:1px solid #ccc;width:50px;height:50px"/></a></td>
<td style="border:0; padding:0; vertical-align: top; padding-left:8px; font-family:Arial, sans-serif; font-size:11pt">
<div style="margin-bottom:1pt; color:black">



<a href="http://friendfeed.com/christopherw" style="font-weight:bold;text-decoration:none;color:#00c">Christopher</a>






</div>
<div style="margin-top:2px; color:black">Help in dealing with BT broadband problems | runPCrun - IT Support for London - <a style="text-decoration:none;color:#00c" rel="nofollow" href="http://www.runpcrun.com/bthelp">http://www.runpcrun.com/bthelp</a></div>




<div style="margin-top:2px; color:#737373; font-size:10pt">
<a href="http://friendfeed.com/christopherw/ae52972b/help-in-dealing-with-bt-broadband-problems" style="color:#737373; text-decoration:none">6 hours ago</a>

from <a style="color:#737373; text-decoration:none" rel="nofollow" href="http://delicious.com/christopherw">delicious</a>

- <a href="http://friendfeed.com/christopherw/ae52972b/help-in-dealing-with-bt-broadband-problems" style="color:#77c; text-decoration:none">Comment</a>
- <a href="http://friendfeed.com/christopherw/ae52972b/help-in-dealing-with-bt-broadband-problems" style="color:#77c; text-decoration:none">Like</a>
</div>




</td>
</tr>
</table>
</div>
</div>
</content>








</entry>

<entry>
<title type="text">About BT - BT Divisions</title>
<updated>2011-10-03T12:51:53Z</updated>
<published>2011-10-03T12:51:53Z</published>
<id>tag:friendfeed.com,2007:9b611aed-7002-c62e-1989-9037e3ca87c3</id>
<link href="http://www.kitz.co.uk/adsl/BT.htm" rel="alternate" type="text/html"/>
<content type="xhtml" xml:base="http://friendfeed.com/">
<div xmlns="http://www.w3.org/1999/xhtml" style="font-size:10pt;font-family:Arial,sans-serif;color:black"><div style="">
<table style="border: 0; border-collapse: collapse">
<tr>
<td style="line-height:0; border:0; padding:0; vertical-align:top"><a href="http://friendfeed.com/christopherw" sid="deb736ce163811dd80f3003048343a40" class="l_profile"><img src="http://friendfeed.com/static/images/nomugshot-medium.png?v=0fa9" alt="Christopher" class="picture medium" style="border:1px solid #ccc;width:50px;height:50px"/></a></td>
<td style="border:0; padding:0; vertical-align: top; padding-left:8px; font-family:Arial, sans-serif; font-size:11pt">
<div style="margin-bottom:1pt; color:black">



<a href="http://friendfeed.com/christopherw" style="font-weight:bold;text-decoration:none;color:#00c">Christopher</a>






</div>
<div style="margin-top:2px; color:black">About BT - BT Divisions - <a style="text-decoration:none;color:#00c" rel="nofollow" href="http://www.kitz.co.uk/adsl/BT.htm" title="http://www.kitz.co.uk/adsl/BT.htm">http://www.kitz.co.uk/adsl...</a></div>




<div style="margin-top:2px; color:#737373; font-size:10pt">
<a href="http://friendfeed.com/christopherw/9b611aed/about-bt-divisions" style="color:#737373; text-decoration:none">6 hours ago</a>

from <a style="color:#737373; text-decoration:none" rel="nofollow" href="http://delicious.com/christopherw">delicious</a>

- <a href="http://friendfeed.com/christopherw/9b611aed/about-bt-divisions" style="color:#77c; text-decoration:none">Comment</a>
- <a href="http://friendfeed.com/christopherw/9b611aed/about-bt-divisions" style="color:#77c; text-decoration:none">Like</a>
</div>




</td>
</tr>
</table>
</div>
</div>
</content>








</entry>

<entry>
<title type="text">MLPPP - Bonded ADSL, Bonded SDSL</title>
<updated>2011-10-03T12:48:16Z</updated>
<published>2011-10-03T12:48:16Z</published>
<id>tag:friendfeed.com,2007:54335884-b91d-d231-9f4b-7fac8fc33fca</id>
<link href="http://www.ccsleeds.co.uk/mlppp.html" rel="alternate" type="text/html"/>
<content type="xhtml" xml:base="http://friendfeed.com/">
<div xmlns="http://www.w3.org/1999/xhtml" style="font-size:10pt;font-family:Arial,sans-serif;color:black"><div style="">
<table style="border: 0; border-collapse: collapse">
<tr>
<td style="line-height:0; border:0; padding:0; vertical-align:top"><a href="http://friendfeed.com/christopherw" sid="deb736ce163811dd80f3003048343a40" class="l_profile"><img src="http://friendfeed.com/static/images/nomugshot-medium.png?v=0fa9" alt="Christopher" class="picture medium" style="border:1px solid #ccc;width:50px;height:50px"/></a></td>
<td style="border:0; padding:0; vertical-align: top; padding-left:8px; font-family:Arial, sans-serif; font-size:11pt">
<div style="margin-bottom:1pt; color:black">



<a href="http://friendfeed.com/christopherw" style="font-weight:bold;text-decoration:none;color:#00c">Christopher</a>






</div>
<div style="margin-top:2px; color:black">MLPPP - Bonded ADSL, Bonded SDSL - <a style="text-decoration:none;color:#00c" rel="nofollow" href="http://www.ccsleeds.co.uk/mlppp.html" title="http://www.ccsleeds.co.uk/mlppp.html">http://www.ccsleeds.co.uk/mlppp...</a></div>




<div style="margin-top:2px; color:#737373; font-size:10pt">
<a href="http://friendfeed.com/christopherw/54335884/mlppp-bonded-adsl-sdsl" style="color:#737373; text-decoration:none">6 hours ago</a>

from <a style="color:#737373; text-decoration:none" rel="nofollow" href="http://delicious.com/christopherw">delicious</a>

- <a href="http://friendfeed.com/christopherw/54335884/mlppp-bonded-adsl-sdsl" style="color:#77c; text-decoration:none">Comment</a>
- <a href="http://friendfeed.com/christopherw/54335884/mlppp-bonded-adsl-sdsl" style="color:#77c; text-decoration:none">Like</a>
</div>




</td>
</tr>
</table>
</div>
</div>
</content>








</entry>

<entry>
<title type="text">BT.com Help</title>
<updated>2011-10-03T12:46:20Z</updated>
<published>2011-10-03T12:46:20Z</published>
<id>tag:friendfeed.com,2007:0fd9b689-88fe-ae00-2147-e97c104156d9</id>
<link href="http://bt.custhelp.com/app/contact_email/c/4953" rel="alternate" type="text/html"/>
<content type="xhtml" xml:base="http://friendfeed.com/">
<div xmlns="http://www.w3.org/1999/xhtml" style="font-size:10pt;font-family:Arial,sans-serif;color:black"><div style="">
<table style="border: 0; border-collapse: collapse">
<tr>
<td style="line-height:0; border:0; padding:0; vertical-align:top"><a href="http://friendfeed.com/christopherw" sid="deb736ce163811dd80f3003048343a40" class="l_profile"><img src="http://friendfeed.com/static/images/nomugshot-medium.png?v=0fa9" alt="Christopher" class="picture medium" style="border:1px solid #ccc;width:50px;height:50px"/></a></td>
<td style="border:0; padding:0; vertical-align: top; padding-left:8px; font-family:Arial, sans-serif; font-size:11pt">
<div style="margin-bottom:1pt; color:black">



<a href="http://friendfeed.com/christopherw" style="font-weight:bold;text-decoration:none;color:#00c">Christopher</a>






</div>
<div style="margin-top:2px; color:black">BT.com Help - <a style="text-decoration:none;color:#00c" rel="nofollow" href="http://bt.custhelp.com/app/contact_email/c/4953" title="http://bt.custhelp.com/app/contact_email/c/4953">http://bt.custhelp.com/app...</a></div>




<div style="margin-top:2px; color:#737373; font-size:10pt">
<a href="http://friendfeed.com/christopherw/0fd9b689/bt-help" style="color:#737373; text-decoration:none">6 hours ago</a>

from <a style="color:#737373; text-decoration:none" rel="nofollow" href="http://delicious.com/christopherw">delicious</a>

- <a href="http://friendfeed.com/christopherw/0fd9b689/bt-help" style="color:#77c; text-decoration:none">Comment</a>
- <a href="http://friendfeed.com/christopherw/0fd9b689/bt-help" style="color:#77c; text-decoration:none">Like</a>
</div>






<div style="margin-top:6pt">
<table style="border-spacing:0; border-collapse:collapse">
<tr>
<td style="border:0; padding:0; padding-right:5px; padding-top: 2px; vertical-align:top"><img src="http://friendfeed.com/static/images/n-comment.png?v=1fa9" width="16" height="16"/></td>
<td style="border:0; padding:0; font-family:Arial,sans-serif; font-size:10pt; color:#737373; vertical-align:middle">Twitter user-specific contact form (referenced by @BTCare) - <a href="http://friendfeed.com/christopherw" style="color:#7777cc; text-decoration:none">Christopher</a></td>
</tr>
</table>
</div>


</td>
</tr>
</table>
</div>
</div>
</content>








</entry>

<entry>
<title type="text">BTwholesale DSL Implementation &gt;&gt; Routing after BT RADIUS</title>
<updated>2011-10-03T12:49:22Z</updated>
<published>2011-10-03T12:49:22Z</published>
<id>tag:friendfeed.com,2007:d22d4db4-e3f1-815d-b58d-3287a60cd18a</id>
<link href="http://forums.thinkbroadband.com/btsupplier/2594648-routing-after-bt-radius.html" rel="alternate" type="text/html"/>
<content type="xhtml" xml:base="http://friendfeed.com/">
<div xmlns="http://www.w3.org/1999/xhtml" style="font-size:10pt;font-family:Arial,sans-serif;color:black"><div style="">
<table style="border: 0; border-collapse: collapse">
<tr>
<td style="line-height:0; border:0; padding:0; vertical-align:top"><a href="http://friendfeed.com/christopherw" sid="deb736ce163811dd80f3003048343a40" class="l_profile"><img src="http://friendfeed.com/static/images/nomugshot-medium.png?v=0fa9" alt="Christopher" class="picture medium" style="border:1px solid #ccc;width:50px;height:50px"/></a></td>
<td style="border:0; padding:0; vertical-align: top; padding-left:8px; font-family:Arial, sans-serif; font-size:11pt">
<div style="margin-bottom:1pt; color:black">



<a href="http://friendfeed.com/christopherw" style="font-weight:bold;text-decoration:none;color:#00c">Christopher</a>






</div>
<div style="margin-top:2px; color:black">BTwholesale DSL Implementation &gt;&gt; Routing after BT RADIUS - <a style="text-decoration:none;color:#00c" rel="nofollow" href="http://forums.thinkbroadband.com/btsupplier/2594648-routing-after-bt-radius.html" title="http://forums.thinkbroadband.com/btsupplier/2594648-routing-after-bt-radius.html">http://forums.thinkbroadband.com/btsuppl...</a></div>




<div style="margin-top:2px; color:#737373; font-size:10pt">
<a href="http://friendfeed.com/christopherw/d22d4db4/btwholesale-dsl-implementation-routing-after" style="color:#737373; text-decoration:none">6 hours ago</a>

from <a style="color:#737373; text-decoration:none" rel="nofollow" href="http://delicious.com/christopherw">delicious</a>

- <a href="http://friendfeed.com/christopherw/d22d4db4/btwholesale-dsl-implementation-routing-after" style="color:#77c; text-decoration:none">Comment</a>
- <a href="http://friendfeed.com/christopherw/d22d4db4/btwholesale-dsl-implementation-routing-after" style="color:#77c; text-decoration:none">Like</a>
</div>




</td>
</tr>
</table>
</div>
</div>
</content>








</entry>

<entry>
<title type="text">Thinkbroadband : UK ADSL - How It All Slots Together - BT's ATM Network</title>
<updated>2011-10-03T12:50:26Z</updated>
<published>2011-10-03T12:50:26Z</published>
<id>tag:friendfeed.com,2007:c668056e-8694-603c-0f1a-73a1370afbf1</id>
<link href="http://www.thinkbroadband.com/guide/howitworks/bt-atm.html" rel="alternate" type="text/html"/>
<content type="xhtml" xml:base="http://friendfeed.com/">
<div xmlns="http://www.w3.org/1999/xhtml" style="font-size:10pt;font-family:Arial,sans-serif;color:black"><div style="">
<table style="border: 0; border-collapse: collapse">
<tr>
<td style="line-height:0; border:0; padding:0; vertical-align:top"><a href="http://friendfeed.com/christopherw" sid="deb736ce163811dd80f3003048343a40" class="l_profile"><img src="http://friendfeed.com/static/images/nomugshot-medium.png?v=0fa9" alt="Christopher" class="picture medium" style="border:1px solid #ccc;width:50px;height:50px"/></a></td>
<td style="border:0; padding:0; vertical-align: top; padding-left:8px; font-family:Arial, sans-serif; font-size:11pt">
<div style="margin-bottom:1pt; color:black">



<a href="http://friendfeed.com/christopherw" style="font-weight:bold;text-decoration:none;color:#00c">Christopher</a>






</div>
<div style="margin-top:2px; color:black">Thinkbroadband : UK ADSL - How It All Slots Together - BT's ATM Network - <a style="text-decoration:none;color:#00c" rel="nofollow" href="http://www.thinkbroadband.com/guide/howitworks/bt-atm.html" title="http://www.thinkbroadband.com/guide/howitworks/bt-atm.html">http://www.thinkbroadband.com/guide...</a></div>




<div style="margin-top:2px; color:#737373; font-size:10pt">
<a href="http://friendfeed.com/christopherw/c668056e/thinkbroadband-uk-adsl-how-it-all-slots" style="color:#737373; text-decoration:none">6 hours ago</a>

from <a style="color:#737373; text-decoration:none" rel="nofollow" href="http://delicious.com/christopherw">delicious</a>

- <a href="http://friendfeed.com/christopherw/c668056e/thinkbroadband-uk-adsl-how-it-all-slots" style="color:#77c; text-decoration:none">Comment</a>
- <a href="http://friendfeed.com/christopherw/c668056e/thinkbroadband-uk-adsl-how-it-all-slots" style="color:#77c; text-decoration:none">Like</a>
</div>




</td>
</tr>
</table>
</div>
</div>
</content>








</entry>

<entry>
<title type="text">Coffee roasting: developing a roast profile</title>
<updated>2011-09-29T18:01:08Z</updated>
<published>2011-09-29T18:01:08Z</published>
<id>tag:friendfeed.com,2007:aeca62cf-b9d6-c851-63bd-1aeb0ce838dd</id>
<link href="http://www.bootcoffee.com/roastprofiling.html" rel="alternate" type="text/html"/>
<content type="xhtml" xml:base="http://friendfeed.com/">
<div xmlns="http://www.w3.org/1999/xhtml" style="font-size:10pt;font-family:Arial,sans-serif;color:black"><div style="">
<table style="border: 0; border-collapse: collapse">
<tr>
<td style="line-height:0; border:0; padding:0; vertical-align:top"><a href="http://friendfeed.com/christopherw" sid="deb736ce163811dd80f3003048343a40" class="l_profile"><img src="http://friendfeed.com/static/images/nomugshot-medium.png?v=0fa9" alt="Christopher" class="picture medium" style="border:1px solid #ccc;width:50px;height:50px"/></a></td>
<td style="border:0; padding:0; vertical-align: top; padding-left:8px; font-family:Arial, sans-serif; font-size:11pt">
<div style="margin-bottom:1pt; color:black">



<a href="http://friendfeed.com/christopherw" style="font-weight:bold;text-decoration:none;color:#00c">Christopher</a>






</div>
<div style="margin-top:2px; color:black">Coffee roasting: developing a roast profile - <a style="text-decoration:none;color:#00c" rel="nofollow" href="http://www.bootcoffee.com/roastprofiling.html" title="http://www.bootcoffee.com/roastprofiling.html">http://www.bootcoffee.com/roastpr...</a></div>




<div style="margin-top:2px; color:#737373; font-size:10pt">
<a href="http://friendfeed.com/christopherw/aeca62cf/coffee-roasting-developing-roast-profile" style="color:#737373; text-decoration:none">Thursday</a>

from <a style="color:#737373; text-decoration:none" rel="nofollow" href="http://delicious.com/christopherw">delicious</a>

- <a href="http://friendfeed.com/christopherw/aeca62cf/coffee-roasting-developing-roast-profile" style="color:#77c; text-decoration:none">Comment</a>
- <a href="http://friendfeed.com/christopherw/aeca62cf/coffee-roasting-developing-roast-profile" style="color:#77c; text-decoration:none">Like</a>
</div>




</td>
</tr>
</table>
</div>
</div>
</content>








</entry>

<entry>
<title type="text">Roasters Guild Forum - Delta Point</title>
<updated>2011-09-29T18:02:04Z</updated>
<published>2011-09-29T18:02:04Z</published>
<id>tag:friendfeed.com,2007:9bef0b4b-8da4-885f-2333-9ee8c3326b62</id>
<link href="http://forums.roastersguild.org/viewtopic.php?f=5&amp;t=87" rel="alternate" type="text/html"/>
<content type="xhtml" xml:base="http://friendfeed.com/">
<div xmlns="http://www.w3.org/1999/xhtml" style="font-size:10pt;font-family:Arial,sans-serif;color:black"><div style="">
<table style="border: 0; border-collapse: collapse">
<tr>
<td style="line-height:0; border:0; padding:0; vertical-align:top"><a href="http://friendfeed.com/christopherw" sid="deb736ce163811dd80f3003048343a40" class="l_profile"><img src="http://friendfeed.com/static/images/nomugshot-medium.png?v=0fa9" alt="Christopher" class="picture medium" style="border:1px solid #ccc;width:50px;height:50px"/></a></td>
<td style="border:0; padding:0; vertical-align: top; padding-left:8px; font-family:Arial, sans-serif; font-size:11pt">
<div style="margin-bottom:1pt; color:black">



<a href="http://friendfeed.com/christopherw" style="font-weight:bold;text-decoration:none;color:#00c">Christopher</a>






</div>
<div style="margin-top:2px; color:black">Roasters Guild Forum - Delta Point - <a style="text-decoration:none;color:#00c" rel="nofollow" href="http://forums.roastersguild.org/viewtopic.php?f=5&amp;t=87" title="http://forums.roastersguild.org/viewtopic.php?f=5&amp;t=87">http://forums.roastersguild.org/viewtop...</a></div>




<div style="margin-top:2px; color:#737373; font-size:10pt">
<a href="http://friendfeed.com/christopherw/9bef0b4b/roasters-guild-forum-delta-point" style="color:#737373; text-decoration:none">Thursday</a>

from <a style="color:#737373; text-decoration:none" rel="nofollow" href="http://delicious.com/christopherw">delicious</a>

- <a href="http://friendfeed.com/christopherw/9bef0b4b/roasters-guild-forum-delta-point" style="color:#77c; text-decoration:none">Comment</a>
- <a href="http://friendfeed.com/christopherw/9bef0b4b/roasters-guild-forum-delta-point" style="color:#77c; text-decoration:none">Like</a>
</div>




</td>
</tr>
</table>
</div>
</div>
</content>








</entry>

<entry>
<title type="text">Drying Phase Pictorial - Home Roasting (Home-Barista.com)</title>
<updated>2011-09-29T18:00:45Z</updated>
<published>2011-09-29T18:00:45Z</published>
<id>tag:friendfeed.com,2007:3fc85541-6353-96ff-1998-6b12f633aafa</id>
<link href="http://www.home-barista.com/home-roasting/drying-phase-pictorial-t13819.html" rel="alternate" type="text/html"/>
<content type="xhtml" xml:base="http://friendfeed.com/">
<div xmlns="http://www.w3.org/1999/xhtml" style="font-size:10pt;font-family:Arial,sans-serif;color:black"><div style="">
<table style="border: 0; border-collapse: collapse">
<tr>
<td style="line-height:0; border:0; padding:0; vertical-align:top"><a href="http://friendfeed.com/christopherw" sid="deb736ce163811dd80f3003048343a40" class="l_profile"><img src="http://friendfeed.com/static/images/nomugshot-medium.png?v=0fa9" alt="Christopher" class="picture medium" style="border:1px solid #ccc;width:50px;height:50px"/></a></td>
<td style="border:0; padding:0; vertical-align: top; padding-left:8px; font-family:Arial, sans-serif; font-size:11pt">
<div style="margin-bottom:1pt; color:black">



<a href="http://friendfeed.com/christopherw" style="font-weight:bold;text-decoration:none;color:#00c">Christopher</a>






</div>
<div style="margin-top:2px; color:black">Drying Phase Pictorial - Home Roasting (Home-Barista.com) - <a style="text-decoration:none;color:#00c" rel="nofollow" href="http://www.home-barista.com/home-roasting/drying-phase-pictorial-t13819.html" title="http://www.home-barista.com/home-roasting/drying-phase-pictorial-t13819.html">http://www.home-barista.com/home-ro...</a></div>




<div style="margin-top:2px; color:#737373; font-size:10pt">
<a href="http://friendfeed.com/christopherw/3fc85541/drying-phase-pictorial-home-roasting-barista" style="color:#737373; text-decoration:none">Thursday</a>

from <a style="color:#737373; text-decoration:none" rel="nofollow" href="http://delicious.com/christopherw">delicious</a>

- <a href="http://friendfeed.com/christopherw/3fc85541/drying-phase-pictorial-home-roasting-barista" style="color:#77c; text-decoration:none">Comment</a>
- <a href="http://friendfeed.com/christopherw/3fc85541/drying-phase-pictorial-home-roasting-barista" style="color:#77c; text-decoration:none">Like</a>
</div>




</td>
</tr>
</table>
</div>
</div>
</content>








</entry>

<entry>
<title type="text">AVOS’ Delicious Disaster: Lessons from a Complete Failure | ZDNet</title>
<updated>2011-09-29T16:06:40Z</updated>
<published>2011-09-29T16:06:40Z</published>
<id>tag:friendfeed.com,2007:4da844ca-fe02-6ace-e93c-3ca21a3b9972</id>
<link href="http://www.zdnet.com/blog/violetblue/avos-delicious-disaster-lessons-from-a-complete-failure/705" rel="alternate" type="text/html"/>
<content type="xhtml" xml:base="http://friendfeed.com/">
<div xmlns="http://www.w3.org/1999/xhtml" style="font-size:10pt;font-family:Arial,sans-serif;color:black"><div style="">
<table style="border: 0; border-collapse: collapse">
<tr>
<td style="line-height:0; border:0; padding:0; vertical-align:top"><a href="http://friendfeed.com/christopherw" sid="deb736ce163811dd80f3003048343a40" class="l_profile"><img src="http://friendfeed.com/static/images/nomugshot-medium.png?v=0fa9" alt="Christopher" class="picture medium" style="border:1px solid #ccc;width:50px;height:50px"/></a></td>
<td style="border:0; padding:0; vertical-align: top; padding-left:8px; font-family:Arial, sans-serif; font-size:11pt">
<div style="margin-bottom:1pt; color:black">



<a href="http://friendfeed.com/christopherw" style="font-weight:bold;text-decoration:none;color:#00c">Christopher</a>






</div>
<div style="margin-top:2px; color:black">AVOS’ Delicious Disaster: Lessons from a Complete Failure | ZDNet - <a style="text-decoration:none;color:#00c" rel="nofollow" href="http://www.zdnet.com/blog/violetblue/avos-delicious-disaster-lessons-from-a-complete-failure/705" title="http://www.zdnet.com/blog/violetblue/avos-delicious-disaster-lessons-from-a-complete-failure/705">http://www.zdnet.com/blog...</a></div>




<div style="margin-top:2px; color:#737373; font-size:10pt">
<a href="http://friendfeed.com/christopherw/4da844ca/avos-delicious-disaster-lessons-from-complete" style="color:#737373; text-decoration:none">Thursday</a>

from <a style="color:#737373; text-decoration:none" rel="nofollow" href="http://delicious.com/christopherw">delicious</a>

- <a href="http://friendfeed.com/christopherw/4da844ca/avos-delicious-disaster-lessons-from-complete" style="color:#77c; text-decoration:none">Comment</a>
- <a href="http://friendfeed.com/christopherw/4da844ca/avos-delicious-disaster-lessons-from-complete" style="color:#77c; text-decoration:none">Like</a>
</div>




</td>
</tr>
</table>
</div>
</div>
</content>








</entry>

<entry>
<title type="text">Diamond Club</title>
<updated>2011-09-23T02:24:56Z</updated>
<published>2011-09-23T02:24:56Z</published>
<id>tag:friendfeed.com,2007:33b9df6d-e5ec-2b2e-f74a-fa5a399eee64</id>
<link href="http://www.flickr.com/photos/paulywood/6074867938/" rel="alternate" type="text/html"/>
<content type="xhtml" xml:base="http://friendfeed.com/">
<div xmlns="http://www.w3.org/1999/xhtml" style="font-size:10pt;font-family:Arial,sans-serif;color:black"><div style="">
<table style="border: 0; border-collapse: collapse">
<tr>
<td style="line-height:0; border:0; padding:0; vertical-align:top"><a href="http://friendfeed.com/christopherw" sid="deb736ce163811dd80f3003048343a40" class="l_profile"><img src="http://friendfeed.com/static/images/nomugshot-medium.png?v=0fa9" alt="Christopher" class="picture medium" style="border:1px solid #ccc;width:50px;height:50px"/></a></td>
<td style="border:0; padding:0; vertical-align: top; padding-left:8px; font-family:Arial, sans-serif; font-size:11pt">
<div style="margin-bottom:1pt; color:black">



<a href="http://friendfeed.com/christopherw" style="font-weight:bold;text-decoration:none;color:#00c">Christopher</a>






</div>
<div style="margin-top:2px; color:black">Diamond Club - <a style="text-decoration:none;color:#00c" rel="nofollow" href="http://www.flickr.com/photos/paulywood/6074867938/" title="http://www.flickr.com/photos/paulywood/6074867938/">http://www.flickr.com/photos...</a></div>


<div style="margin-top:5px; margin-bottom:5px">
<table style="border-collapse:collapse; border:0">
<tr>





<td style="border:0; padding:0; vertical-align:middle; padding-right:8px"><a rel="nofollow" href="http://www.flickr.com/photos/paulywood/6074867938/"><img src="http://farm7.static.flickr.com/6088/6074867938_82accc23cf_s.jpg" style="width:75px; height:75px; border:1px solid silver; padding:1px" alt="Diamond Club" title="Diamond Club"/></a></td>


</tr>
</table>
</div>



<div style="margin-top:2px; color:#737373; font-size:10pt">
<a href="http://friendfeed.com/christopherw/33b9df6d/diamond-club" style="color:#737373; text-decoration:none">September 22</a>

from <a style="color:#737373; text-decoration:none" rel="nofollow" href="http://www.flickr.com/photos/21555360%40N00/favorites/">Flickr favorites</a>

- <a href="http://friendfeed.com/christopherw/33b9df6d/diamond-club" style="color:#77c; text-decoration:none">Comment</a>
- <a href="http://friendfeed.com/christopherw/33b9df6d/diamond-club" style="color:#77c; text-decoration:none">Like</a>
</div>




</td>
</tr>
</table>
</div>
</div>
</content>


<media:group>
<media:title>Diamond Club 1</media:title>

<media:content url="http://farm7.static.flickr.com/6088/6074867938_82accc23cf_b.jpg" type="image/jpeg" width="1024" height="640"/>


<media:thumbnail url="http://farm7.static.flickr.com/6088/6074867938_82accc23cf_s.jpg" width="75" height="75"/>


</media:group>







</entry>

<entry>
<title type="text">Change upload size - RoundCube Webmail Community Forum</title>
<updated>2011-09-15T16:54:13Z</updated>
<published>2011-09-15T16:54:13Z</published>
<id>tag:friendfeed.com,2007:78ce60a5-1b71-8ebe-190e-ccd192c44e2b</id>
<link href="http://www.roundcubeforum.net/5-release-support/14-release-discussion/2103-change-upload-size.html" rel="alternate" type="text/html"/>
<content type="xhtml" xml:base="http://friendfeed.com/">
<div xmlns="http://www.w3.org/1999/xhtml" style="font-size:10pt;font-family:Arial,sans-serif;color:black"><div style="">
<table style="border: 0; border-collapse: collapse">
<tr>
<td style="line-height:0; border:0; padding:0; vertical-align:top"><a href="http://friendfeed.com/christopherw" sid="deb736ce163811dd80f3003048343a40" class="l_profile"><img src="http://friendfeed.com/static/images/nomugshot-medium.png?v=0fa9" alt="Christopher" class="picture medium" style="border:1px solid #ccc;width:50px;height:50px"/></a></td>
<td style="border:0; padding:0; vertical-align: top; padding-left:8px; font-family:Arial, sans-serif; font-size:11pt">
<div style="margin-bottom:1pt; color:black">



<a href="http://friendfeed.com/christopherw" style="font-weight:bold;text-decoration:none;color:#00c">Christopher</a>






</div>
<div style="margin-top:2px; color:black">Change upload size - RoundCube Webmail Community Forum - <a style="text-decoration:none;color:#00c" rel="nofollow" href="http://www.roundcubeforum.net/5-release-support/14-release-discussion/2103-change-upload-size.html" title="http://www.roundcubeforum.net/5-release-support/14-release-discussion/2103-change-upload-size.html">http://www.roundcubeforum.net/5-relea...</a></div>




<div style="margin-top:2px; color:#737373; font-size:10pt">
<a href="http://friendfeed.com/christopherw/78ce60a5/change-upload-size-roundcube-webmail" style="color:#737373; text-decoration:none">September 15</a>

from <a style="color:#737373; text-decoration:none" rel="nofollow" href="http://delicious.com/christopherw">delicious</a>

- <a href="http://friendfeed.com/christopherw/78ce60a5/change-upload-size-roundcube-webmail" style="color:#77c; text-decoration:none">Comment</a>
- <a href="http://friendfeed.com/christopherw/78ce60a5/change-upload-size-roundcube-webmail" style="color:#77c; text-decoration:none">Like</a>
</div>




</td>
</tr>
</table>
</div>
</div>
</content>








</entry>

<entry>
<title type="text">TipsAndTricks/BecomingRoot - CentOS Wiki</title>
<updated>2011-09-15T16:53:34Z</updated>
<published>2011-09-15T16:53:34Z</published>
<id>tag:friendfeed.com,2007:77987e34-b4e0-273f-e06d-53997b0ac869</id>
<link href="http://wiki.centos.org/TipsAndTricks/BecomingRoot" rel="alternate" type="text/html"/>
<content type="xhtml" xml:base="http://friendfeed.com/">
<div xmlns="http://www.w3.org/1999/xhtml" style="font-size:10pt;font-family:Arial,sans-serif;color:black"><div style="">
<table style="border: 0; border-collapse: collapse">
<tr>
<td style="line-height:0; border:0; padding:0; vertical-align:top"><a href="http://friendfeed.com/christopherw" sid="deb736ce163811dd80f3003048343a40" class="l_profile"><img src="http://friendfeed.com/static/images/nomugshot-medium.png?v=0fa9" alt="Christopher" class="picture medium" style="border:1px solid #ccc;width:50px;height:50px"/></a></td>
<td style="border:0; padding:0; vertical-align: top; padding-left:8px; font-family:Arial, sans-serif; font-size:11pt">
<div style="margin-bottom:1pt; color:black">



<a href="http://friendfeed.com/christopherw" style="font-weight:bold;text-decoration:none;color:#00c">Christopher</a>






</div>
<div style="margin-top:2px; color:black">TipsAndTricks/BecomingRoot - CentOS Wiki - <a style="text-decoration:none;color:#00c" rel="nofollow" href="http://wiki.centos.org/TipsAndTricks/BecomingRoot" title="http://wiki.centos.org/TipsAndTricks/BecomingRoot">http://wiki.centos.org/TipsAnd...</a></div>




<div style="margin-top:2px; color:#737373; font-size:10pt">
<a href="http://friendfeed.com/christopherw/77987e34/tipsandtricks-becomingroot-centos-wiki" style="color:#737373; text-decoration:none">September 15</a>

from <a style="color:#737373; text-decoration:none" rel="nofollow" href="http://delicious.com/christopherw">delicious</a>

- <a href="http://friendfeed.com/christopherw/77987e34/tipsandtricks-becomingroot-centos-wiki" style="color:#77c; text-decoration:none">Comment</a>
- <a href="http://friendfeed.com/christopherw/77987e34/tipsandtricks-becomingroot-centos-wiki" style="color:#77c; text-decoration:none">Like</a>
</div>




</td>
</tr>
</table>
</div>
</div>
</content>








</entry>

<entry>
<title type="text">Lick The Salt » FAIL: Why you should ALWAYS use visudo</title>
<updated>2011-09-15T16:53:18Z</updated>
<published>2011-09-15T16:53:18Z</published>
<id>tag:friendfeed.com,2007:3ab47a26-c904-fcf9-39f7-eb62ad611ce1</id>
<link href="http://lickthesalt.com/2009/07/06/fail-why-you-should-always-use-visudo/" rel="alternate" type="text/html"/>
<content type="xhtml" xml:base="http://friendfeed.com/">
<div xmlns="http://www.w3.org/1999/xhtml" style="font-size:10pt;font-family:Arial,sans-serif;color:black"><div style="">
<table style="border: 0; border-collapse: collapse">
<tr>
<td style="line-height:0; border:0; padding:0; vertical-align:top"><a href="http://friendfeed.com/christopherw" sid="deb736ce163811dd80f3003048343a40" class="l_profile"><img src="http://friendfeed.com/static/images/nomugshot-medium.png?v=0fa9" alt="Christopher" class="picture medium" style="border:1px solid #ccc;width:50px;height:50px"/></a></td>
<td style="border:0; padding:0; vertical-align: top; padding-left:8px; font-family:Arial, sans-serif; font-size:11pt">
<div style="margin-bottom:1pt; color:black">



<a href="http://friendfeed.com/christopherw" style="font-weight:bold;text-decoration:none;color:#00c">Christopher</a>






</div>
<div style="margin-top:2px; color:black">Lick The Salt » FAIL: Why you should ALWAYS use visudo - <a style="text-decoration:none;color:#00c" rel="nofollow" href="http://lickthesalt.com/2009/07/06/fail-why-you-should-always-use-visudo/" title="http://lickthesalt.com/2009/07/06/fail-why-you-should-always-use-visudo/">http://lickthesalt.com/2009...</a></div>




<div style="margin-top:2px; color:#737373; font-size:10pt">
<a href="http://friendfeed.com/christopherw/3ab47a26/lick-salt-fail-why-you-should-always-use-visudo" style="color:#737373; text-decoration:none">September 15</a>

from <a style="color:#737373; text-decoration:none" rel="nofollow" href="http://delicious.com/christopherw">delicious</a>

- <a href="http://friendfeed.com/christopherw/3ab47a26/lick-salt-fail-why-you-should-always-use-visudo" style="color:#77c; text-decoration:none">Comment</a>
- <a href="http://friendfeed.com/christopherw/3ab47a26/lick-salt-fail-why-you-should-always-use-visudo" style="color:#77c; text-decoration:none">Like</a>
</div>




</td>
</tr>
</table>
</div>
</div>
</content>








</entry>

<entry>
<title type="text">Linux Tips - The Computer Technology Documentation Project</title>
<updated>2011-09-15T16:53:52Z</updated>
<published>2011-09-15T16:53:52Z</published>
<id>tag:friendfeed.com,2007:b87f5a11-6e46-97a4-70bd-33d4dbb6e346</id>
<link href="http://www.comptechdoc.org/os/linux/tips/tipsps1.html" rel="alternate" type="text/html"/>
<content type="xhtml" xml:base="http://friendfeed.com/">
<div xmlns="http://www.w3.org/1999/xhtml" style="font-size:10pt;font-family:Arial,sans-serif;color:black"><div style="">
<table style="border: 0; border-collapse: collapse">
<tr>
<td style="line-height:0; border:0; padding:0; vertical-align:top"><a href="http://friendfeed.com/christopherw" sid="deb736ce163811dd80f3003048343a40" class="l_profile"><img src="http://friendfeed.com/static/images/nomugshot-medium.png?v=0fa9" alt="Christopher" class="picture medium" style="border:1px solid #ccc;width:50px;height:50px"/></a></td>
<td style="border:0; padding:0; vertical-align: top; padding-left:8px; font-family:Arial, sans-serif; font-size:11pt">
<div style="margin-bottom:1pt; color:black">



<a href="http://friendfeed.com/christopherw" style="font-weight:bold;text-decoration:none;color:#00c">Christopher</a>






</div>
<div style="margin-top:2px; color:black">Linux Tips - The Computer Technology Documentation Project - <a style="text-decoration:none;color:#00c" rel="nofollow" href="http://www.comptechdoc.org/os/linux/tips/tipsps1.html" title="http://www.comptechdoc.org/os/linux/tips/tipsps1.html">http://www.comptechdoc.org/os...</a></div>




<div style="margin-top:2px; color:#737373; font-size:10pt">
<a href="http://friendfeed.com/christopherw/b87f5a11/linux-tips-computer-technology-documentation" style="color:#737373; text-decoration:none">September 15</a>

from <a style="color:#737373; text-decoration:none" rel="nofollow" href="http://delicious.com/christopherw">delicious</a>

- <a href="http://friendfeed.com/christopherw/b87f5a11/linux-tips-computer-technology-documentation" style="color:#77c; text-decoration:none">Comment</a>
- <a href="http://friendfeed.com/christopherw/b87f5a11/linux-tips-computer-technology-documentation" style="color:#77c; text-decoration:none">Like</a>
</div>




</td>
</tr>
</table>
</div>
</div>
</content>








</entry>

<entry>
<title type="text">Change upload size - RoundCube Webmail Community Forum</title>
<updated>2011-09-15T16:54:13Z</updated>
<published>2011-09-15T16:54:13Z</published>
<id>tag:friendfeed.com,2007:0f51b19b-c006-cfd3-fef0-148b84ba6d04</id>
<link href="http://www.roundcubeforum.net/5-release-support/14-release-discussion/2103-change-upload-size.html" rel="alternate" type="text/html"/>
<content type="xhtml" xml:base="http://friendfeed.com/">
<div xmlns="http://www.w3.org/1999/xhtml" style="font-size:10pt;font-family:Arial,sans-serif;color:black"><div style="">
<table style="border: 0; border-collapse: collapse">
<tr>
<td style="line-height:0; border:0; padding:0; vertical-align:top"><a href="http://friendfeed.com/christopherw" sid="deb736ce163811dd80f3003048343a40" class="l_profile"><img src="http://friendfeed.com/static/images/nomugshot-medium.png?v=0fa9" alt="Christopher" class="picture medium" style="border:1px solid #ccc;width:50px;height:50px"/></a></td>
<td style="border:0; padding:0; vertical-align: top; padding-left:8px; font-family:Arial, sans-serif; font-size:11pt">
<div style="margin-bottom:1pt; color:black">



<a href="http://friendfeed.com/christopherw" style="font-weight:bold;text-decoration:none;color:#00c">Christopher</a>






</div>
<div style="margin-top:2px; color:black">Change upload size - RoundCube Webmail Community Forum - <a style="text-decoration:none;color:#00c" rel="nofollow" href="http://www.roundcubeforum.net/5-release-support/14-release-discussion/2103-change-upload-size.html" title="http://www.roundcubeforum.net/5-release-support/14-release-discussion/2103-change-upload-size.html">http://www.roundcubeforum.net/5-relea...</a></div>




<div style="margin-top:2px; color:#737373; font-size:10pt">
<a href="http://friendfeed.com/christopherw/0f51b19b/change-upload-size-roundcube-webmail" style="color:#737373; text-decoration:none">September 15</a>

from <a style="color:#737373; text-decoration:none" rel="nofollow" href="http://delicious.com/christopherw">delicious</a>

- <a href="http://friendfeed.com/christopherw/0f51b19b/change-upload-size-roundcube-webmail" style="color:#77c; text-decoration:none">Comment</a>
- <a href="http://friendfeed.com/christopherw/0f51b19b/change-upload-size-roundcube-webmail" style="color:#77c; text-decoration:none">Like</a>
</div>




</td>
</tr>
</table>
</div>
</div>
</content>








</entry>

<entry>
<title type="text">Linux Tips - The Computer Technology Documentation Project</title>
<updated>2011-09-15T16:53:52Z</updated>
<published>2011-09-15T16:53:52Z</published>
<id>tag:friendfeed.com,2007:7cb34e44-0ccd-6a1f-36c1-f11e8a09909f</id>
<link href="http://www.comptechdoc.org/os/linux/tips/tipsps1.html" rel="alternate" type="text/html"/>
<content type="xhtml" xml:base="http://friendfeed.com/">
<div xmlns="http://www.w3.org/1999/xhtml" style="font-size:10pt;font-family:Arial,sans-serif;color:black"><div style="">
<table style="border: 0; border-collapse: collapse">
<tr>
<td style="line-height:0; border:0; padding:0; vertical-align:top"><a href="http://friendfeed.com/christopherw" sid="deb736ce163811dd80f3003048343a40" class="l_profile"><img src="http://friendfeed.com/static/images/nomugshot-medium.png?v=0fa9" alt="Christopher" class="picture medium" style="border:1px solid #ccc;width:50px;height:50px"/></a></td>
<td style="border:0; padding:0; vertical-align: top; padding-left:8px; font-family:Arial, sans-serif; font-size:11pt">
<div style="margin-bottom:1pt; color:black">



<a href="http://friendfeed.com/christopherw" style="font-weight:bold;text-decoration:none;color:#00c">Christopher</a>






</div>
<div style="margin-top:2px; color:black">Linux Tips - The Computer Technology Documentation Project - <a style="text-decoration:none;color:#00c" rel="nofollow" href="http://www.comptechdoc.org/os/linux/tips/tipsps1.html" title="http://www.comptechdoc.org/os/linux/tips/tipsps1.html">http://www.comptechdoc.org/os...</a></div>




<div style="margin-top:2px; color:#737373; font-size:10pt">
<a href="http://friendfeed.com/christopherw/7cb34e44/linux-tips-computer-technology-documentation" style="color:#737373; text-decoration:none">September 15</a>

from <a style="color:#737373; text-decoration:none" rel="nofollow" href="http://delicious.com/christopherw">delicious</a>

- <a href="http://friendfeed.com/christopherw/7cb34e44/linux-tips-computer-technology-documentation" style="color:#77c; text-decoration:none">Comment</a>
- <a href="http://friendfeed.com/christopherw/7cb34e44/linux-tips-computer-technology-documentation" style="color:#77c; text-decoration:none">Like</a>
</div>




</td>
</tr>
</table>
</div>
</div>
</content>








</entry>

<entry>
<title type="text">TipsAndTricks/BecomingRoot - CentOS Wiki</title>
<updated>2011-09-15T16:53:42Z</updated>
<published>2011-09-15T16:53:42Z</published>
<id>tag:friendfeed.com,2007:ee537bc6-a4cd-fd33-c24c-378d1d6ea383</id>
<link href="http://wiki.centos.org/TipsAndTricks/BecomingRoot" rel="alternate" type="text/html"/>
<content type="xhtml" xml:base="http://friendfeed.com/">
<div xmlns="http://www.w3.org/1999/xhtml" style="font-size:10pt;font-family:Arial,sans-serif;color:black"><div style="">
<table style="border: 0; border-collapse: collapse">
<tr>
<td style="line-height:0; border:0; padding:0; vertical-align:top"><a href="http://friendfeed.com/christopherw" sid="deb736ce163811dd80f3003048343a40" class="l_profile"><img src="http://friendfeed.com/static/images/nomugshot-medium.png?v=0fa9" alt="Christopher" class="picture medium" style="border:1px solid #ccc;width:50px;height:50px"/></a></td>
<td style="border:0; padding:0; vertical-align: top; padding-left:8px; font-family:Arial, sans-serif; font-size:11pt">
<div style="margin-bottom:1pt; color:black">



<a href="http://friendfeed.com/christopherw" style="font-weight:bold;text-decoration:none;color:#00c">Christopher</a>






</div>
<div style="margin-top:2px; color:black">TipsAndTricks/BecomingRoot - CentOS Wiki - <a style="text-decoration:none;color:#00c" rel="nofollow" href="http://wiki.centos.org/TipsAndTricks/BecomingRoot" title="http://wiki.centos.org/TipsAndTricks/BecomingRoot">http://wiki.centos.org/TipsAnd...</a></div>




<div style="margin-top:2px; color:#737373; font-size:10pt">
<a href="http://friendfeed.com/christopherw/ee537bc6/tipsandtricks-becomingroot-centos-wiki" style="color:#737373; text-decoration:none">September 15</a>

from <a style="color:#737373; text-decoration:none" rel="nofollow" href="http://delicious.com/christopherw">delicious</a>

- <a href="http://friendfeed.com/christopherw/ee537bc6/tipsandtricks-becomingroot-centos-wiki" style="color:#77c; text-decoration:none">Comment</a>
- <a href="http://friendfeed.com/christopherw/ee537bc6/tipsandtricks-becomingroot-centos-wiki" style="color:#77c; text-decoration:none">Like</a>
</div>




</td>
</tr>
</table>
</div>
</div>
</content>








</entry>

<entry>
<title type="text">Lick The Salt » FAIL: Why you should ALWAYS use visudo</title>
<updated>2011-09-15T16:53:37Z</updated>
<published>2011-09-15T16:53:37Z</published>
<id>tag:friendfeed.com,2007:476def0c-e3e1-4a6a-e277-3729e37c5a6e</id>
<link href="http://lickthesalt.com/2009/07/06/fail-why-you-should-always-use-visudo/" rel="alternate" type="text/html"/>
<content type="xhtml" xml:base="http://friendfeed.com/">
<div xmlns="http://www.w3.org/1999/xhtml" style="font-size:10pt;font-family:Arial,sans-serif;color:black"><div style="">
<table style="border: 0; border-collapse: collapse">
<tr>
<td style="line-height:0; border:0; padding:0; vertical-align:top"><a href="http://friendfeed.com/christopherw" sid="deb736ce163811dd80f3003048343a40" class="l_profile"><img src="http://friendfeed.com/static/images/nomugshot-medium.png?v=0fa9" alt="Christopher" class="picture medium" style="border:1px solid #ccc;width:50px;height:50px"/></a></td>
<td style="border:0; padding:0; vertical-align: top; padding-left:8px; font-family:Arial, sans-serif; font-size:11pt">
<div style="margin-bottom:1pt; color:black">



<a href="http://friendfeed.com/christopherw" style="font-weight:bold;text-decoration:none;color:#00c">Christopher</a>






</div>
<div style="margin-top:2px; color:black">Lick The Salt » FAIL: Why you should ALWAYS use visudo - <a style="text-decoration:none;color:#00c" rel="nofollow" href="http://lickthesalt.com/2009/07/06/fail-why-you-should-always-use-visudo/" title="http://lickthesalt.com/2009/07/06/fail-why-you-should-always-use-visudo/">http://lickthesalt.com/2009...</a></div>




<div style="margin-top:2px; color:#737373; font-size:10pt">
<a href="http://friendfeed.com/christopherw/476def0c/lick-salt-fail-why-you-should-always-use-visudo" style="color:#737373; text-decoration:none">September 15</a>

from <a style="color:#737373; text-decoration:none" rel="nofollow" href="http://delicious.com/christopherw">delicious</a>

- <a href="http://friendfeed.com/christopherw/476def0c/lick-salt-fail-why-you-should-always-use-visudo" style="color:#77c; text-decoration:none">Comment</a>
- <a href="http://friendfeed.com/christopherw/476def0c/lick-salt-fail-why-you-should-always-use-visudo" style="color:#77c; text-decoration:none">Like</a>
</div>




</td>
</tr>
</table>
</div>
</div>
</content>








</entry>

<entry>
<title type="text">How to use visudo « The Site of Matthew</title>
<updated>2011-09-15T16:52:54Z</updated>
<published>2011-09-15T16:52:54Z</published>
<id>tag:friendfeed.com,2007:f8ad2dcf-dd99-2f8d-cfd5-ef0a6e7d905d</id>
<link href="http://maeks84.wordpress.com/2008/05/29/how-to-use-visudo/" rel="alternate" type="text/html"/>
<content type="xhtml" xml:base="http://friendfeed.com/">
<div xmlns="http://www.w3.org/1999/xhtml" style="font-size:10pt;font-family:Arial,sans-serif;color:black"><div style="">
<table style="border: 0; border-collapse: collapse">
<tr>
<td style="line-height:0; border:0; padding:0; vertical-align:top"><a href="http://friendfeed.com/christopherw" sid="deb736ce163811dd80f3003048343a40" class="l_profile"><img src="http://friendfeed.com/static/images/nomugshot-medium.png?v=0fa9" alt="Christopher" class="picture medium" style="border:1px solid #ccc;width:50px;height:50px"/></a></td>
<td style="border:0; padding:0; vertical-align: top; padding-left:8px; font-family:Arial, sans-serif; font-size:11pt">
<div style="margin-bottom:1pt; color:black">



<a href="http://friendfeed.com/christopherw" style="font-weight:bold;text-decoration:none;color:#00c">Christopher</a>






</div>
<div style="margin-top:2px; color:black">How to use visudo « The Site of Matthew - <a style="text-decoration:none;color:#00c" rel="nofollow" href="http://maeks84.wordpress.com/2008/05/29/how-to-use-visudo/" title="http://maeks84.wordpress.com/2008/05/29/how-to-use-visudo/">http://maeks84.wordpress.com/2008...</a></div>




<div style="margin-top:2px; color:#737373; font-size:10pt">
<a href="http://friendfeed.com/christopherw/f8ad2dcf/how-to-use-visudo-site-of-matthew" style="color:#737373; text-decoration:none">September 15</a>

from <a style="color:#737373; text-decoration:none" rel="nofollow" href="http://delicious.com/christopherw">delicious</a>

- <a href="http://friendfeed.com/christopherw/f8ad2dcf/how-to-use-visudo-site-of-matthew" style="color:#77c; text-decoration:none">Comment</a>
- <a href="http://friendfeed.com/christopherw/f8ad2dcf/how-to-use-visudo-site-of-matthew" style="color:#77c; text-decoration:none">Like</a>
</div>




</td>
</tr>
</table>
</div>
</div>
</content>








</entry>

<entry>
<title type="text">Default Centos Linux password for root account - Server Fault</title>
<updated>2011-09-15T16:52:38Z</updated>
<published>2011-09-15T16:52:38Z</published>
<id>tag:friendfeed.com,2007:c94027d3-ba0e-9215-bce7-74b5ee5d8502</id>
<link href="http://serverfault.com/questions/44631/default-centos-linux-password-for-root-account" rel="alternate" type="text/html"/>
<content type="xhtml" xml:base="http://friendfeed.com/">
<div xmlns="http://www.w3.org/1999/xhtml" style="font-size:10pt;font-family:Arial,sans-serif;color:black"><div style="">
<table style="border: 0; border-collapse: collapse">
<tr>
<td style="line-height:0; border:0; padding:0; vertical-align:top"><a href="http://friendfeed.com/christopherw" sid="deb736ce163811dd80f3003048343a40" class="l_profile"><img src="http://friendfeed.com/static/images/nomugshot-medium.png?v=0fa9" alt="Christopher" class="picture medium" style="border:1px solid #ccc;width:50px;height:50px"/></a></td>
<td style="border:0; padding:0; vertical-align: top; padding-left:8px; font-family:Arial, sans-serif; font-size:11pt">
<div style="margin-bottom:1pt; color:black">



<a href="http://friendfeed.com/christopherw" style="font-weight:bold;text-decoration:none;color:#00c">Christopher</a>






</div>
<div style="margin-top:2px; color:black">Default Centos Linux password for root account - Server Fault - <a style="text-decoration:none;color:#00c" rel="nofollow" href="http://serverfault.com/questions/44631/default-centos-linux-password-for-root-account" title="http://serverfault.com/questions/44631/default-centos-linux-password-for-root-account">http://serverfault.com/questio...</a></div>




<div style="margin-top:2px; color:#737373; font-size:10pt">
<a href="http://friendfeed.com/christopherw/c94027d3/default-centos-linux-password-for-root-account" style="color:#737373; text-decoration:none">September 15</a>

from <a style="color:#737373; text-decoration:none" rel="nofollow" href="http://delicious.com/christopherw">delicious</a>

- <a href="http://friendfeed.com/christopherw/c94027d3/default-centos-linux-password-for-root-account" style="color:#77c; text-decoration:none">Comment</a>
- <a href="http://friendfeed.com/christopherw/c94027d3/default-centos-linux-password-for-root-account" style="color:#77c; text-decoration:none">Like</a>
</div>




</td>
</tr>
</table>
</div>
</div>
</content>








</entry>

<entry>
<title type="text">How to use visudo « The Site of Matthew</title>
<updated>2011-09-15T16:52:55Z</updated>
<published>2011-09-15T16:52:55Z</published>
<id>tag:friendfeed.com,2007:c8930d92-d4e9-0863-13ca-19194a8100f6</id>
<link href="http://maeks84.wordpress.com/2008/05/29/how-to-use-visudo/" rel="alternate" type="text/html"/>
<content type="xhtml" xml:base="http://friendfeed.com/">
<div xmlns="http://www.w3.org/1999/xhtml" style="font-size:10pt;font-family:Arial,sans-serif;color:black"><div style="">
<table style="border: 0; border-collapse: collapse">
<tr>
<td style="line-height:0; border:0; padding:0; vertical-align:top"><a href="http://friendfeed.com/christopherw" sid="deb736ce163811dd80f3003048343a40" class="l_profile"><img src="http://friendfeed.com/static/images/nomugshot-medium.png?v=0fa9" alt="Christopher" class="picture medium" style="border:1px solid #ccc;width:50px;height:50px"/></a></td>
<td style="border:0; padding:0; vertical-align: top; padding-left:8px; font-family:Arial, sans-serif; font-size:11pt">
<div style="margin-bottom:1pt; color:black">



<a href="http://friendfeed.com/christopherw" style="font-weight:bold;text-decoration:none;color:#00c">Christopher</a>






</div>
<div style="margin-top:2px; color:black">How to use visudo « The Site of Matthew - <a style="text-decoration:none;color:#00c" rel="nofollow" href="http://maeks84.wordpress.com/2008/05/29/how-to-use-visudo/" title="http://maeks84.wordpress.com/2008/05/29/how-to-use-visudo/">http://maeks84.wordpress.com/2008...</a></div>




<div style="margin-top:2px; color:#737373; font-size:10pt">
<a href="http://friendfeed.com/christopherw/c8930d92/how-to-use-visudo-site-of-matthew" style="color:#737373; text-decoration:none">September 15</a>

from <a style="color:#737373; text-decoration:none" rel="nofollow" href="http://delicious.com/christopherw">delicious</a>

- <a href="http://friendfeed.com/christopherw/c8930d92/how-to-use-visudo-site-of-matthew" style="color:#77c; text-decoration:none">Comment</a>
- <a href="http://friendfeed.com/christopherw/c8930d92/how-to-use-visudo-site-of-matthew" style="color:#77c; text-decoration:none">Like</a>
</div>




</td>
</tr>
</table>
</div>
</div>
</content>








</entry>

<entry>
<title type="text">Default Centos Linux password for root account - Server Fault</title>
<updated>2011-09-15T16:52:38Z</updated>
<published>2011-09-15T16:52:38Z</published>
<id>tag:friendfeed.com,2007:60b2e007-9a75-2d81-08b8-9aca36b730fd</id>
<link href="http://serverfault.com/questions/44631/default-centos-linux-password-for-root-account" rel="alternate" type="text/html"/>
<content type="xhtml" xml:base="http://friendfeed.com/">
<div xmlns="http://www.w3.org/1999/xhtml" style="font-size:10pt;font-family:Arial,sans-serif;color:black"><div style="">
<table style="border: 0; border-collapse: collapse">
<tr>
<td style="line-height:0; border:0; padding:0; vertical-align:top"><a href="http://friendfeed.com/christopherw" sid="deb736ce163811dd80f3003048343a40" class="l_profile"><img src="http://friendfeed.com/static/images/nomugshot-medium.png?v=0fa9" alt="Christopher" class="picture medium" style="border:1px solid #ccc;width:50px;height:50px"/></a></td>
<td style="border:0; padding:0; vertical-align: top; padding-left:8px; font-family:Arial, sans-serif; font-size:11pt">
<div style="margin-bottom:1pt; color:black">



<a href="http://friendfeed.com/christopherw" style="font-weight:bold;text-decoration:none;color:#00c">Christopher</a>






</div>
<div style="margin-top:2px; color:black">Default Centos Linux password for root account - Server Fault - <a style="text-decoration:none;color:#00c" rel="nofollow" href="http://serverfault.com/questions/44631/default-centos-linux-password-for-root-account" title="http://serverfault.com/questions/44631/default-centos-linux-password-for-root-account">http://serverfault.com/questio...</a></div>




<div style="margin-top:2px; color:#737373; font-size:10pt">
<a href="http://friendfeed.com/christopherw/60b2e007/default-centos-linux-password-for-root-account" style="color:#737373; text-decoration:none">September 15</a>

from <a style="color:#737373; text-decoration:none" rel="nofollow" href="http://delicious.com/christopherw">delicious</a>

- <a href="http://friendfeed.com/christopherw/60b2e007/default-centos-linux-password-for-root-account" style="color:#77c; text-decoration:none">Comment</a>
- <a href="http://friendfeed.com/christopherw/60b2e007/default-centos-linux-password-for-root-account" style="color:#77c; text-decoration:none">Like</a>
</div>




</td>
</tr>
</table>
</div>
</div>
</content>








</entry>

<entry>
<title type="text">Passion Flower</title>
<updated>2011-09-15T14:58:51Z</updated>
<published>2011-09-15T14:58:51Z</published>
<id>tag:friendfeed.com,2007:53be61d0-6772-8639-b0af-27cd7a02b19c</id>
<link href="http://www.flickr.com/photos/57203173@N00/275051773/" rel="alternate" type="text/html"/>
<content type="xhtml" xml:base="http://friendfeed.com/">
<div xmlns="http://www.w3.org/1999/xhtml" style="font-size:10pt;font-family:Arial,sans-serif;color:black"><div style="">
<table style="border: 0; border-collapse: collapse">
<tr>
<td style="line-height:0; border:0; padding:0; vertical-align:top"><a href="http://friendfeed.com/christopherw" sid="deb736ce163811dd80f3003048343a40" class="l_profile"><img src="http://friendfeed.com/static/images/nomugshot-medium.png?v=0fa9" alt="Christopher" class="picture medium" style="border:1px solid #ccc;width:50px;height:50px"/></a></td>
<td style="border:0; padding:0; vertical-align: top; padding-left:8px; font-family:Arial, sans-serif; font-size:11pt">
<div style="margin-bottom:1pt; color:black">



<a href="http://friendfeed.com/christopherw" style="font-weight:bold;text-decoration:none;color:#00c">Christopher</a>






</div>
<div style="margin-top:2px; color:black">Passion Flower - <a style="text-decoration:none;color:#00c" rel="nofollow" href="http://www.flickr.com/photos/57203173@N00/275051773/" title="http://www.flickr.com/photos/57203173@N00/275051773/">http://www.flickr.com/photos...</a></div>


<div style="margin-top:5px; margin-bottom:5px">
<table style="border-collapse:collapse; border:0">
<tr>





<td style="border:0; padding:0; vertical-align:middle; padding-right:8px"><a rel="nofollow" href="http://www.flickr.com/photos/57203173@N00/275051773/"><img src="http://farm1.static.flickr.com/94/275051773_473692c97f_s.jpg" style="width:75px; height:75px; border:1px solid silver; padding:1px" alt="Passion Flower" title="Passion Flower"/></a></td>



<td style="border:0; padding:0; vertical-align:middle; padding-right:8px"><a rel="nofollow" href="http://www.flickr.com/photos/57203173@N00/2930693400/"><img src="http://farm4.static.flickr.com/3040/2930693400_35902ea104_s.jpg" style="width:75px; height:75px; border:1px solid silver; padding:1px" alt="Anna's Hummingbird, Front View" title="Anna's Hummingbird, Front View"/></a></td>



<td style="border:0; padding:0; vertical-align:middle; padding-right:8px"><a rel="nofollow" href="http://www.flickr.com/photos/57203173@N00/275043217/"><img src="http://farm1.static.flickr.com/114/275043217_b207bde413_s.jpg" style="width:75px; height:75px; border:1px solid silver; padding:1px" alt="Redwood Close Up #2" title="Redwood Close Up #2"/></a></td>



<td style="border:0; padding:0; vertical-align:middle; padding-right:8px"><a rel="nofollow" href="http://www.flickr.com/photos/57203173@N00/6040547341/"><img src="http://farm7.static.flickr.com/6182/6040547341_c3137b7560_s.jpg" style="width:75px; height:75px; border:1px solid silver; padding:1px" alt="View NorthEast from White Mountain Research Station" title="View NorthEast from White Mountain Research Station"/></a></td>


</tr>
</table>
</div>



<div style="margin-top:2px; color:#737373; font-size:10pt">
<a href="http://friendfeed.com/christopherw/53be61d0/passion-flower" style="color:#737373; text-decoration:none">September 15</a>

from <a style="color:#737373; text-decoration:none" rel="nofollow" href="http://www.flickr.com/photos/21555360%40N00/favorites/">Flickr favorites</a>

- <a href="http://friendfeed.com/christopherw/53be61d0/passion-flower" style="color:#77c; text-decoration:none">Comment</a>
- <a href="http://friendfeed.com/christopherw/53be61d0/passion-flower" style="color:#77c; text-decoration:none">Like</a>
</div>




</td>
</tr>
</table>
</div>
</div>
</content>


<media:group>
<media:title>Passion Flower 1</media:title>

<media:content url="http://farm1.static.flickr.com/94/275051773_473692c97f_z.jpg?zz=1" type="image/jpeg" width="0" height="0"/>


<media:thumbnail url="http://farm1.static.flickr.com/94/275051773_473692c97f_s.jpg" width="75" height="75"/>


</media:group>

<media:group>
<media:title>Anna's Hummingbird, Front View 1</media:title>

<media:content url="http://farm4.static.flickr.com/3040/2930693400_35902ea104_z.jpg?zz=1" type="image/jpeg" width="0" height="0"/>


<media:thumbnail url="http://farm4.static.flickr.com/3040/2930693400_35902ea104_s.jpg" width="75" height="75"/>


</media:group>

<media:group>
<media:title>Redwood Close Up #2 1</media:title>

<media:content url="http://farm1.static.flickr.com/114/275043217_b207bde413_z.jpg?zz=1" type="image/jpeg" width="0" height="0"/>


<media:thumbnail url="http://farm1.static.flickr.com/114/275043217_b207bde413_s.jpg" width="75" height="75"/>


</media:group>

<media:group>
<media:title>View NorthEast from White Mountain Research Station 1</media:title>

<media:content url="http://farm7.static.flickr.com/6182/6040547341_c3137b7560_b.jpg" type="image/jpeg" width="1012" height="679"/>


<media:thumbnail url="http://farm7.static.flickr.com/6182/6040547341_c3137b7560_s.jpg" width="75" height="75"/>


</media:group>







</entry>

<entry>
<title type="text">Vorbis - Wikipedia, the free encyclopedia</title>
<updated>2011-09-15T10:25:19Z</updated>
<published>2011-09-15T10:25:19Z</published>
<id>tag:friendfeed.com,2007:4ab91553-cf96-76a0-3a18-1722bbad3796</id>
<link href="http://en.wikipedia.org/wiki/Vorbis" rel="alternate" type="text/html"/>
<content type="xhtml" xml:base="http://friendfeed.com/">
<div xmlns="http://www.w3.org/1999/xhtml" style="font-size:10pt;font-family:Arial,sans-serif;color:black"><div style="">
<table style="border: 0; border-collapse: collapse">
<tr>
<td style="line-height:0; border:0; padding:0; vertical-align:top"><a href="http://friendfeed.com/christopherw" sid="deb736ce163811dd80f3003048343a40" class="l_profile"><img src="http://friendfeed.com/static/images/nomugshot-medium.png?v=0fa9" alt="Christopher" class="picture medium" style="border:1px solid #ccc;width:50px;height:50px"/></a></td>
<td style="border:0; padding:0; vertical-align: top; padding-left:8px; font-family:Arial, sans-serif; font-size:11pt">
<div style="margin-bottom:1pt; color:black">



<a href="http://friendfeed.com/christopherw" style="font-weight:bold;text-decoration:none;color:#00c">Christopher</a>






</div>
<div style="margin-top:2px; color:black">Vorbis - Wikipedia, the free encyclopedia - <a style="text-decoration:none;color:#00c" rel="nofollow" href="http://en.wikipedia.org/wiki/Vorbis" title="http://en.wikipedia.org/wiki/Vorbis">http://en.wikipedia.org/wiki...</a></div>




<div style="margin-top:2px; color:#737373; font-size:10pt">
<a href="http://friendfeed.com/christopherw/4ab91553/vorbis-wikipedia-free-encyclopedia" style="color:#737373; text-decoration:none">September 15</a>

from <a style="color:#737373; text-decoration:none" rel="nofollow" href="http://delicious.com/christopherw">delicious</a>

- <a href="http://friendfeed.com/christopherw/4ab91553/vorbis-wikipedia-free-encyclopedia" style="color:#77c; text-decoration:none">Comment</a>
- <a href="http://friendfeed.com/christopherw/4ab91553/vorbis-wikipedia-free-encyclopedia" style="color:#77c; text-decoration:none">Like</a>
</div>




</td>
</tr>
</table>
</div>
</div>
</content>








</entry>

<entry>
<title type="text">Vorbis - Wikipedia, the free encyclopedia</title>
<updated>2011-09-15T10:25:20Z</updated>
<published>2011-09-15T10:25:20Z</published>
<id>tag:friendfeed.com,2007:1209de9e-2f75-5a63-07e7-b293129af81d</id>
<link href="http://en.wikipedia.org/wiki/Vorbis" rel="alternate" type="text/html"/>
<content type="xhtml" xml:base="http://friendfeed.com/">
<div xmlns="http://www.w3.org/1999/xhtml" style="font-size:10pt;font-family:Arial,sans-serif;color:black"><div style="">
<table style="border: 0; border-collapse: collapse">
<tr>
<td style="line-height:0; border:0; padding:0; vertical-align:top"><a href="http://friendfeed.com/christopherw" sid="deb736ce163811dd80f3003048343a40" class="l_profile"><img src="http://friendfeed.com/static/images/nomugshot-medium.png?v=0fa9" alt="Christopher" class="picture medium" style="border:1px solid #ccc;width:50px;height:50px"/></a></td>
<td style="border:0; padding:0; vertical-align: top; padding-left:8px; font-family:Arial, sans-serif; font-size:11pt">
<div style="margin-bottom:1pt; color:black">



<a href="http://friendfeed.com/christopherw" style="font-weight:bold;text-decoration:none;color:#00c">Christopher</a>






</div>
<div style="margin-top:2px; color:black">Vorbis - Wikipedia, the free encyclopedia - <a style="text-decoration:none;color:#00c" rel="nofollow" href="http://en.wikipedia.org/wiki/Vorbis" title="http://en.wikipedia.org/wiki/Vorbis">http://en.wikipedia.org/wiki...</a></div>




<div style="margin-top:2px; color:#737373; font-size:10pt">
<a href="http://friendfeed.com/christopherw/1209de9e/vorbis-wikipedia-free-encyclopedia" style="color:#737373; text-decoration:none">September 15</a>

from <a style="color:#737373; text-decoration:none" rel="nofollow" href="http://delicious.com/christopherw">delicious</a>

- <a href="http://friendfeed.com/christopherw/1209de9e/vorbis-wikipedia-free-encyclopedia" style="color:#77c; text-decoration:none">Comment</a>
- <a href="http://friendfeed.com/christopherw/1209de9e/vorbis-wikipedia-free-encyclopedia" style="color:#77c; text-decoration:none">Like</a>
</div>




</td>
</tr>
</table>
</div>
</div>
</content>








</entry>

<entry>
<title type="text">Green Caviar: High Load Cycle Cout after short ope... - Western Digital Community</title>
<updated>2011-09-14T09:40:13Z</updated>
<published>2011-09-14T09:40:13Z</published>
<id>tag:friendfeed.com,2007:a3aa3b74-bacc-c1dc-50d8-750d87a066af</id>
<link href="http://community.wdc.com/t5/Desktop/Green-Caviar-High-Load-Cycle-Cout-after-short-operation-time/td-p/15731" rel="alternate" type="text/html"/>
<content type="xhtml" xml:base="http://friendfeed.com/">
<div xmlns="http://www.w3.org/1999/xhtml" style="font-size:10pt;font-family:Arial,sans-serif;color:black"><div style="">
<table style="border: 0; border-collapse: collapse">
<tr>
<td style="line-height:0; border:0; padding:0; vertical-align:top"><a href="http://friendfeed.com/christopherw" sid="deb736ce163811dd80f3003048343a40" class="l_profile"><img src="http://friendfeed.com/static/images/nomugshot-medium.png?v=0fa9" alt="Christopher" class="picture medium" style="border:1px solid #ccc;width:50px;height:50px"/></a></td>
<td style="border:0; padding:0; vertical-align: top; padding-left:8px; font-family:Arial, sans-serif; font-size:11pt">
<div style="margin-bottom:1pt; color:black">



<a href="http://friendfeed.com/christopherw" style="font-weight:bold;text-decoration:none;color:#00c">Christopher</a>






</div>
<div style="margin-top:2px; color:black">Green Caviar: High Load Cycle Cout after short ope... - Western Digital Community - <a style="text-decoration:none;color:#00c" rel="nofollow" href="http://community.wdc.com/t5/Desktop/Green-Caviar-High-Load-Cycle-Cout-after-short-operation-time/td-p/15731" title="http://community.wdc.com/t5/Desktop/Green-Caviar-High-Load-Cycle-Cout-after-short-operation-time/td-p/15731">http://community.wdc.com/t5...</a></div>




<div style="margin-top:2px; color:#737373; font-size:10pt">
<a href="http://friendfeed.com/christopherw/a3aa3b74/green-caviar-high-load-cycle-cout-after-short" style="color:#737373; text-decoration:none">September 14</a>

from <a style="color:#737373; text-decoration:none" rel="nofollow" href="http://delicious.com/christopherw">delicious</a>

- <a href="http://friendfeed.com/christopherw/a3aa3b74/green-caviar-high-load-cycle-cout-after-short" style="color:#77c; text-decoration:none">Comment</a>
- <a href="http://friendfeed.com/christopherw/a3aa3b74/green-caviar-high-load-cycle-cout-after-short" style="color:#77c; text-decoration:none">Like</a>
</div>




</td>
</tr>
</table>
</div>
</div>
</content>








</entry>

<entry>
<title type="text">Western Digital WD20EARS and read head parking every 8 ...</title>
<updated>2011-09-14T09:40:04Z</updated>
<published>2011-09-14T09:40:04Z</published>
<id>tag:friendfeed.com,2007:59eb91b3-f61d-f08e-09f6-3c962c45eb86</id>
<link href="http://forums.anandtech.com/showthread.php?t=2085685" rel="alternate" type="text/html"/>
<content type="xhtml" xml:base="http://friendfeed.com/">
<div xmlns="http://www.w3.org/1999/xhtml" style="font-size:10pt;font-family:Arial,sans-serif;color:black"><div style="">
<table style="border: 0; border-collapse: collapse">
<tr>
<td style="line-height:0; border:0; padding:0; vertical-align:top"><a href="http://friendfeed.com/christopherw" sid="deb736ce163811dd80f3003048343a40" class="l_profile"><img src="http://friendfeed.com/static/images/nomugshot-medium.png?v=0fa9" alt="Christopher" class="picture medium" style="border:1px solid #ccc;width:50px;height:50px"/></a></td>
<td style="border:0; padding:0; vertical-align: top; padding-left:8px; font-family:Arial, sans-serif; font-size:11pt">
<div style="margin-bottom:1pt; color:black">



<a href="http://friendfeed.com/christopherw" style="font-weight:bold;text-decoration:none;color:#00c">Christopher</a>






</div>
<div style="margin-top:2px; color:black">Western Digital WD20EARS and read head parking every 8 ... - <a style="text-decoration:none;color:#00c" rel="nofollow" href="http://forums.anandtech.com/showthread.php?t=2085685" title="http://forums.anandtech.com/showthread.php?t=2085685">http://forums.anandtech.com/showthr...</a></div>




<div style="margin-top:2px; color:#737373; font-size:10pt">
<a href="http://friendfeed.com/christopherw/59eb91b3/western-digital-wd20ears-and-read-head-parking" style="color:#737373; text-decoration:none">September 14</a>

from <a style="color:#737373; text-decoration:none" rel="nofollow" href="http://delicious.com/christopherw">delicious</a>

- <a href="http://friendfeed.com/christopherw/59eb91b3/western-digital-wd20ears-and-read-head-parking" style="color:#77c; text-decoration:none">Comment</a>
- <a href="http://friendfeed.com/christopherw/59eb91b3/western-digital-wd20ears-and-read-head-parking" style="color:#77c; text-decoration:none">Like</a>
</div>




</td>
</tr>
</table>
</div>
</div>
</content>








</entry>

<entry>
<title type="text">I need Opinions about the WD20EARS! Caviar Green</title>
<updated>2011-09-14T09:40:02Z</updated>
<published>2011-09-14T09:40:02Z</published>
<id>tag:friendfeed.com,2007:1ec22247-755e-c652-caaf-6de63e2d98e7</id>
<link href="http://www.tomshardware.co.uk/forum/261029-14-opinions-wd20ears-caviar-green" rel="alternate" type="text/html"/>
<content type="xhtml" xml:base="http://friendfeed.com/">
<div xmlns="http://www.w3.org/1999/xhtml" style="font-size:10pt;font-family:Arial,sans-serif;color:black"><div style="">
<table style="border: 0; border-collapse: collapse">
<tr>
<td style="line-height:0; border:0; padding:0; vertical-align:top"><a href="http://friendfeed.com/christopherw" sid="deb736ce163811dd80f3003048343a40" class="l_profile"><img src="http://friendfeed.com/static/images/nomugshot-medium.png?v=0fa9" alt="Christopher" class="picture medium" style="border:1px solid #ccc;width:50px;height:50px"/></a></td>
<td style="border:0; padding:0; vertical-align: top; padding-left:8px; font-family:Arial, sans-serif; font-size:11pt">
<div style="margin-bottom:1pt; color:black">



<a href="http://friendfeed.com/christopherw" style="font-weight:bold;text-decoration:none;color:#00c">Christopher</a>






</div>
<div style="margin-top:2px; color:black">I need Opinions about the WD20EARS! Caviar Green - <a style="text-decoration:none;color:#00c" rel="nofollow" href="http://www.tomshardware.co.uk/forum/261029-14-opinions-wd20ears-caviar-green" title="http://www.tomshardware.co.uk/forum/261029-14-opinions-wd20ears-caviar-green">http://www.tomshardware.co.uk/forum...</a></div>




<div style="margin-top:2px; color:#737373; font-size:10pt">
<a href="http://friendfeed.com/christopherw/1ec22247/i-need-opinions-about-wd20ears-caviar-green" style="color:#737373; text-decoration:none">September 14</a>

from <a style="color:#737373; text-decoration:none" rel="nofollow" href="http://delicious.com/christopherw">delicious</a>

- <a href="http://friendfeed.com/christopherw/1ec22247/i-need-opinions-about-wd20ears-caviar-green" style="color:#77c; text-decoration:none">Comment</a>
- <a href="http://friendfeed.com/christopherw/1ec22247/i-need-opinions-about-wd20ears-caviar-green" style="color:#77c; text-decoration:none">Like</a>
</div>




</td>
</tr>
</table>
</div>
</div>
</content>








</entry>

</feed>
