<?xml version="1.0" encoding="UTF-8"?>
<rss version="2.0" xmlns:atom="http://www.w3.org/2005/Atom" 
     xmlns:content="http://purl.org/rss/1.0/modules/content/" 
     xmlns:wfw="http://wellformedweb.org/CommentAPI/" 
     xmlns:rdf="http://www.w3.org/1999/02/22-rdf-syntax-ns#" 
     xmlns:dc="http://purl.org/dc/elements/1.1/" 
     xmlns:cc="http://web.resource.org/cc/">
    <channel>
        <title>Delicious/goldbrushes</title>
        <link>http://www.delicious.com/goldbrushes</link>
        <description>links posted by goldbrushes</description>
        <atom:link rel="self" type="application/rss+xml" href="http://feeds.delicious.com/v2/rss/goldbrushes?count=15"/>
        
        <item>
            <title>Diary of A Singaporean Mind: Why using current birth rate to justify foreign influx is wrong....</title>
            <pubDate>Wed, 21 Sep 2011 12:15:39 +0000</pubDate>
            <guid isPermaLink="false">http://www.delicious.com/url/05e0f36ced567acd1a4fbe99edaccb7c#goldbrushes</guid>
            <link>http://singaporemind.blogspot.com/2011/09/why-using-current-birth-rate-to-justify.html</link>
            <dc:creator><![CDATA[goldbrushes]]></dc:creator>
            <comments>http://www.delicious.com/url/05e0f36ced567acd1a4fbe99edaccb7c</comments>
            <wfw:commentRss>http://feeds.delicious.com/v2/rss/url/05e0f36ced567acd1a4fbe99edaccb7c</wfw:commentRss>
            <source url="http://feeds.delicious.com/v2/rss/goldbrushes">goldbrushes's links</source>
            <description></description>
            <category domain="http://www.delicious.com/goldbrushes/">singapore</category>
            <category domain="http://www.delicious.com/goldbrushes/">interesting</category>
            <category domain="http://www.delicious.com/goldbrushes/">statistics</category>
            
        </item>
        
        <item>
            <title>Singapore News Alternative: OPINION: Is Population Growth a Ponzi Scheme? - Joseph Chamie</title>
            <pubDate>Wed, 21 Sep 2011 12:15:39 +0000</pubDate>
            <guid isPermaLink="false">http://www.delicious.com/url/183e4cef62f2f0b9282e4d7754b7e646#goldbrushes</guid>
            <link>http://singaporenewsalternative.blogspot.com/2011/09/opinion-is-population-growth-ponzi.html</link>
            <dc:creator><![CDATA[goldbrushes]]></dc:creator>
            <comments>http://www.delicious.com/url/183e4cef62f2f0b9282e4d7754b7e646</comments>
            <wfw:commentRss>http://feeds.delicious.com/v2/rss/url/183e4cef62f2f0b9282e4d7754b7e646</wfw:commentRss>
            <source url="http://feeds.delicious.com/v2/rss/goldbrushes">goldbrushes's links</source>
            <description></description>
            <category domain="http://www.delicious.com/goldbrushes/">singapore</category>
            <category domain="http://www.delicious.com/goldbrushes/">editorial/opinion</category>
            <category domain="http://www.delicious.com/goldbrushes/">interesting</category>
            
        </item>
        
        <item>
            <title>Ten Things Everyone Should Know About Time | Cosmic Variance | Discover Magazine</title>
            <pubDate></pubDate>
            <guid isPermaLink="false">http://www.delicious.com/url/d32450e0769536ba81c25bc65e361139#goldbrushes</guid>
            <link>http://blogs.discovermagazine.com/cosmicvariance/2011/09/01/ten-things-everyone-should-know-about-time/</link>
            <dc:creator><![CDATA[goldbrushes]]></dc:creator>
            <comments>http://www.delicious.com/url/d32450e0769536ba81c25bc65e361139</comments>
            <wfw:commentRss>http://feeds.delicious.com/v2/rss/url/d32450e0769536ba81c25bc65e361139</wfw:commentRss>
            <source url="http://feeds.delicious.com/v2/rss/goldbrushes">goldbrushes's links</source>
            <description></description>
            <category domain="http://www.delicious.com/goldbrushes/">space</category>
            <category domain="http://www.delicious.com/goldbrushes/">science</category>
            <category domain="http://www.delicious.com/goldbrushes/">physics</category>
            
        </item>
        
        <item>
            <title>US Military Plane Forced Down By North Korean Electronic Attack</title>
            <pubDate></pubDate>
            <guid isPermaLink="false">http://www.delicious.com/url/670a52d94f724b49735e4bdb0878066c#goldbrushes</guid>
            <link>http://www.myfoxny.com/dpp/news/us-military-plane-forced-down-by-north-korean-electronic-attack-20110909-ncx</link>
            <dc:creator><![CDATA[goldbrushes]]></dc:creator>
            <comments>http://www.delicious.com/url/670a52d94f724b49735e4bdb0878066c</comments>
            <wfw:commentRss>http://feeds.delicious.com/v2/rss/url/670a52d94f724b49735e4bdb0878066c</wfw:commentRss>
            <source url="http://feeds.delicious.com/v2/rss/goldbrushes">goldbrushes's links</source>
            <description></description>
            <category domain="http://www.delicious.com/goldbrushes/">politics</category>
            <category domain="http://www.delicious.com/goldbrushes/">other-technology</category>
            <category domain="http://www.delicious.com/goldbrushes/">america</category>
            
        </item>
        
        <item>
            <title>WikiLeaks Prompts New Diplomatic Uproar - NYTimes.com</title>
            <pubDate>Thu, 01 Sep 2011 13:57:46 +0000</pubDate>
            <guid isPermaLink="false">http://www.delicious.com/url/93a2bfc5de91da9d1c79ae2999490d1f#goldbrushes</guid>
            <link>http://www.nytimes.com/2011/09/01/us/01wikileaks.html</link>
            <dc:creator><![CDATA[goldbrushes]]></dc:creator>
            <comments>http://www.delicious.com/url/93a2bfc5de91da9d1c79ae2999490d1f</comments>
            <wfw:commentRss>http://feeds.delicious.com/v2/rss/url/93a2bfc5de91da9d1c79ae2999490d1f</wfw:commentRss>
            <source url="http://feeds.delicious.com/v2/rss/goldbrushes">goldbrushes's links</source>
            <description></description>
            <category domain="http://www.delicious.com/goldbrushes/">wikileaks</category>
            <category domain="http://www.delicious.com/goldbrushes/">politics</category>
            
        </item>
        
        <item>
            <title>Trains That Run Like, and on, the Wind - NYTimes.com</title>
            <pubDate>Mon, 22 Aug 2011 14:51:48 +0000</pubDate>
            <guid isPermaLink="false">http://www.delicious.com/url/0822c528736979264eb15a227fb3da61#goldbrushes</guid>
            <link>http://www.nytimes.com/2011/08/22/business/energy-environment/trains-that-run-like-and-on-the-wind.html?_r=1</link>
            <dc:creator><![CDATA[goldbrushes]]></dc:creator>
            <comments>http://www.delicious.com/url/0822c528736979264eb15a227fb3da61</comments>
            <wfw:commentRss>http://feeds.delicious.com/v2/rss/url/0822c528736979264eb15a227fb3da61</wfw:commentRss>
            <source url="http://feeds.delicious.com/v2/rss/goldbrushes">goldbrushes's links</source>
            <description></description>
            <category domain="http://www.delicious.com/goldbrushes/">nyt</category>
            <category domain="http://www.delicious.com/goldbrushes/">environment</category>
            <category domain="http://www.delicious.com/goldbrushes/">europe</category>
            <category domain="http://www.delicious.com/goldbrushes/">nuclear</category>
            
        </item>
        
        <item>
            <title>Scientists Crack The Physics Of Coffee Rings : NPR</title>
            <pubDate>Fri, 19 Aug 2011 15:59:11 +0000</pubDate>
            <guid isPermaLink="false">http://www.delicious.com/url/cec6aab67384de39169e7782fd14ccea#goldbrushes</guid>
            <link>http://www.npr.org/2011/08/17/139681851/scientists-crack-the-physics-of-coffee-rings?sc=fb&amp;cc=fp</link>
            <dc:creator><![CDATA[goldbrushes]]></dc:creator>
            <comments>http://www.delicious.com/url/cec6aab67384de39169e7782fd14ccea</comments>
            <wfw:commentRss>http://feeds.delicious.com/v2/rss/url/cec6aab67384de39169e7782fd14ccea</wfw:commentRss>
            <source url="http://feeds.delicious.com/v2/rss/goldbrushes">goldbrushes's links</source>
            <description></description>
            <category domain="http://www.delicious.com/goldbrushes/">science</category>
            <category domain="http://www.delicious.com/goldbrushes/">physics</category>
            <category domain="http://www.delicious.com/goldbrushes/">chemistry</category>
            <category domain="http://www.delicious.com/goldbrushes/">coffee</category>
            
        </item>
        
        <item>
            <title>How does fire behave in zero gravity? - Random Technology News</title>
            <pubDate>Sun, 14 Aug 2011 14:32:06 +0000</pubDate>
            <guid isPermaLink="false">http://www.delicious.com/url/f8c8d7d61a6fac856a21fb400d0ca135#goldbrushes</guid>
            <link>http://www.randomtn.com/2011/03/how-does-fire-behave-in-zero-gravity.html</link>
            <dc:creator><![CDATA[goldbrushes]]></dc:creator>
            <comments>http://www.delicious.com/url/f8c8d7d61a6fac856a21fb400d0ca135</comments>
            <wfw:commentRss>http://feeds.delicious.com/v2/rss/url/f8c8d7d61a6fac856a21fb400d0ca135</wfw:commentRss>
            <source url="http://feeds.delicious.com/v2/rss/goldbrushes">goldbrushes's links</source>
            <description></description>
            <category domain="http://www.delicious.com/goldbrushes/">science</category>
            <category domain="http://www.delicious.com/goldbrushes/">physics</category>
            <category domain="http://www.delicious.com/goldbrushes/">space</category>
            
        </item>
        
        <item>
            <title>Striking parallels between UK riots and France 2005 unrest | UK news | The Guardian</title>
            <pubDate>Sun, 14 Aug 2011 13:10:54 +0000</pubDate>
            <guid isPermaLink="false">http://www.delicious.com/url/b1b918fe4a1dbd29f7dc9356f07262a5#goldbrushes</guid>
            <link>http://www.guardian.co.uk/uk/2011/aug/14/uk-riots-france-2005-parallels</link>
            <dc:creator><![CDATA[goldbrushes]]></dc:creator>
            <comments>http://www.delicious.com/url/b1b918fe4a1dbd29f7dc9356f07262a5</comments>
            <wfw:commentRss>http://feeds.delicious.com/v2/rss/url/b1b918fe4a1dbd29f7dc9356f07262a5</wfw:commentRss>
            <source url="http://feeds.delicious.com/v2/rss/goldbrushes">goldbrushes's links</source>
            <description>Not that any of these promises accomplished very much, according to Fize. &#34;A bit of money got thrown at the problem,&#34; he said. &#34;But this could happen again in France. The ashes are still smoldering. It just needs the spark. The political and economic systems have both failed these youths – in France, in Britain, but also in Spain, Greece. Even the Arab Spring reflects the same root problems.&#34;

For Fize, the crux lies in the lack of any real prospect of employment; the failure of education systems to prepare people for the jobs there are; the difficulties poor families experience raising children in a consumer society. &#34;Youth has been tricked, betrayed,&#34; he said. &#34;We tell them, get a qualification, and those qualifications are worth nothing. Families can&#39;t cope. It&#39;s hardly surprising they&#39;re revolting. It&#39;s not because you torch cars or loot that you don&#39;t have some political awareness, you know. And it&#39;s not because you&#39;re a good pupil that you won&#39;t join in.&#34;</description>
            <category domain="http://www.delicious.com/goldbrushes/">europe</category>
            <category domain="http://www.delicious.com/goldbrushes/">terrorism</category>
            <category domain="http://www.delicious.com/goldbrushes/">politics</category>
            
        </item>
        
        <item>
            <title>Dark matter may be an illusion caused by the quantum vacuum</title>
            <pubDate>Fri, 12 Aug 2011 15:27:38 +0000</pubDate>
            <guid isPermaLink="false">http://www.delicious.com/url/6e596bd5bd70334091099ddea14dc84a#goldbrushes</guid>
            <link>http://www.physorg.com/news/2011-08-dark-illusion-quantum-vacuum.html</link>
            <dc:creator><![CDATA[goldbrushes]]></dc:creator>
            <comments>http://www.delicious.com/url/6e596bd5bd70334091099ddea14dc84a</comments>
            <wfw:commentRss>http://feeds.delicious.com/v2/rss/url/6e596bd5bd70334091099ddea14dc84a</wfw:commentRss>
            <source url="http://feeds.delicious.com/v2/rss/goldbrushes">goldbrushes's links</source>
            <description></description>
            <category domain="http://www.delicious.com/goldbrushes/">space</category>
            <category domain="http://www.delicious.com/goldbrushes/">science</category>
            <category domain="http://www.delicious.com/goldbrushes/">physics</category>
            
        </item>
        
        <item>
            <title>Droplets levitating above a liquid surface show unusual motion (w/ video)</title>
            <pubDate>Tue, 09 Aug 2011 12:37:02 +0000</pubDate>
            <guid isPermaLink="false">http://www.delicious.com/url/60693a36bc2babbdeabc854363bea8e4#goldbrushes</guid>
            <link>http://www.physorg.com/news/2011-08-droplets-levitating-liquid-surface-unusual.html</link>
            <dc:creator><![CDATA[goldbrushes]]></dc:creator>
            <comments>http://www.delicious.com/url/60693a36bc2babbdeabc854363bea8e4</comments>
            <wfw:commentRss>http://feeds.delicious.com/v2/rss/url/60693a36bc2babbdeabc854363bea8e4</wfw:commentRss>
            <source url="http://feeds.delicious.com/v2/rss/goldbrushes">goldbrushes's links</source>
            <description></description>
            <category domain="http://www.delicious.com/goldbrushes/">physics</category>
            <category domain="http://www.delicious.com/goldbrushes/">science</category>
            <category domain="http://www.delicious.com/goldbrushes/">chemistry</category>
            
        </item>
        
        <item>
            <title>Brixton: could it happen again? 30 years after the riots | UK news | The Guardian</title>
            <pubDate>Tue, 09 Aug 2011 11:54:28 +0000</pubDate>
            <guid isPermaLink="false">http://www.delicious.com/url/9756160541c969fcb10fc8990dc187bb#goldbrushes</guid>
            <link>http://www.guardian.co.uk/theguardian/2011/apr/02/brixton-riots-anniversary?INTCMP=SRCH</link>
            <dc:creator><![CDATA[goldbrushes]]></dc:creator>
            <comments>http://www.delicious.com/url/9756160541c969fcb10fc8990dc187bb</comments>
            <wfw:commentRss>http://feeds.delicious.com/v2/rss/url/9756160541c969fcb10fc8990dc187bb</wfw:commentRss>
            <source url="http://feeds.delicious.com/v2/rss/goldbrushes">goldbrushes's links</source>
            <description></description>
            <category domain="http://www.delicious.com/goldbrushes/">europe</category>
            <category domain="http://www.delicious.com/goldbrushes/">news</category>
            <category domain="http://www.delicious.com/goldbrushes/">terrorism</category>
            
        </item>
        
        <item>
            <title>Looting &#39;fuelled by social exclusion&#39; | UK news | The Guardian</title>
            <pubDate>Tue, 09 Aug 2011 11:54:16 +0000</pubDate>
            <guid isPermaLink="false">http://www.delicious.com/url/68707d1dad3351b70b63060dd239c036#goldbrushes</guid>
            <link>http://www.guardian.co.uk/uk/2011/aug/08/looting-fuelled-by-social-exclusion</link>
            <dc:creator><![CDATA[goldbrushes]]></dc:creator>
            <comments>http://www.delicious.com/url/68707d1dad3351b70b63060dd239c036</comments>
            <wfw:commentRss>http://feeds.delicious.com/v2/rss/url/68707d1dad3351b70b63060dd239c036</wfw:commentRss>
            <source url="http://feeds.delicious.com/v2/rss/goldbrushes">goldbrushes's links</source>
            <description></description>
            <category domain="http://www.delicious.com/goldbrushes/">europe</category>
            <category domain="http://www.delicious.com/goldbrushes/">news</category>
            <category domain="http://www.delicious.com/goldbrushes/">terrorism</category>
            
        </item>
        
        <item>
            <title>There is a context to London&#39;s riots that can&#39;t be ignored | Nina Power | Comment is free | guardian.co.uk</title>
            <pubDate>Tue, 09 Aug 2011 11:53:37 +0000</pubDate>
            <guid isPermaLink="false">http://www.delicious.com/url/500085ca6a3916b8d2be4d2b74a42708#goldbrushes</guid>
            <link>http://www.guardian.co.uk/commentisfree/2011/aug/08/context-london-riots</link>
            <dc:creator><![CDATA[goldbrushes]]></dc:creator>
            <comments>http://www.delicious.com/url/500085ca6a3916b8d2be4d2b74a42708</comments>
            <wfw:commentRss>http://feeds.delicious.com/v2/rss/url/500085ca6a3916b8d2be4d2b74a42708</wfw:commentRss>
            <source url="http://feeds.delicious.com/v2/rss/goldbrushes">goldbrushes's links</source>
            <description></description>
            <category domain="http://www.delicious.com/goldbrushes/">europe</category>
            <category domain="http://www.delicious.com/goldbrushes/">news</category>
            <category domain="http://www.delicious.com/goldbrushes/">terrorism</category>
            
        </item>
        
        <item>
            <title>TODAYonline | Commentary | Make way for the radical centre, coming via the Internet</title>
            <pubDate>Wed, 03 Aug 2011 14:11:38 +0000</pubDate>
            <guid isPermaLink="false">http://www.delicious.com/url/78b43c5258337e075953d831a9601343#goldbrushes</guid>
            <link>http://www.todayonline.com/Commentary/EDC110725-0000019/Make-way-for-the-radical-centre,-coming-via-the-Internet</link>
            <dc:creator><![CDATA[goldbrushes]]></dc:creator>
            <comments>http://www.delicious.com/url/78b43c5258337e075953d831a9601343</comments>
            <wfw:commentRss>http://feeds.delicious.com/v2/rss/url/78b43c5258337e075953d831a9601343</wfw:commentRss>
            <source url="http://feeds.delicious.com/v2/rss/goldbrushes">goldbrushes's links</source>
            <description></description>
            <category domain="http://www.delicious.com/goldbrushes/">america</category>
            <category domain="http://www.delicious.com/goldbrushes/">politics</category>
            <category domain="http://www.delicious.com/goldbrushes/">internet</category>
            
        </item>
        
    </channel>
</rss>