<?xml version="1.0" encoding="UTF-8"?>
<rss version="2.0"
	xmlns:content="http://purl.org/rss/1.0/modules/content/"
	xmlns:wfw="http://wellformedweb.org/CommentAPI/"
	xmlns:dc="http://purl.org/dc/elements/1.1/"
	xmlns:atom="http://www.w3.org/2005/Atom"
	xmlns:sy="http://purl.org/rss/1.0/modules/syndication/"
	xmlns:slash="http://purl.org/rss/1.0/modules/slash/"
	xmlns:georss="http://www.georss.org/georss" xmlns:geo="http://www.w3.org/2003/01/geo/wgs84_pos#" xmlns:media="http://search.yahoo.com/mrss/"
	>

<channel>
	<title>Mr. Matt - Ruby on Rails Developer, Manchester UK</title>
	<atom:link href="http://matthall.wordpress.com/feed/" rel="self" type="application/rss+xml" />
	<link>http://matthall.wordpress.com</link>
	<description></description>
	<lastBuildDate>Mon, 29 Aug 2011 16:07:23 +0000</lastBuildDate>
	<language>en</language>
	<sy:updatePeriod>hourly</sy:updatePeriod>
	<sy:updateFrequency>1</sy:updateFrequency>
	<generator>http://wordpress.com/</generator>
<cloud domain='matthall.wordpress.com' port='80' path='/?rsscloud=notify' registerProcedure='' protocol='http-post' />
<image>
		<url>http://s2.wp.com/i/buttonw-com.png</url>
		<title>Mr. Matt - Ruby on Rails Developer, Manchester UK</title>
		<link>http://matthall.wordpress.com</link>
	</image>
	<atom:link rel="search" type="application/opensearchdescription+xml" href="http://matthall.wordpress.com/osd.xml" title="Mr. Matt - Ruby on Rails Developer, Manchester UK" />
	<atom:link rel='hub' href='http://matthall.wordpress.com/?pushpress=hub'/>
		<item>
		<title>Moving</title>
		<link>http://matthall.wordpress.com/2010/06/25/moving/</link>
		<comments>http://matthall.wordpress.com/2010/06/25/moving/#comments</comments>
		<pubDate>Fri, 25 Jun 2010 20:46:00 +0000</pubDate>
		<dc:creator>Matt</dc:creator>
				<category><![CDATA[Random Gubbins]]></category>

		<guid isPermaLink="false">http://matthall.wordpress.com/?p=73</guid>
		<description><![CDATA[From now on, this blog has been re-homed at CodeBeef.com. See you all there!<img alt="" border="0" src="http://stats.wordpress.com/b.gif?host=matthall.wordpress.com&amp;blog=17453&amp;post=73&amp;subd=matthall&amp;ref=&amp;feed=1" width="1" height="1" />]]></description>
			<content:encoded><![CDATA[<p>From now on, this blog has been re-homed at <a href="http://codebeef.com">CodeBeef.com</a>.</p>
<p>See you all there!</p>
<br />  <a rel="nofollow" href="http://feeds.wordpress.com/1.0/gocomments/matthall.wordpress.com/73/"><img alt="" border="0" src="http://feeds.wordpress.com/1.0/comments/matthall.wordpress.com/73/" /></a> <a rel="nofollow" href="http://feeds.wordpress.com/1.0/godelicious/matthall.wordpress.com/73/"><img alt="" border="0" src="http://feeds.wordpress.com/1.0/delicious/matthall.wordpress.com/73/" /></a> <a rel="nofollow" href="http://feeds.wordpress.com/1.0/gofacebook/matthall.wordpress.com/73/"><img alt="" border="0" src="http://feeds.wordpress.com/1.0/facebook/matthall.wordpress.com/73/" /></a> <a rel="nofollow" href="http://feeds.wordpress.com/1.0/gotwitter/matthall.wordpress.com/73/"><img alt="" border="0" src="http://feeds.wordpress.com/1.0/twitter/matthall.wordpress.com/73/" /></a> <a rel="nofollow" href="http://feeds.wordpress.com/1.0/gostumble/matthall.wordpress.com/73/"><img alt="" border="0" src="http://feeds.wordpress.com/1.0/stumble/matthall.wordpress.com/73/" /></a> <a rel="nofollow" href="http://feeds.wordpress.com/1.0/godigg/matthall.wordpress.com/73/"><img alt="" border="0" src="http://feeds.wordpress.com/1.0/digg/matthall.wordpress.com/73/" /></a> <a rel="nofollow" href="http://feeds.wordpress.com/1.0/goreddit/matthall.wordpress.com/73/"><img alt="" border="0" src="http://feeds.wordpress.com/1.0/reddit/matthall.wordpress.com/73/" /></a> <img alt="" border="0" src="http://stats.wordpress.com/b.gif?host=matthall.wordpress.com&amp;blog=17453&amp;post=73&amp;subd=matthall&amp;ref=&amp;feed=1" width="1" height="1" />]]></content:encoded>
			<wfw:commentRss>http://matthall.wordpress.com/2010/06/25/moving/feed/</wfw:commentRss>
		<slash:comments>0</slash:comments>
	
		<media:content url="http://1.gravatar.com/avatar/f6925b0d9a374a15f8ba30a11b14f323?s=96&#38;d=identicon&#38;r=G" medium="image">
			<media:title type="html">matthall</media:title>
		</media:content>
	</item>
		<item>
		<title>SSL_requirement and RSpec</title>
		<link>http://matthall.wordpress.com/2010/02/17/ssl_requirement-and-rspec/</link>
		<comments>http://matthall.wordpress.com/2010/02/17/ssl_requirement-and-rspec/#comments</comments>
		<pubDate>Wed, 17 Feb 2010 10:25:21 +0000</pubDate>
		<dc:creator>Matt</dc:creator>
				<category><![CDATA[Development]]></category>
		<category><![CDATA[Rails]]></category>
		<category><![CDATA[RSpec]]></category>

		<guid isPermaLink="false">http://matthall.wordpress.com/?p=68</guid>
		<description><![CDATA[This post has moved here: http://codebeef.com/sslrequirement-and-rspec<img alt="" border="0" src="http://stats.wordpress.com/b.gif?host=matthall.wordpress.com&amp;blog=17453&amp;post=68&amp;subd=matthall&amp;ref=&amp;feed=1" width="1" height="1" />]]></description>
			<content:encoded><![CDATA[<p>This post has moved here:</p>
<p><a href="http://codebeef.com/sslrequirement-and-rspec">http://codebeef.com/sslrequirement-and-rspec</a></p>
<br />  <a rel="nofollow" href="http://feeds.wordpress.com/1.0/gocomments/matthall.wordpress.com/68/"><img alt="" border="0" src="http://feeds.wordpress.com/1.0/comments/matthall.wordpress.com/68/" /></a> <a rel="nofollow" href="http://feeds.wordpress.com/1.0/godelicious/matthall.wordpress.com/68/"><img alt="" border="0" src="http://feeds.wordpress.com/1.0/delicious/matthall.wordpress.com/68/" /></a> <a rel="nofollow" href="http://feeds.wordpress.com/1.0/gofacebook/matthall.wordpress.com/68/"><img alt="" border="0" src="http://feeds.wordpress.com/1.0/facebook/matthall.wordpress.com/68/" /></a> <a rel="nofollow" href="http://feeds.wordpress.com/1.0/gotwitter/matthall.wordpress.com/68/"><img alt="" border="0" src="http://feeds.wordpress.com/1.0/twitter/matthall.wordpress.com/68/" /></a> <a rel="nofollow" href="http://feeds.wordpress.com/1.0/gostumble/matthall.wordpress.com/68/"><img alt="" border="0" src="http://feeds.wordpress.com/1.0/stumble/matthall.wordpress.com/68/" /></a> <a rel="nofollow" href="http://feeds.wordpress.com/1.0/godigg/matthall.wordpress.com/68/"><img alt="" border="0" src="http://feeds.wordpress.com/1.0/digg/matthall.wordpress.com/68/" /></a> <a rel="nofollow" href="http://feeds.wordpress.com/1.0/goreddit/matthall.wordpress.com/68/"><img alt="" border="0" src="http://feeds.wordpress.com/1.0/reddit/matthall.wordpress.com/68/" /></a> <img alt="" border="0" src="http://stats.wordpress.com/b.gif?host=matthall.wordpress.com&amp;blog=17453&amp;post=68&amp;subd=matthall&amp;ref=&amp;feed=1" width="1" height="1" />]]></content:encoded>
			<wfw:commentRss>http://matthall.wordpress.com/2010/02/17/ssl_requirement-and-rspec/feed/</wfw:commentRss>
		<slash:comments>1</slash:comments>
	
		<media:content url="http://1.gravatar.com/avatar/f6925b0d9a374a15f8ba30a11b14f323?s=96&#38;d=identicon&#38;r=G" medium="image">
			<media:title type="html">matthall</media:title>
		</media:content>
	</item>
		<item>
		<title>Checking for a WiFi Connection in One Line</title>
		<link>http://matthall.wordpress.com/2009/08/22/checking-for-a-wifi-connection-in-one-line/</link>
		<comments>http://matthall.wordpress.com/2009/08/22/checking-for-a-wifi-connection-in-one-line/#comments</comments>
		<pubDate>Sat, 22 Aug 2009 12:07:29 +0000</pubDate>
		<dc:creator>Matt</dc:creator>
				<category><![CDATA[Random Gubbins]]></category>
		<category><![CDATA[dev]]></category>
		<category><![CDATA[iphone]]></category>

		<guid isPermaLink="false">http://matthall.wordpress.com/?p=65</guid>
		<description><![CDATA[This post has moved here: http://codebeef.com/checking-for-a-wifi-connection-in-one-line<img alt="" border="0" src="http://stats.wordpress.com/b.gif?host=matthall.wordpress.com&amp;blog=17453&amp;post=65&amp;subd=matthall&amp;ref=&amp;feed=1" width="1" height="1" />]]></description>
			<content:encoded><![CDATA[<p>This post has moved here:</p>
<p><a href="http://codebeef.com/checking-for-a-wifi-connection-in-one-line">http://codebeef.com/checking-for-a-wifi-connection-in-one-line</a></p>
<br />  <a rel="nofollow" href="http://feeds.wordpress.com/1.0/gocomments/matthall.wordpress.com/65/"><img alt="" border="0" src="http://feeds.wordpress.com/1.0/comments/matthall.wordpress.com/65/" /></a> <a rel="nofollow" href="http://feeds.wordpress.com/1.0/godelicious/matthall.wordpress.com/65/"><img alt="" border="0" src="http://feeds.wordpress.com/1.0/delicious/matthall.wordpress.com/65/" /></a> <a rel="nofollow" href="http://feeds.wordpress.com/1.0/gofacebook/matthall.wordpress.com/65/"><img alt="" border="0" src="http://feeds.wordpress.com/1.0/facebook/matthall.wordpress.com/65/" /></a> <a rel="nofollow" href="http://feeds.wordpress.com/1.0/gotwitter/matthall.wordpress.com/65/"><img alt="" border="0" src="http://feeds.wordpress.com/1.0/twitter/matthall.wordpress.com/65/" /></a> <a rel="nofollow" href="http://feeds.wordpress.com/1.0/gostumble/matthall.wordpress.com/65/"><img alt="" border="0" src="http://feeds.wordpress.com/1.0/stumble/matthall.wordpress.com/65/" /></a> <a rel="nofollow" href="http://feeds.wordpress.com/1.0/godigg/matthall.wordpress.com/65/"><img alt="" border="0" src="http://feeds.wordpress.com/1.0/digg/matthall.wordpress.com/65/" /></a> <a rel="nofollow" href="http://feeds.wordpress.com/1.0/goreddit/matthall.wordpress.com/65/"><img alt="" border="0" src="http://feeds.wordpress.com/1.0/reddit/matthall.wordpress.com/65/" /></a> <img alt="" border="0" src="http://stats.wordpress.com/b.gif?host=matthall.wordpress.com&amp;blog=17453&amp;post=65&amp;subd=matthall&amp;ref=&amp;feed=1" width="1" height="1" />]]></content:encoded>
			<wfw:commentRss>http://matthall.wordpress.com/2009/08/22/checking-for-a-wifi-connection-in-one-line/feed/</wfw:commentRss>
		<slash:comments>0</slash:comments>
	
		<media:content url="http://1.gravatar.com/avatar/f6925b0d9a374a15f8ba30a11b14f323?s=96&#38;d=identicon&#38;r=G" medium="image">
			<media:title type="html">matthall</media:title>
		</media:content>
	</item>
		<item>
		<title>Easy Linking with Polymorphic Associations in Rails</title>
		<link>http://matthall.wordpress.com/2009/07/24/easy-linking-with-polymorphic-associations-in-rails/</link>
		<comments>http://matthall.wordpress.com/2009/07/24/easy-linking-with-polymorphic-associations-in-rails/#comments</comments>
		<pubDate>Fri, 24 Jul 2009 15:55:56 +0000</pubDate>
		<dc:creator>Matt</dc:creator>
				<category><![CDATA[Random Gubbins]]></category>

		<guid isPermaLink="false">http://matthall.wordpress.com/?p=59</guid>
		<description><![CDATA[This post has moved here: http://codebeef.com/easy-linking-with-polymorphic-associations-in-rails<img alt="" border="0" src="http://stats.wordpress.com/b.gif?host=matthall.wordpress.com&amp;blog=17453&amp;post=59&amp;subd=matthall&amp;ref=&amp;feed=1" width="1" height="1" />]]></description>
			<content:encoded><![CDATA[<p>This post has moved here:</p>
<p><a href="http://codebeef.com/easy-linking-with-polymorphic-associations-in-rails">http://codebeef.com/easy-linking-with-polymorphic-associations-in-rails</a></p>
<br />  <a rel="nofollow" href="http://feeds.wordpress.com/1.0/gocomments/matthall.wordpress.com/59/"><img alt="" border="0" src="http://feeds.wordpress.com/1.0/comments/matthall.wordpress.com/59/" /></a> <a rel="nofollow" href="http://feeds.wordpress.com/1.0/godelicious/matthall.wordpress.com/59/"><img alt="" border="0" src="http://feeds.wordpress.com/1.0/delicious/matthall.wordpress.com/59/" /></a> <a rel="nofollow" href="http://feeds.wordpress.com/1.0/gofacebook/matthall.wordpress.com/59/"><img alt="" border="0" src="http://feeds.wordpress.com/1.0/facebook/matthall.wordpress.com/59/" /></a> <a rel="nofollow" href="http://feeds.wordpress.com/1.0/gotwitter/matthall.wordpress.com/59/"><img alt="" border="0" src="http://feeds.wordpress.com/1.0/twitter/matthall.wordpress.com/59/" /></a> <a rel="nofollow" href="http://feeds.wordpress.com/1.0/gostumble/matthall.wordpress.com/59/"><img alt="" border="0" src="http://feeds.wordpress.com/1.0/stumble/matthall.wordpress.com/59/" /></a> <a rel="nofollow" href="http://feeds.wordpress.com/1.0/godigg/matthall.wordpress.com/59/"><img alt="" border="0" src="http://feeds.wordpress.com/1.0/digg/matthall.wordpress.com/59/" /></a> <a rel="nofollow" href="http://feeds.wordpress.com/1.0/goreddit/matthall.wordpress.com/59/"><img alt="" border="0" src="http://feeds.wordpress.com/1.0/reddit/matthall.wordpress.com/59/" /></a> <img alt="" border="0" src="http://stats.wordpress.com/b.gif?host=matthall.wordpress.com&amp;blog=17453&amp;post=59&amp;subd=matthall&amp;ref=&amp;feed=1" width="1" height="1" />]]></content:encoded>
			<wfw:commentRss>http://matthall.wordpress.com/2009/07/24/easy-linking-with-polymorphic-associations-in-rails/feed/</wfw:commentRss>
		<slash:comments>4</slash:comments>
	
		<media:content url="http://1.gravatar.com/avatar/f6925b0d9a374a15f8ba30a11b14f323?s=96&#38;d=identicon&#38;r=G" medium="image">
			<media:title type="html">matthall</media:title>
		</media:content>
	</item>
		<item>
		<title>Bort updated to Rails 2.2</title>
		<link>http://matthall.wordpress.com/2008/11/10/bort-updated-to-rails-22/</link>
		<comments>http://matthall.wordpress.com/2008/11/10/bort-updated-to-rails-22/#comments</comments>
		<pubDate>Mon, 10 Nov 2008 10:25:10 +0000</pubDate>
		<dc:creator>Matt</dc:creator>
				<category><![CDATA[Random Gubbins]]></category>

		<guid isPermaLink="false">http://matthall.wordpress.com/?p=50</guid>
		<description><![CDATA[This post has moved here: http://codebeef.com/bort-updated-to-rails-22<img alt="" border="0" src="http://stats.wordpress.com/b.gif?host=matthall.wordpress.com&amp;blog=17453&amp;post=50&amp;subd=matthall&amp;ref=&amp;feed=1" width="1" height="1" />]]></description>
			<content:encoded><![CDATA[<p>This post has moved here:</p>
<p><a href="http://codebeef.com/bort-updated-to-rails-22">http://codebeef.com/bort-updated-to-rails-22</a></p>
<br />  <a rel="nofollow" href="http://feeds.wordpress.com/1.0/gocomments/matthall.wordpress.com/50/"><img alt="" border="0" src="http://feeds.wordpress.com/1.0/comments/matthall.wordpress.com/50/" /></a> <a rel="nofollow" href="http://feeds.wordpress.com/1.0/godelicious/matthall.wordpress.com/50/"><img alt="" border="0" src="http://feeds.wordpress.com/1.0/delicious/matthall.wordpress.com/50/" /></a> <a rel="nofollow" href="http://feeds.wordpress.com/1.0/gofacebook/matthall.wordpress.com/50/"><img alt="" border="0" src="http://feeds.wordpress.com/1.0/facebook/matthall.wordpress.com/50/" /></a> <a rel="nofollow" href="http://feeds.wordpress.com/1.0/gotwitter/matthall.wordpress.com/50/"><img alt="" border="0" src="http://feeds.wordpress.com/1.0/twitter/matthall.wordpress.com/50/" /></a> <a rel="nofollow" href="http://feeds.wordpress.com/1.0/gostumble/matthall.wordpress.com/50/"><img alt="" border="0" src="http://feeds.wordpress.com/1.0/stumble/matthall.wordpress.com/50/" /></a> <a rel="nofollow" href="http://feeds.wordpress.com/1.0/godigg/matthall.wordpress.com/50/"><img alt="" border="0" src="http://feeds.wordpress.com/1.0/digg/matthall.wordpress.com/50/" /></a> <a rel="nofollow" href="http://feeds.wordpress.com/1.0/goreddit/matthall.wordpress.com/50/"><img alt="" border="0" src="http://feeds.wordpress.com/1.0/reddit/matthall.wordpress.com/50/" /></a> <img alt="" border="0" src="http://stats.wordpress.com/b.gif?host=matthall.wordpress.com&amp;blog=17453&amp;post=50&amp;subd=matthall&amp;ref=&amp;feed=1" width="1" height="1" />]]></content:encoded>
			<wfw:commentRss>http://matthall.wordpress.com/2008/11/10/bort-updated-to-rails-22/feed/</wfw:commentRss>
		<slash:comments>1</slash:comments>
	
		<media:content url="http://1.gravatar.com/avatar/f6925b0d9a374a15f8ba30a11b14f323?s=96&#38;d=identicon&#38;r=G" medium="image">
			<media:title type="html">matthall</media:title>
		</media:content>
	</item>
		<item>
		<title>A Helper for Testing Access Control with RSpec</title>
		<link>http://matthall.wordpress.com/2008/10/14/a-helper-for-testing-access-control-with-rspec/</link>
		<comments>http://matthall.wordpress.com/2008/10/14/a-helper-for-testing-access-control-with-rspec/#comments</comments>
		<pubDate>Tue, 14 Oct 2008 10:13:08 +0000</pubDate>
		<dc:creator>Matt</dc:creator>
				<category><![CDATA[Random Gubbins]]></category>

		<guid isPermaLink="false">http://matthall.wordpress.com/?p=44</guid>
		<description><![CDATA[This post has moved here: http://codebeef.com/a-helper-for-testing-access-control-with-rspe<img alt="" border="0" src="http://stats.wordpress.com/b.gif?host=matthall.wordpress.com&amp;blog=17453&amp;post=44&amp;subd=matthall&amp;ref=&amp;feed=1" width="1" height="1" />]]></description>
			<content:encoded><![CDATA[<p>This post has moved here:</p>
<p><a href="http://codebeef.com/a-helper-for-testing-access-control-with-rspe">http://codebeef.com/a-helper-for-testing-access-control-with-rspe</a></p>
<br />  <a rel="nofollow" href="http://feeds.wordpress.com/1.0/gocomments/matthall.wordpress.com/44/"><img alt="" border="0" src="http://feeds.wordpress.com/1.0/comments/matthall.wordpress.com/44/" /></a> <a rel="nofollow" href="http://feeds.wordpress.com/1.0/godelicious/matthall.wordpress.com/44/"><img alt="" border="0" src="http://feeds.wordpress.com/1.0/delicious/matthall.wordpress.com/44/" /></a> <a rel="nofollow" href="http://feeds.wordpress.com/1.0/gofacebook/matthall.wordpress.com/44/"><img alt="" border="0" src="http://feeds.wordpress.com/1.0/facebook/matthall.wordpress.com/44/" /></a> <a rel="nofollow" href="http://feeds.wordpress.com/1.0/gotwitter/matthall.wordpress.com/44/"><img alt="" border="0" src="http://feeds.wordpress.com/1.0/twitter/matthall.wordpress.com/44/" /></a> <a rel="nofollow" href="http://feeds.wordpress.com/1.0/gostumble/matthall.wordpress.com/44/"><img alt="" border="0" src="http://feeds.wordpress.com/1.0/stumble/matthall.wordpress.com/44/" /></a> <a rel="nofollow" href="http://feeds.wordpress.com/1.0/godigg/matthall.wordpress.com/44/"><img alt="" border="0" src="http://feeds.wordpress.com/1.0/digg/matthall.wordpress.com/44/" /></a> <a rel="nofollow" href="http://feeds.wordpress.com/1.0/goreddit/matthall.wordpress.com/44/"><img alt="" border="0" src="http://feeds.wordpress.com/1.0/reddit/matthall.wordpress.com/44/" /></a> <img alt="" border="0" src="http://stats.wordpress.com/b.gif?host=matthall.wordpress.com&amp;blog=17453&amp;post=44&amp;subd=matthall&amp;ref=&amp;feed=1" width="1" height="1" />]]></content:encoded>
			<wfw:commentRss>http://matthall.wordpress.com/2008/10/14/a-helper-for-testing-access-control-with-rspec/feed/</wfw:commentRss>
		<slash:comments>0</slash:comments>
	
		<media:content url="http://1.gravatar.com/avatar/f6925b0d9a374a15f8ba30a11b14f323?s=96&#38;d=identicon&#38;r=G" medium="image">
			<media:title type="html">matthall</media:title>
		</media:content>
	</item>
		<item>
		<title>A Bort Fork &#8211; Rails Base Application</title>
		<link>http://matthall.wordpress.com/2008/09/09/a-bort-fork-rails-base-application/</link>
		<comments>http://matthall.wordpress.com/2008/09/09/a-bort-fork-rails-base-application/#comments</comments>
		<pubDate>Tue, 09 Sep 2008 14:59:14 +0000</pubDate>
		<dc:creator>Matt</dc:creator>
				<category><![CDATA[Development]]></category>
		<category><![CDATA[Rails]]></category>
		<category><![CDATA[Bort]]></category>

		<guid isPermaLink="false">http://matthall.wordpress.com/?p=39</guid>
		<description><![CDATA[This post has moved here: http://codebeef.com/a-bort-fork-rails-base-application<img alt="" border="0" src="http://stats.wordpress.com/b.gif?host=matthall.wordpress.com&amp;blog=17453&amp;post=39&amp;subd=matthall&amp;ref=&amp;feed=1" width="1" height="1" />]]></description>
			<content:encoded><![CDATA[<p>This post has moved here:</p>
<p><a href="http://codebeef.com/a-bort-fork-rails-base-application">http://codebeef.com/a-bort-fork-rails-base-application</a></p>
<br /><img alt="" border="0" src="http://feeds.wordpress.com/1.0/categories/matthall.wordpress.com/39/" /> <img alt="" border="0" src="http://feeds.wordpress.com/1.0/tags/matthall.wordpress.com/39/" /> <a rel="nofollow" href="http://feeds.wordpress.com/1.0/gocomments/matthall.wordpress.com/39/"><img alt="" border="0" src="http://feeds.wordpress.com/1.0/comments/matthall.wordpress.com/39/" /></a> <a rel="nofollow" href="http://feeds.wordpress.com/1.0/godelicious/matthall.wordpress.com/39/"><img alt="" border="0" src="http://feeds.wordpress.com/1.0/delicious/matthall.wordpress.com/39/" /></a> <a rel="nofollow" href="http://feeds.wordpress.com/1.0/gofacebook/matthall.wordpress.com/39/"><img alt="" border="0" src="http://feeds.wordpress.com/1.0/facebook/matthall.wordpress.com/39/" /></a> <a rel="nofollow" href="http://feeds.wordpress.com/1.0/gotwitter/matthall.wordpress.com/39/"><img alt="" border="0" src="http://feeds.wordpress.com/1.0/twitter/matthall.wordpress.com/39/" /></a> <a rel="nofollow" href="http://feeds.wordpress.com/1.0/gostumble/matthall.wordpress.com/39/"><img alt="" border="0" src="http://feeds.wordpress.com/1.0/stumble/matthall.wordpress.com/39/" /></a> <a rel="nofollow" href="http://feeds.wordpress.com/1.0/godigg/matthall.wordpress.com/39/"><img alt="" border="0" src="http://feeds.wordpress.com/1.0/digg/matthall.wordpress.com/39/" /></a> <a rel="nofollow" href="http://feeds.wordpress.com/1.0/goreddit/matthall.wordpress.com/39/"><img alt="" border="0" src="http://feeds.wordpress.com/1.0/reddit/matthall.wordpress.com/39/" /></a> <img alt="" border="0" src="http://stats.wordpress.com/b.gif?host=matthall.wordpress.com&amp;blog=17453&amp;post=39&amp;subd=matthall&amp;ref=&amp;feed=1" width="1" height="1" />]]></content:encoded>
			<wfw:commentRss>http://matthall.wordpress.com/2008/09/09/a-bort-fork-rails-base-application/feed/</wfw:commentRss>
		<slash:comments>5</slash:comments>
	
		<media:content url="http://1.gravatar.com/avatar/f6925b0d9a374a15f8ba30a11b14f323?s=96&#38;d=identicon&#38;r=G" medium="image">
			<media:title type="html">matthall</media:title>
		</media:content>
	</item>
		<item>
		<title>Unterminated String Literal with Asset Packager</title>
		<link>http://matthall.wordpress.com/2008/05/20/unterminated-string-literal-with-asset-packager/</link>
		<comments>http://matthall.wordpress.com/2008/05/20/unterminated-string-literal-with-asset-packager/#comments</comments>
		<pubDate>Tue, 20 May 2008 14:31:09 +0000</pubDate>
		<dc:creator>Matt</dc:creator>
				<category><![CDATA[Random Gubbins]]></category>

		<guid isPermaLink="false">http://matthall.wordpress.com/?p=37</guid>
		<description><![CDATA[This post has moved here: http://codebeef.com/unterminated-string-literal-with-asset-packag<img alt="" border="0" src="http://stats.wordpress.com/b.gif?host=matthall.wordpress.com&amp;blog=17453&amp;post=37&amp;subd=matthall&amp;ref=&amp;feed=1" width="1" height="1" />]]></description>
			<content:encoded><![CDATA[<p>This post has moved here:<br />
<a href="http://codebeef.com/unterminated-string-literal-with-asset-packag">http://codebeef.com/unterminated-string-literal-with-asset-packag</a></p>
<br /><img alt="" border="0" src="http://feeds.wordpress.com/1.0/categories/matthall.wordpress.com/37/" /> <img alt="" border="0" src="http://feeds.wordpress.com/1.0/tags/matthall.wordpress.com/37/" /> <a rel="nofollow" href="http://feeds.wordpress.com/1.0/gocomments/matthall.wordpress.com/37/"><img alt="" border="0" src="http://feeds.wordpress.com/1.0/comments/matthall.wordpress.com/37/" /></a> <a rel="nofollow" href="http://feeds.wordpress.com/1.0/godelicious/matthall.wordpress.com/37/"><img alt="" border="0" src="http://feeds.wordpress.com/1.0/delicious/matthall.wordpress.com/37/" /></a> <a rel="nofollow" href="http://feeds.wordpress.com/1.0/gofacebook/matthall.wordpress.com/37/"><img alt="" border="0" src="http://feeds.wordpress.com/1.0/facebook/matthall.wordpress.com/37/" /></a> <a rel="nofollow" href="http://feeds.wordpress.com/1.0/gotwitter/matthall.wordpress.com/37/"><img alt="" border="0" src="http://feeds.wordpress.com/1.0/twitter/matthall.wordpress.com/37/" /></a> <a rel="nofollow" href="http://feeds.wordpress.com/1.0/gostumble/matthall.wordpress.com/37/"><img alt="" border="0" src="http://feeds.wordpress.com/1.0/stumble/matthall.wordpress.com/37/" /></a> <a rel="nofollow" href="http://feeds.wordpress.com/1.0/godigg/matthall.wordpress.com/37/"><img alt="" border="0" src="http://feeds.wordpress.com/1.0/digg/matthall.wordpress.com/37/" /></a> <a rel="nofollow" href="http://feeds.wordpress.com/1.0/goreddit/matthall.wordpress.com/37/"><img alt="" border="0" src="http://feeds.wordpress.com/1.0/reddit/matthall.wordpress.com/37/" /></a> <img alt="" border="0" src="http://stats.wordpress.com/b.gif?host=matthall.wordpress.com&amp;blog=17453&amp;post=37&amp;subd=matthall&amp;ref=&amp;feed=1" width="1" height="1" />]]></content:encoded>
			<wfw:commentRss>http://matthall.wordpress.com/2008/05/20/unterminated-string-literal-with-asset-packager/feed/</wfw:commentRss>
		<slash:comments>1</slash:comments>
	
		<media:content url="http://1.gravatar.com/avatar/f6925b0d9a374a15f8ba30a11b14f323?s=96&#38;d=identicon&#38;r=G" medium="image">
			<media:title type="html">matthall</media:title>
		</media:content>
	</item>
		<item>
		<title>Really Simple History (RSH) Initial URL</title>
		<link>http://matthall.wordpress.com/2008/04/07/really-simple-history-rsh-initial-url/</link>
		<comments>http://matthall.wordpress.com/2008/04/07/really-simple-history-rsh-initial-url/#comments</comments>
		<pubDate>Mon, 07 Apr 2008 17:48:57 +0000</pubDate>
		<dc:creator>Matt</dc:creator>
				<category><![CDATA[Bouldr]]></category>
		<category><![CDATA[Development]]></category>
		<category><![CDATA[Google]]></category>
		<category><![CDATA[javascript]]></category>
		<category><![CDATA[really simple history]]></category>
		<category><![CDATA[rsh]]></category>

		<guid isPermaLink="false">http://matthall.wordpress.com/?p=36</guid>
		<description><![CDATA[This post has moved here: http://codebeef.com/really-simple-history-rsh-initial-url<img alt="" border="0" src="http://stats.wordpress.com/b.gif?host=matthall.wordpress.com&amp;blog=17453&amp;post=36&amp;subd=matthall&amp;ref=&amp;feed=1" width="1" height="1" />]]></description>
			<content:encoded><![CDATA[<p>This post has moved here:<br />
<a href="http://codebeef.com/really-simple-history-rsh-initial-url">http://codebeef.com/really-simple-history-rsh-initial-url</a></p>
<br /><img alt="" border="0" src="http://feeds.wordpress.com/1.0/categories/matthall.wordpress.com/36/" /> <img alt="" border="0" src="http://feeds.wordpress.com/1.0/tags/matthall.wordpress.com/36/" /> <a rel="nofollow" href="http://feeds.wordpress.com/1.0/gocomments/matthall.wordpress.com/36/"><img alt="" border="0" src="http://feeds.wordpress.com/1.0/comments/matthall.wordpress.com/36/" /></a> <a rel="nofollow" href="http://feeds.wordpress.com/1.0/godelicious/matthall.wordpress.com/36/"><img alt="" border="0" src="http://feeds.wordpress.com/1.0/delicious/matthall.wordpress.com/36/" /></a> <a rel="nofollow" href="http://feeds.wordpress.com/1.0/gofacebook/matthall.wordpress.com/36/"><img alt="" border="0" src="http://feeds.wordpress.com/1.0/facebook/matthall.wordpress.com/36/" /></a> <a rel="nofollow" href="http://feeds.wordpress.com/1.0/gotwitter/matthall.wordpress.com/36/"><img alt="" border="0" src="http://feeds.wordpress.com/1.0/twitter/matthall.wordpress.com/36/" /></a> <a rel="nofollow" href="http://feeds.wordpress.com/1.0/gostumble/matthall.wordpress.com/36/"><img alt="" border="0" src="http://feeds.wordpress.com/1.0/stumble/matthall.wordpress.com/36/" /></a> <a rel="nofollow" href="http://feeds.wordpress.com/1.0/godigg/matthall.wordpress.com/36/"><img alt="" border="0" src="http://feeds.wordpress.com/1.0/digg/matthall.wordpress.com/36/" /></a> <a rel="nofollow" href="http://feeds.wordpress.com/1.0/goreddit/matthall.wordpress.com/36/"><img alt="" border="0" src="http://feeds.wordpress.com/1.0/reddit/matthall.wordpress.com/36/" /></a> <img alt="" border="0" src="http://stats.wordpress.com/b.gif?host=matthall.wordpress.com&amp;blog=17453&amp;post=36&amp;subd=matthall&amp;ref=&amp;feed=1" width="1" height="1" />]]></content:encoded>
			<wfw:commentRss>http://matthall.wordpress.com/2008/04/07/really-simple-history-rsh-initial-url/feed/</wfw:commentRss>
		<slash:comments>0</slash:comments>
	
		<media:content url="http://1.gravatar.com/avatar/f6925b0d9a374a15f8ba30a11b14f323?s=96&#38;d=identicon&#38;r=G" medium="image">
			<media:title type="html">matthall</media:title>
		</media:content>
	</item>
		<item>
		<title>Installing MySQL Gem &#8211; CentOS</title>
		<link>http://matthall.wordpress.com/2008/01/24/installing-mysql-gem-centos/</link>
		<comments>http://matthall.wordpress.com/2008/01/24/installing-mysql-gem-centos/#comments</comments>
		<pubDate>Thu, 24 Jan 2008 02:40:56 +0000</pubDate>
		<dc:creator>Matt</dc:creator>
				<category><![CDATA[Random Gubbins]]></category>

		<guid isPermaLink="false">http://matthall.wordpress.com/2008/01/24/installing-mysql-gem-centos/</guid>
		<description><![CDATA[This post has moved here: http://codebeef.com/installing-mysql-gem-centos<img alt="" border="0" src="http://stats.wordpress.com/b.gif?host=matthall.wordpress.com&amp;blog=17453&amp;post=35&amp;subd=matthall&amp;ref=&amp;feed=1" width="1" height="1" />]]></description>
			<content:encoded><![CDATA[<p>This post has moved here:<br />
<a href="http://codebeef.com/installing-mysql-gem-centos">http://codebeef.com/installing-mysql-gem-centos</a></p>
<br /><img alt="" border="0" src="http://feeds.wordpress.com/1.0/categories/matthall.wordpress.com/35/" /> <img alt="" border="0" src="http://feeds.wordpress.com/1.0/tags/matthall.wordpress.com/35/" /> <a rel="nofollow" href="http://feeds.wordpress.com/1.0/gocomments/matthall.wordpress.com/35/"><img alt="" border="0" src="http://feeds.wordpress.com/1.0/comments/matthall.wordpress.com/35/" /></a> <a rel="nofollow" href="http://feeds.wordpress.com/1.0/godelicious/matthall.wordpress.com/35/"><img alt="" border="0" src="http://feeds.wordpress.com/1.0/delicious/matthall.wordpress.com/35/" /></a> <a rel="nofollow" href="http://feeds.wordpress.com/1.0/gofacebook/matthall.wordpress.com/35/"><img alt="" border="0" src="http://feeds.wordpress.com/1.0/facebook/matthall.wordpress.com/35/" /></a> <a rel="nofollow" href="http://feeds.wordpress.com/1.0/gotwitter/matthall.wordpress.com/35/"><img alt="" border="0" src="http://feeds.wordpress.com/1.0/twitter/matthall.wordpress.com/35/" /></a> <a rel="nofollow" href="http://feeds.wordpress.com/1.0/gostumble/matthall.wordpress.com/35/"><img alt="" border="0" src="http://feeds.wordpress.com/1.0/stumble/matthall.wordpress.com/35/" /></a> <a rel="nofollow" href="http://feeds.wordpress.com/1.0/godigg/matthall.wordpress.com/35/"><img alt="" border="0" src="http://feeds.wordpress.com/1.0/digg/matthall.wordpress.com/35/" /></a> <a rel="nofollow" href="http://feeds.wordpress.com/1.0/goreddit/matthall.wordpress.com/35/"><img alt="" border="0" src="http://feeds.wordpress.com/1.0/reddit/matthall.wordpress.com/35/" /></a> <img alt="" border="0" src="http://stats.wordpress.com/b.gif?host=matthall.wordpress.com&amp;blog=17453&amp;post=35&amp;subd=matthall&amp;ref=&amp;feed=1" width="1" height="1" />]]></content:encoded>
			<wfw:commentRss>http://matthall.wordpress.com/2008/01/24/installing-mysql-gem-centos/feed/</wfw:commentRss>
		<slash:comments>4</slash:comments>
	
		<media:content url="http://1.gravatar.com/avatar/f6925b0d9a374a15f8ba30a11b14f323?s=96&#38;d=identicon&#38;r=G" medium="image">
			<media:title type="html">matthall</media:title>
		</media:content>
	</item>
	</channel>
</rss>