<?xml version="1.0" encoding="utf-8"?>

<rdf:RDF
xmlns:rdf="http://www.w3.org/1999/02/22-rdf-syntax-ns#"
xmlns:dc="http://purl.org/dc/elements/1.1/"
xmlns="http://purl.org/rss/1.0/"
xml:lang="ja">

<channel rdf:about="http://kotonoha.cc/user/eimeiichikawa/rss">
    <title>コトノハ - eimeiichikawaさんの新着○×</title>
    <link>http://kotonoha.cc/user/eimeiichikawa</link>
    <description>eimeiichikawaさんの○×の新着情報です</description>
            <dc:date>2011-10-04T03:54:55+09:00</dc:date>
        <items>
        <rdf:Seq>
                <rdf:li rdf:resource="http://kotonoha.cc/no/243741" />
                <rdf:li rdf:resource="http://kotonoha.cc/no/121985" />
                <rdf:li rdf:resource="http://kotonoha.cc/no/243756" />
                <rdf:li rdf:resource="http://kotonoha.cc/no/243746" />
                <rdf:li rdf:resource="http://kotonoha.cc/no/243734" />
                <rdf:li rdf:resource="http://kotonoha.cc/no/243697" />
                <rdf:li rdf:resource="http://kotonoha.cc/no/243718" />
                <rdf:li rdf:resource="http://kotonoha.cc/no/243730" />
                <rdf:li rdf:resource="http://kotonoha.cc/no/243735" />
                <rdf:li rdf:resource="http://kotonoha.cc/no/243769" />
                <rdf:li rdf:resource="http://kotonoha.cc/no/243742" />
                <rdf:li rdf:resource="http://kotonoha.cc/no/243688" />
                <rdf:li rdf:resource="http://kotonoha.cc/no/243667" />
                <rdf:li rdf:resource="http://kotonoha.cc/no/243641" />
                <rdf:li rdf:resource="http://kotonoha.cc/no/243660" />
                <rdf:li rdf:resource="http://kotonoha.cc/no/243662" />
                <rdf:li rdf:resource="http://kotonoha.cc/no/243644" />
                <rdf:li rdf:resource="http://kotonoha.cc/no/243708" />
                <rdf:li rdf:resource="http://kotonoha.cc/no/243598" />
                <rdf:li rdf:resource="http://kotonoha.cc/no/243611" />
                </rdf:Seq>
    </items>
</channel>

<item rdf:about="http://kotonoha.cc/no/243741">
    <title>× 夜中の公園で木の幹に髪の毛を狂ったように擦りつける女性(40)</title>
    <link>http://kotonoha.cc/no/243741</link>
        <description />
            <dc:date>2011-10-02T23:13:39+09:00</dc:date>
            <dc:subject>×</dc:subject>
        </item>
<item rdf:about="http://kotonoha.cc/no/121985">
    <title>○ ポテトチップスは、○→袋　×→筒(271)</title>
    <link>http://kotonoha.cc/no/121985</link>
        <description />
            <dc:date>2011-10-02T23:13:24+09:00</dc:date>
            <dc:subject>○</dc:subject>
        </item>
<item rdf:about="http://kotonoha.cc/no/243756">
    <title>× 好きなフルーツTOP3おしえて!(53)</title>
    <link>http://kotonoha.cc/no/243756</link>
        <description />
            <dc:date>2011-10-02T23:13:23+09:00</dc:date>
            <dc:subject>×</dc:subject>
        </item>
<item rdf:about="http://kotonoha.cc/no/243746">
    <title>× 東急ハンズでマスキングテープを“マステ”と呼ぶ若い女性に恐れ入る(21)</title>
    <link>http://kotonoha.cc/no/243746</link>
        <description />
            <dc:date>2011-10-02T23:13:13+09:00</dc:date>
            <dc:subject>×</dc:subject>
        </item>
<item rdf:about="http://kotonoha.cc/no/243734">
    <title>○ 子作りを金ないからと濁してたのに黙って40万のバイク購入した旦那(38)</title>
    <link>http://kotonoha.cc/no/243734</link>
        <description />
            <dc:date>2011-10-02T23:12:54+09:00</dc:date>
            <dc:subject>○</dc:subject>
        </item>
<item rdf:about="http://kotonoha.cc/no/243697">
    <title>× 学会に所属している(16)</title>
    <link>http://kotonoha.cc/no/243697</link>
        <description />
            <dc:date>2011-10-02T23:12:39+09:00</dc:date>
            <dc:subject>×</dc:subject>
        </item>
<item rdf:about="http://kotonoha.cc/no/243718">
    <title>○ ナスビを使った料理で思い浮かべたのは? ○麻婆豆腐 ×煮物orその他(44)</title>
    <link>http://kotonoha.cc/no/243718</link>
        <description />
            <dc:date>2011-10-02T23:12:37+09:00</dc:date>
            <dc:subject>○</dc:subject>
        </item>
<item rdf:about="http://kotonoha.cc/no/243730">
    <title>× イルカが攻めてくるぞっ(28)</title>
    <link>http://kotonoha.cc/no/243730</link>
        <description />
            <dc:date>2011-10-02T23:12:24+09:00</dc:date>
            <dc:subject>×</dc:subject>
        </item>
<item rdf:about="http://kotonoha.cc/no/243735">
    <title>× どっちが気持ち悪い？　○ロリコン　×マザコン(46)</title>
    <link>http://kotonoha.cc/no/243735</link>
        <description />
            <dc:date>2011-10-02T23:12:20+09:00</dc:date>
            <dc:subject>×</dc:subject>
        </item>
<item rdf:about="http://kotonoha.cc/no/243769">
    <title>× どっちが好きですか?○しば漬け ×きゅうりのキューちゃん(28)</title>
    <link>http://kotonoha.cc/no/243769</link>
        <description />
            <dc:date>2011-10-02T23:12:09+09:00</dc:date>
            <dc:subject>×</dc:subject>
        </item>
<item rdf:about="http://kotonoha.cc/no/243742">
    <title>○ 「人生」というゲームが面白いらしいよ(51)</title>
    <link>http://kotonoha.cc/no/243742</link>
        <description />
            <dc:date>2011-10-02T23:11:53+09:00</dc:date>
            <dc:subject>○</dc:subject>
        </item>
<item rdf:about="http://kotonoha.cc/no/243688">
    <title>○ 鍋に入ってる白ねぎって最高に旨い！(50)</title>
    <link>http://kotonoha.cc/no/243688</link>
        <description />
            <dc:date>2011-10-01T22:35:46+09:00</dc:date>
            <dc:subject>○</dc:subject>
        </item>
<item rdf:about="http://kotonoha.cc/no/243667">
    <title>○ 皮目をカリカリに焼いたチキンに刻んだパセリをたっぷり乗せて食べたい。(21)</title>
    <link>http://kotonoha.cc/no/243667</link>
        <description />
            <dc:date>2011-10-01T22:35:27+09:00</dc:date>
            <dc:subject>○</dc:subject>
        </item>
<item rdf:about="http://kotonoha.cc/no/243641">
    <title>× 電車で痴漢が逮捕されたというニュースを見ても「また冤罪か」としか思わなくなった(17)</title>
    <link>http://kotonoha.cc/no/243641</link>
        <description />
            <dc:date>2011-10-01T22:35:07+09:00</dc:date>
            <dc:subject>×</dc:subject>
        </item>
<item rdf:about="http://kotonoha.cc/no/243660">
    <title>○ 米粉の麺(25)</title>
    <link>http://kotonoha.cc/no/243660</link>
        <description />
            <dc:date>2011-10-01T22:35:06+09:00</dc:date>
            <dc:subject>○</dc:subject>
        </item>
<item rdf:about="http://kotonoha.cc/no/243662">
    <title>× うきは市(12)</title>
    <link>http://kotonoha.cc/no/243662</link>
        <description />
            <dc:date>2011-10-01T22:35:02+09:00</dc:date>
            <dc:subject>×</dc:subject>
        </item>
<item rdf:about="http://kotonoha.cc/no/243644">
    <title>○ 大人が1000円払って耳鼻科で耳掃除(19)</title>
    <link>http://kotonoha.cc/no/243644</link>
        <description />
            <dc:date>2011-10-01T22:34:58+09:00</dc:date>
            <dc:subject>○</dc:subject>
        </item>
<item rdf:about="http://kotonoha.cc/no/243708">
    <title>× 「A＜＜＜＜B」のように比較する記号を書くクセのある人が苦手。(41)</title>
    <link>http://kotonoha.cc/no/243708</link>
        <description />
            <dc:date>2011-10-01T22:34:31+09:00</dc:date>
            <dc:subject>×</dc:subject>
        </item>
<item rdf:about="http://kotonoha.cc/no/243598">
    <title>○ DQNネームそのものを叩いても意味が無い。根源を叩くべき。(24)</title>
    <link>http://kotonoha.cc/no/243598</link>
        <description />
            <dc:date>2011-10-01T22:34:09+09:00</dc:date>
            <dc:subject>○</dc:subject>
        </item>
<item rdf:about="http://kotonoha.cc/no/243611">
    <title>× 闘争心(16)</title>
    <link>http://kotonoha.cc/no/243611</link>
        <description />
            <dc:date>2011-09-30T23:30:58+09:00</dc:date>
            <dc:subject>×</dc:subject>
        </item>

</rdf:RDF>