<?xml version="1.0"?><feed xmlns:media="http://search.yahoo.com/mrss/" xmlns:gr="http://www.google.com/schemas/reader/atom/" xmlns:idx="urn:atom-extension:indexing" xmlns="http://www.w3.org/2005/Atom" idx:index="no" gr:dir="ltr"><!--
Content-type: Preventing XSRF in IE.

--><generator uri="http://www.google.com/reader">Google Reader</generator><id>tag:google.com,2005:reader/user/09124452925752204747/state/com.google/starred</id><title>Lol's starred items in Google Reader</title><gr:continuation>COef5Ieqv6sC</gr:continuation><link rel="self" href="http://www.google.com/reader/public/atom/user%2F09124452925752204747%2Fstate%2Fcom.google%2Fstarred"/><author><name>Lol</name></author><updated>2011-10-03T15:34:26Z</updated><entry gr:crawl-timestamp-msec="1317656066383"><id gr:original-id="http://feedproxy.google.com/%7Er/TheNextWeb/%7E3/yP5UoVR5osg/">tag:google.com,2005:reader/item/a0463792e680184d</id><title type="html">Movenbank: The world’s first cardless bank launches in Alpha</title><published>2011-10-03T15:34:26Z</published><updated>2011-10-03T15:34:26Z</updated><link rel="alternate" href="http://feedproxy.google.com/%7Er/TheNextWeb/%7E3/yP5UoVR5osg/" type="text/html"/><summary xml:base="http://startups.alltop.com/" type="html">&lt;img width="520" height="245" src="http://cdn.thenextweb.com/wp-content/blogs.dir/1/files/2011/10/shutterstock_33007078-520x245.jpg" alt="shutterstock_33007078" title="shutterstock_33007078"&gt;&lt;br&gt;With Google Wallet, Square, PayPal and other initiatives emerging in the mobile payments space, it was only a matter of time before a dedicated mobile, cardless bank emerged. Movenbank, dubbed “the...</summary><author gr:unknown-author="true"><name>(author unknown)</name></author><source gr:stream-id="feed/http://startups.alltop.com/rss/"><id>tag:google.com,2005:reader/feed/http://startups.alltop.com/rss/</id><title type="html">Alltop RSS</title><link rel="alternate" href="http://startups.alltop.com" type="text/html"/></source></entry><entry gr:crawl-timestamp-msec="1317655913004"><id gr:original-id="http://www.forbes.com/sites/toddwoody/2011/10/03/guest-post-richard-branson-on-exploring-the-final-frontier/">tag:google.com,2005:reader/item/14fb3ac9e96bfc56</id><title type="html">Guest Post: Richard Branson On Exploring The Final Frontier</title><published>2011-10-03T15:31:53Z</published><updated>2011-10-03T15:31:53Z</updated><link rel="alternate" href="http://www.forbes.com/sites/toddwoody/2011/10/03/guest-post-richard-branson-on-exploring-the-final-frontier/" type="text/html"/><summary xml:base="http://startups.alltop.com/" type="html">This guest post was written by Richard Branson about Virgin Oceanic’s mission to explore the oceans’ deepest reaches.</summary><author gr:unknown-author="true"><name>(author unknown)</name></author><source gr:stream-id="feed/http://startups.alltop.com/rss/"><id>tag:google.com,2005:reader/feed/http://startups.alltop.com/rss/</id><title type="html">Alltop RSS</title><link rel="alternate" href="http://startups.alltop.com" type="text/html"/></source></entry><entry gr:crawl-timestamp-msec="1317655891511"><id gr:original-id="http://feedproxy.google.com/%7Er/bestvendor/%7E3/3W6mLvRijb8/">tag:google.com,2005:reader/item/3a88b4ff503a93dc</id><title type="html">10 Top Content Marketing Tips for Your Startup</title><published>2011-10-03T15:31:31Z</published><updated>2011-10-03T15:31:31Z</updated><link rel="alternate" href="http://feedproxy.google.com/%7Er/bestvendor/%7E3/3W6mLvRijb8/" type="text/html"/><summary xml:base="http://startups.alltop.com/" type="html">These days every new entrepreneur understands that an innovative product or service is necessary, but not sufficient, to start a business. You have to build a web presence with marketing content to get visibility above the 50 million other new websites created every year, and attract the customers you need. But most entrepreneurs don’t know</summary><author gr:unknown-author="true"><name>(author unknown)</name></author><source gr:stream-id="feed/http://startups.alltop.com/rss/"><id>tag:google.com,2005:reader/feed/http://startups.alltop.com/rss/</id><title type="html">Alltop RSS</title><link rel="alternate" href="http://startups.alltop.com" type="text/html"/></source></entry><entry gr:crawl-timestamp-msec="1317655865851"><id gr:original-id="http://www.bothsidesofthetable.com/?p=5233">tag:google.com,2005:reader/item/11f31dbc2921fe21</id><category term="Startup Advice"/><title type="html">Why Aren’t There More Female Entrepreneurs?</title><published>2011-10-03T15:27:51Z</published><updated>2011-10-03T15:27:51Z</updated><link rel="alternate" href="http://feedproxy.google.com/~r/BothSidesOfTheTable/~3/Vk92FJ103jw/" type="text/html"/><content xml:base="http://www.bothsidesofthetable.com/" type="html">&lt;p&gt;&lt;/p&gt;&lt;p&gt;I’m often asked the question about why there aren’t more women who are entrepreneurs. On my blog I’ve been hesitant to take the topic head on. Somehow it seems kind of strange for a man to answer this question that obviously comes from a man’s point of view.&lt;/p&gt;
&lt;p style="text-align:left"&gt;&lt;a href="http://www.bothsidesofthetable.com/2011/10/03/why-arent-there-more-women-entrepreneurs/young-entrepreneurs/" rel="attachment wp-att-5234"&gt;&lt;img title="young entrepreneurs" src="http://bothsides.wpengine.netdna-cdn.com/wp-content/uploads/2011/10/young-entrepreneurs.jpg" alt="" width="473" height="316"&gt;&lt;/a&gt;But last week I noticed a blog post by a woman, Tara Tiger Brown, that asked the question, “&lt;a href="http://tarathetiger.com/2011/09/29/truth-with-tiger-why-arent-more-women-commenting-on-vcs-blog-posts/"&gt;Why Aren’t More Women Commenting on VC Blog Posts?&lt;/a&gt;” [it&amp;#39;s short, you should read it] . In it she observes that only 3% of the comments on this blog are from women. I would love to see Tara follow up with blog posts on: why she believes this is the case &amp;amp; what we can do about it.&lt;/p&gt;
&lt;p&gt;The truth is I have been thinking a lot about the topic, I just haven’t been writing about it. And when asked about the topic, I definitely don’t shy away from the topic as you can see in this &lt;a href="http://www.youtube.com/watch?v=CP5TZxxjnzM"&gt;8-minute YouTube interview that Pemo Theodore asked me to do on the subject of Women in Entrepreneurship&lt;/a&gt;.&lt;/p&gt;
&lt;p&gt;She also does &lt;a href="http://www.youtube.com/user/pemotheodore"&gt;a WONDERFUL 9-minute collage of the best-and-brightest in our industry talking about the topic&lt;/a&gt;. Please watch this. She has a quote from literally every major VC from whom you’d want to hear. Every single one. And many of the best women founders.&lt;/p&gt;
&lt;p&gt;My inspiration to become an entrepreneur came from my mom, not my dad. She was the dominant figure in my family and was both an entrepreneur and a community leader. She opened a bakery and a restaurant. She was president of the UJA (United Jewish Appeal). She bought our first computer – an IBM XT with a 10MB  hard drive – in order to do her books electronically. It’s how I learned to build spreadsheets. She encouraged me to get a job when I was 14. She encouraged me to take acting classes as a child, which gave me confidence as a public speaker.&lt;/p&gt;
&lt;p&gt;I love my dad equally, of course. But he was a doctor and a long-distance runner and cared little about business.&lt;/p&gt;
&lt;p&gt;So the role is a strong woman leader has always been a comfortable idea for me.&lt;/p&gt;
&lt;p&gt;Even more interesting is that at &lt;a href="http://www.%20grppartners.com"&gt;GRP Partners&lt;/a&gt; (the VC firm where I’m a partner) our two most successful returns from our previous fund [which is ranked as the top performing fund in the country for its 2000 vintage according to Prequin] were both run by women!&lt;/p&gt;
&lt;p&gt;But then the truth sets in. My guess is that probably only 2-3 out of every hundred pitches I receive are from women. This certainly isn’t anything conscious on my side. It’s just the facts.&lt;/p&gt;
&lt;p&gt;I’ve tried to ask some strong women whose opinions I greatly respect what can be done about it as a way to get to answers without my having to weigh in directly. That’s the basis of&lt;a href="http://www.bothsidesofthetable.com/2011/04/16/heres-what-gotham-gal-has-to-say-about-sales-entrepreneurship-and-women/"&gt; this awesome discussion with Joanne Wilson, aka “the Gotham Gal.”&lt;/a&gt; But given her background as a successful salesperson and entrepreneur I didn’t want to make the whole discussion about women.&lt;/p&gt;
&lt;p&gt;The thought that I keep returning to in my head is that the future is likely to be much better for female entrepreneurs than that past has been. At least that’s my hope. We need to start encouraging it in our youth. In colleges. In recent grads.&lt;/p&gt;
&lt;p&gt;The genesis of my thinking came from my discussion with Joanne. She noted that in our generation everybody wanted to be a lawyer. Perhaps it’s because everybody used to watch LA Law. But this coming generation is much more likely to be inspired by The Social Network and want to be entrepreneurs.&lt;/p&gt;
&lt;p&gt;The environmental factors are likely to have an even bigger positive impact than just the inspiring movie.&lt;/p&gt;
&lt;p&gt;In my post on &lt;a href="http://www.bothsidesofthetable.com/2011/06/30/the-coming-brick-wall-in-venture-capital-why-this-is-good-for-us-innovation/"&gt;what has changed the venture capital industry more than any other factor &lt;/a&gt;I talked about Amazon.com’s role. AWS helped lower the cost of starting a company by 90%.&lt;/p&gt;
&lt;p&gt;When I started my first company at 31 year’s old I had to raise at least $5 million. The infrastructure alone cost $2.5 million to launch a SaaS software company and we took $2.5 million in costs over 18 months to launch our products. On AWS and with open source you can achieve amazing results for $500k. Heck, you can launch your company if you’re a developer for $50,000.&lt;/p&gt;
&lt;p&gt;And I believe these price points are pushing entrepreneurs to start at a much younger age. I plan to write about this phenomenon soon. But think about it – if you only need to risk $250,000 as an investor (or $50,000 across 5 people) to get an entrepreneur started then why wouldn’t you back younger teams [in addition to more experienced ones.]&lt;/p&gt;
&lt;p&gt;So I’m increasingly seeing entrepreneurs getting funded at 22. At 20. Even at 18. The latest entrepreneur who has been pitching me, &lt;a href="http://twitter.com/#!/shahedkhan30"&gt;Shahed Khan&lt;/a&gt;, is only 16! And truthfully he’s pretty impressive.&lt;/p&gt;
&lt;p&gt;Ane more groups are focused on furthering this cause. You have “&lt;a href="http://teensintech.com/about/"&gt;Teens in Tech&lt;/a&gt;” founded by &lt;a href="http://twitter.com/#!/danielbru"&gt;Daniel Brusilovky&lt;/a&gt;. You have &lt;a href="http://www.crunchbase.com/person/cory-levy"&gt;the super impressive Cory Levy &lt;/a&gt;who founded the&lt;a href="http://nextgenconf.com/"&gt; NextGen Conferences&lt;/a&gt; (as well as &lt;a href="http://www.whatis1.com/app/"&gt;One, Inc&lt;/a&gt;.)&lt;/p&gt;
&lt;p&gt;Back to women.&lt;/p&gt;
&lt;p&gt;If women can get funded to run startups at 22-25 then they can get well into their experiences as entrepreneurs before having to navigate the tricky years of balancing being a mommy with running a company. If your first chance at being a startup founder coincides with your first child it’s really difficult for either gender. But for women it’s probably even more challenging.&lt;/p&gt;
&lt;p&gt;I speak a lot on college campuses. My crusade has been to correct my biggest mistake as an entrepreneur: That I didn’t start younger. I talk about the minuscule costs of starting a company these days. I talk about &lt;a href="http://www.bothsidesofthetable.com/2009/09/08/are-mbas-necessary-for-start-ups-or-vc/"&gt;the benefits of real world experiences over paying money to get advanced degrees&lt;/a&gt; but I still &lt;a href="http://www.bothsidesofthetable.com/2011/06/01/what-should-we-make-of-peter-thiels-20-under-20-education-program/"&gt;believe fervently in undergraduate educate for most (but not all&lt;/a&gt;).&lt;/p&gt;
&lt;p&gt;&lt;a href="http://www.bothsidesofthetable.com/2011/10/03/why-arent-there-more-women-entrepreneurs/women-as-entrepreneurs/" rel="attachment wp-att-5235"&gt;&lt;img title="women as entrepreneurs" src="http://bothsides.wpengine.netdna-cdn.com/wp-content/uploads/2011/10/women-as-entrepreneurs.jpg" alt="" width="432" height="438"&gt;&lt;/a&gt;And I talk about women. And why starting young isn’t as scary as it once was.&lt;/p&gt;
&lt;p&gt;Peter Thiel started the “20 Under 20″ program to encourage young, talented people to give entrepreneurship a shot. Perhaps somebody will champion a similar initiative to get more young women funded straight out of college to start to reverse the trend and help lead our next generation of innovation.&lt;/p&gt;
&lt;img src="http://feeds.feedburner.com/~r/BothSidesOfTheTable/~4/Vk92FJ103jw" height="1" width="1"&gt;</content><author><name>Mark Suster</name></author><source gr:stream-id="feed/http://www.bothsidesofthetable.com/feed/"><id>tag:google.com,2005:reader/feed/http://www.bothsidesofthetable.com/feed/</id><title type="html">Both Sides of the Table</title><link rel="alternate" href="http://www.bothsidesofthetable.com" type="text/html"/></source></entry><entry gr:crawl-timestamp-msec="1317655860533"><id gr:original-id="{2FD57CF4-EDC8-11E0-9CD6-002128040CF6}">tag:google.com,2005:reader/item/2a602fdc1566f8f9</id><title type="html">Tech Stocks: Yahoo gains on latest speculation; techs down</title><published>2011-10-03T16:51:45Z</published><updated>2011-10-03T16:51:45Z</updated><link rel="alternate" href="http://www.marketwatch.com/news/story.asp?guid=%7B2FD57CF4-EDC8-11E0-9CD6-002128040CF6%7D&amp;siteid=rss&amp;rss=1" type="text/html"/><summary xml:base="http://www.marketwatch.com/" type="html">Alibaba’s Jack Ma says he’s “interested” in acquiring troubled Internet giant.&lt;p&gt;&lt;iframe src="http://feedads.g.doubleclick.net/~ah/f/i8hpomaon0k21n7jujntil2004/468/60?ca=1&amp;amp;fh=90#http%3A%2F%2Fwww.marketwatch.com%2Fnews%2Fstory.asp%3Fguid%3D%257B2FD57CF4-EDC8-11E0-9CD6-002128040CF6%257D%26siteid%3Drss%26rss%3D1" width="100%" height="90" frameborder="0" scrolling="no" marginwidth="0" marginheight="0"&gt;&lt;/iframe&gt;&lt;/p&gt;&lt;div&gt;
&lt;a href="http://feeds.marketwatch.com/~ff/marketwatch/topstories?a=nfCg5I2ZtXs:2PFoxa5iJNk:yIl2AUoC8zA"&gt;&lt;img src="http://feeds.feedburner.com/~ff/marketwatch/topstories?d=yIl2AUoC8zA" border="0"&gt;&lt;/a&gt; &lt;a href="http://feeds.marketwatch.com/~ff/marketwatch/topstories?a=nfCg5I2ZtXs:2PFoxa5iJNk:F7zBnMyn0Lo"&gt;&lt;img src="http://feeds.feedburner.com/~ff/marketwatch/topstories?i=nfCg5I2ZtXs:2PFoxa5iJNk:F7zBnMyn0Lo" border="0"&gt;&lt;/a&gt; &lt;a href="http://feeds.marketwatch.com/~ff/marketwatch/topstories?a=nfCg5I2ZtXs:2PFoxa5iJNk:V_sGLiPBpWU"&gt;&lt;img src="http://feeds.feedburner.com/~ff/marketwatch/topstories?i=nfCg5I2ZtXs:2PFoxa5iJNk:V_sGLiPBpWU" border="0"&gt;&lt;/a&gt; &lt;a href="http://feeds.marketwatch.com/~ff/marketwatch/topstories?a=nfCg5I2ZtXs:2PFoxa5iJNk:qj6IDK7rITs"&gt;&lt;img src="http://feeds.feedburner.com/~ff/marketwatch/topstories?d=qj6IDK7rITs" border="0"&gt;&lt;/a&gt;
&lt;/div&gt;&lt;img src="http://feeds.feedburner.com/~r/marketwatch/topstories/~4/nfCg5I2ZtXs" height="1" width="1"&gt;</summary><author gr:unknown-author="true"><name>(author unknown)</name></author><source gr:stream-id="feed/http://www.marketwatch.com/rss/topstories"><id>tag:google.com,2005:reader/feed/http://www.marketwatch.com/rss/topstories</id><title type="html">MarketWatch.com - Top Stories</title><link rel="alternate" href="http://www.marketwatch.com/" type="text/html"/></source></entry><entry gr:crawl-timestamp-msec="1317652268029"><id gr:original-id="http://www.readwriteweb.com/archives/spotify_usage_grows_facebook_integration.php">tag:google.com,2005:reader/item/418a630f7db6285f</id><category term="Music"/><title type="html">Thanks to Facebook, Spotify's Usage is Skyrocketing</title><published>2011-10-03T15:20:46Z</published><updated>2011-10-03T15:20:46Z</updated><link rel="alternate" href="http://feedproxy.google.com/~r/readwriteweb/~3/Wb79NA0DHck/spotify_usage_grows_facebook_integration.php" type="text/html"/><summary xml:base="http://www.readwriteweb.com/" type="html">&lt;p&gt;&lt;img src="http://rww.readwriteweb.netdna-cdn.com/spotify-mobile-icon.png" width="160"&gt;Not even two weeks in, &lt;a href="http://www.readwriteweb.com/archives/what_spotifys_new_facebook_integration_looks_like.php"&gt;Spotify's integration with Facebook&lt;/a&gt; already appears to be paying off in terms of application usage.  The streaming service's Facebook app has seen a 55% rise in usage since Spotify CEO Daniel Ek announced the new integration at the f8 conference on September 22. &lt;/p&gt;

&lt;p&gt;This growth comes despite &lt;a href="http://www.readwriteweb.com/archives/facebook_and_music_streaming_sites_too_close_for_c.php"&gt;a recent outcry among some users&lt;/a&gt;, who object to Spotify's new policy of requiring people to sign up using their Facebook accounts.&lt;/p&gt;
&lt;p align="right"&gt;&lt;em&gt;Sponsor&lt;/em&gt;&lt;br&gt;&lt;a href="http://d.ads.readwriteweb.com/ck.php?n=29325&amp;amp;cb=29325"&gt;&lt;img src="http://d.ads.readwriteweb.com/avw.php?zoneid=14&amp;amp;cb=29325&amp;amp;n=29325" border="0" alt=""&gt;&lt;/a&gt;&lt;/p&gt;

&lt;p&gt;Since rolling out their deep integration with the social networking giant, Spotify has &lt;a href="http://evolver.fm/2011/09/30/spotify-usage-explodes-the-social-network-effect/"&gt;seen monthly active users of its Facebook application rise&lt;/a&gt; from 3.4 million to 5.3 million, according to new metrics from &lt;a href="http://www.appdata.com/apps/facebook/174829003346-spotify"&gt;AppData&lt;/a&gt;.  It's worth noting that these numbers don't refer to overall Spotify sign-ups, but rather users who are using the service's official Facebook application.  The company has yet to divulge how many new sign-ups they've seen since peeling back the "closed beta" label and launching its Facebook integration last month. &lt;/p&gt;

&lt;p&gt;This type of growth is exactly why Spotify and similar services have signed on with Facebook. The site's 800 million-strong user base is unmatched in the social networking space. Meanwhile, services like Spotify, MOG and Rdio have built impressive music libraries, something Facebook is not interested in trying to replicate. Instead, these partnerships allow both parties to do what they do best while piggybacking off each other's strengths. &lt;/p&gt;

&lt;p&gt;These new content partnerships have not been without controversy.  In addition to complaints over Spotify requiring a Facebook account to sign up, some have expressed concerns about the privacy implications of the &lt;a href="http://www.readwriteweb.com/archives/frictionless_sharing_pros_cons.php"&gt;frictionless sharing&lt;/a&gt; that Facebook is now encouraging. &lt;/p&gt;

&lt;p&gt;Even so, it would appear that despite these concerns, Spotify is indeed benefiting from being baked so thoroughly into the Facebook experience, at least for the time being. &lt;/p&gt;

&lt;p&gt;&lt;img alt="spotify-usage.png" src="http://www.readwriteweb.com/spotify-usage.png" width="519" height="334" style="text-align:center;display:block;margin:0 auto 20px"&gt;&lt;br&gt;
&lt;/p&gt;
&lt;strong&gt;&lt;a href="http://www.readwriteweb.com/archives/spotify_usage_grows_facebook_integration.php#comments-open"&gt;Discuss&lt;/a&gt;&lt;/strong&gt;&lt;p&gt;&lt;iframe src="http://feedads.g.doubleclick.net/~ah/f/bh8m03d07dnj95a0qa1ma5k32c/300/250?ca=1&amp;amp;fh=280#http%3A%2F%2Fwww.readwriteweb.com%2Farchives%2Fspotify_usage_grows_facebook_integration.php" width="100%" height="280" frameborder="0" scrolling="no" marginwidth="0" marginheight="0"&gt;&lt;/iframe&gt;&lt;/p&gt;&lt;div&gt;
&lt;a href="http://feeds.feedburner.com/~ff/readwriteweb?a=Wb79NA0DHck:IwtGHrWcKsg:qj6IDK7rITs"&gt;&lt;img src="http://feeds.feedburner.com/~ff/readwriteweb?d=qj6IDK7rITs" border="0"&gt;&lt;/a&gt; &lt;a href="http://feeds.feedburner.com/~ff/readwriteweb?a=Wb79NA0DHck:IwtGHrWcKsg:gIN9vFwOqvQ"&gt;&lt;img src="http://feeds.feedburner.com/~ff/readwriteweb?i=Wb79NA0DHck:IwtGHrWcKsg:gIN9vFwOqvQ" border="0"&gt;&lt;/a&gt; &lt;a href="http://feeds.feedburner.com/~ff/readwriteweb?a=Wb79NA0DHck:IwtGHrWcKsg:yIl2AUoC8zA"&gt;&lt;img src="http://feeds.feedburner.com/~ff/readwriteweb?d=yIl2AUoC8zA" border="0"&gt;&lt;/a&gt; &lt;a href="http://feeds.feedburner.com/~ff/readwriteweb?a=Wb79NA0DHck:IwtGHrWcKsg:Ij26kaj3iuU"&gt;&lt;img src="http://feeds.feedburner.com/~ff/readwriteweb?d=Ij26kaj3iuU" border="0"&gt;&lt;/a&gt; &lt;a href="http://feeds.feedburner.com/~ff/readwriteweb?a=Wb79NA0DHck:IwtGHrWcKsg:C2pbw5bZMiI"&gt;&lt;img src="http://feeds.feedburner.com/~ff/readwriteweb?d=C2pbw5bZMiI" border="0"&gt;&lt;/a&gt; &lt;a href="http://feeds.feedburner.com/~ff/readwriteweb?a=Wb79NA0DHck:IwtGHrWcKsg:HaYztYP2wyo"&gt;&lt;img src="http://feeds.feedburner.com/~ff/readwriteweb?d=HaYztYP2wyo" border="0"&gt;&lt;/a&gt; &lt;a href="http://feeds.feedburner.com/~ff/readwriteweb?a=Wb79NA0DHck:IwtGHrWcKsg:fvyXWMd9xfE"&gt;&lt;img src="http://feeds.feedburner.com/~ff/readwriteweb?d=fvyXWMd9xfE" border="0"&gt;&lt;/a&gt; &lt;a href="http://feeds.feedburner.com/~ff/readwriteweb?a=Wb79NA0DHck:IwtGHrWcKsg:OqabYuBsmOY"&gt;&lt;img src="http://feeds.feedburner.com/~ff/readwriteweb?d=OqabYuBsmOY" border="0"&gt;&lt;/a&gt;
&lt;/div&gt;&lt;img src="http://feeds.feedburner.com/~r/readwriteweb/~4/Wb79NA0DHck" height="1" width="1"&gt;</summary><author><name>John Paul Titlow</name></author><gr:likingUser>05701124053674291045</gr:likingUser><gr:likingUser>03043057124833535901</gr:likingUser><source gr:stream-id="feed/http://www.readwriteweb.com/rss.xml"><id>tag:google.com,2005:reader/feed/http://www.readwriteweb.com/rss.xml</id><title type="html">ReadWriteWeb</title><link rel="alternate" href="http://www.readwriteweb.com/" type="text/html"/></source></entry><entry gr:crawl-timestamp-msec="1317652140543"><id gr:original-id="Gizmodo-5846037">tag:google.com,2005:reader/item/e1d5041ac45c2b2e</id><category term="Booze"/><category term="Health"/><category term="Medicine"/><category term="Pills"/><category term="Science"/><category term="sobriety"/><category term="Stay-sober pills"/><title type="html">Scientists Creating a &amp;quot;Stay-Sober Pill&amp;quot;: Fingers Crossed Nobody Dies [Booze]</title><published>2011-10-03T14:18:07Z</published><updated>2011-10-03T14:18:07Z</updated><link rel="alternate" href="http://feeds.gawker.com/~r/gizmodo/full/~3/WMHUqw_a8yo/scientists-creating-a-stay+sober-pill-fingers-crossed-nobody-dies" type="text/html"/><summary xml:base="http://gizmodo.com/" type="html">&lt;div style="float:left;padding-right:10px"&gt;
										
					&lt;div&gt;&lt;a title="Click here to read Scientists Creating a &amp;amp;quot;Stay-Sober Pill&amp;amp;quot;: Fingers Crossed Nobody Dies" href="http://gizmodo.com/5846037/scientists-creating-a-stay+sober-pill-fingers-crossed-nobody-dies"&gt;
						&lt;img style="border-color:#B3B3B3;border-width:0 1px 1px;border-style:none solid solid" height="120" width="190" title="Click here to read Scientists Creating a &amp;amp;quot;Stay-Sober Pill&amp;amp;quot;: Fingers Crossed Nobody Dies" alt="Click here to read Scientists Creating a &amp;amp;quot;Stay-Sober Pill&amp;amp;quot;: Fingers Crossed Nobody Dies" src="http://cache.gizmodo.com/assets/images/4/2011/10/small_boozepills.jpg"&gt;
											&lt;/a&gt;&lt;/div&gt;
									&lt;/div&gt;
				Scientists are hard at work creating a pill that will let you drink a whole lot of booze but limit the alcohol's effect on the brain. That sounds great, right? Wrong. It's a terrible, deadly idea.				&lt;a href="http://gizmodo.com/5846037/scientists-creating-a-stay+sober-pill-fingers-crossed-nobody-dies" title="Click here to read more about Scientists Creating a &amp;quot;Stay-Sober Pill&amp;quot;: Fingers Crossed Nobody Dies [Booze]"&gt;More »&lt;/a&gt;
				&lt;br style="clear:both"&gt;
			&lt;br style="clear:both"&gt;
&lt;br style="clear:both"&gt;
&lt;a href="http://ads.pheedo.com/click.phdo?s=89f79db8da7cfb13bf34184f8d12e6d8&amp;amp;p=1"&gt;&lt;img alt="" style="border:0" border="0" src="http://ads.pheedo.com/img.phdo?s=89f79db8da7cfb13bf34184f8d12e6d8&amp;amp;p=1"&gt;&lt;/a&gt;
&lt;img alt="" height="0" width="0" border="0" src="http://segment-pixel.invitemedia.com/pixel?code=TechCons&amp;amp;partnerID=167&amp;amp;key=segment"&gt;&lt;img alt="" height="0" width="0" border="0" src="http://pixel.quantserve.com/pixel/p-8bUhLiluj0fAw.gif?labels=pub.28252.rss.TechCons.5726,cat.TechCons.rss"&gt;&lt;img alt="" height="0" width="0" border="0" src="http://amch.questionmarket.com/adsc/d887846/17/909940/adscout.php"&gt;&lt;div&gt;
&lt;a href="http://feeds.gawker.com/~ff/gizmodo/full?a=WMHUqw_a8yo:QDZi556-ZsM:H0mrP-F8Qgo"&gt;&lt;img src="http://feeds.feedburner.com/~ff/gizmodo/full?d=H0mrP-F8Qgo" border="0"&gt;&lt;/a&gt; &lt;a href="http://feeds.gawker.com/~ff/gizmodo/full?a=WMHUqw_a8yo:QDZi556-ZsM:yIl2AUoC8zA"&gt;&lt;img src="http://feeds.feedburner.com/~ff/gizmodo/full?d=yIl2AUoC8zA" border="0"&gt;&lt;/a&gt; &lt;a href="http://feeds.gawker.com/~ff/gizmodo/full?a=WMHUqw_a8yo:QDZi556-ZsM:D7DqB2pKExk"&gt;&lt;img src="http://feeds.feedburner.com/~ff/gizmodo/full?i=WMHUqw_a8yo:QDZi556-ZsM:D7DqB2pKExk" border="0"&gt;&lt;/a&gt; &lt;a href="http://feeds.gawker.com/~ff/gizmodo/full?a=WMHUqw_a8yo:QDZi556-ZsM:V_sGLiPBpWU"&gt;&lt;img src="http://feeds.feedburner.com/~ff/gizmodo/full?i=WMHUqw_a8yo:QDZi556-ZsM:V_sGLiPBpWU" border="0"&gt;&lt;/a&gt;
&lt;/div&gt;&lt;img src="http://feeds.feedburner.com/~r/gizmodo/full/~4/WMHUqw_a8yo" height="1" width="1"&gt;</summary><author><name>Brent Rose</name></author><gr:likingUser>01139409666286218998</gr:likingUser><gr:likingUser>06734794180786167740</gr:likingUser><gr:likingUser>05835445208988125969</gr:likingUser><gr:likingUser>01962852225950326950</gr:likingUser><gr:likingUser>00096786517110636409</gr:likingUser><gr:likingUser>05705520698654222805</gr:likingUser><source gr:stream-id="feed/http://gizmodo.com/index.xml"><id>tag:google.com,2005:reader/feed/http://gizmodo.com/index.xml</id><title type="html">Gizmodo</title><link rel="alternate" href="http://gizmodo.com" type="text/html"/></source></entry><entry gr:crawl-timestamp-msec="1317366188088"><id gr:original-id="http://feedproxy.google.com/%7Er/Mashable/%7E3/t-oDb-1we2o/">tag:google.com,2005:reader/item/1fd0125054977dae</id><title type="html">7 Common Questions About Startup Employee Stock Options</title><published>2011-09-30T07:03:08Z</published><updated>2011-09-30T07:03:08Z</updated><link rel="alternate" href="http://feedproxy.google.com/%7Er/Mashable/%7E3/t-oDb-1we2o/" type="text/html"/><summary xml:base="http://social-media.alltop.com/" type="html">&lt;a href="http://www.stumbleupon.com/submit?text=sdasdasd&amp;amp;url=http://mashable.com/2011/09/30/startup-stock-options/"&gt;&lt;/a&gt;
&lt;a href="http://digg.com/tools/diggthis/login?url=http://mashable.com/2011/09/30/startup-stock-options/&amp;amp;title=7%20Common%20Questions%20About%20Startup%20Employee%20Stock%20Options&amp;amp;related=true&amp;amp;style=true"&gt;&lt;/a&gt;
&lt;a name="fb_share" href="http://www.facebook.com/sharer.php?u=http://mashable.com/2011/09/30/startup-stock-options/&amp;amp;src=sp"&gt;&lt;/a&gt;
&lt;a href="http://api.tweetmeme.com/share?url=http://mashable.com/2011/09/30/startup-stock-options/&amp;amp;service=bit.ly&amp;amp;source=mashable"&gt;&lt;/a&gt;&lt;em&gt;&lt;/em&gt;
Perhaps you’ve heard about the &lt;a href="http://www.dailymail.co.uk/news/article-493333/Part-time-Google-masseuse-retires-multimillionaire-share-price-boom.html"&gt;Google millionaires&lt;/a&gt;: 1,000 of the company’s early employees (including the company masseuse) who earned thei…</summary><author gr:unknown-author="true"><name>(author unknown)</name></author><source gr:stream-id="feed/http://social-media.alltop.com/rss/"><id>tag:google.com,2005:reader/feed/http://social-media.alltop.com/rss/</id><title type="html">Alltop RSS</title><link rel="alternate" href="http://social-media.alltop.com" type="text/html"/></source></entry><entry gr:crawl-timestamp-msec="1317366156654"><id gr:original-id="http://feedproxy.google.com/%7Er/skmurphy/feed/%7E3/L8tNuKfqlQs/">tag:google.com,2005:reader/item/73710222db72fa67</id><title type="html">Entrepreneurs Are Noncomformists</title><published>2011-09-30T07:02:36Z</published><updated>2011-09-30T07:02:36Z</updated><link rel="alternate" href="http://feedproxy.google.com/%7Er/skmurphy/feed/%7E3/L8tNuKfqlQs/" type="text/html"/><summary xml:base="http://startups.alltop.com/" type="html">“In high school, popularity is more important than anywhere else, but  popularity is not a measure of likability.
Popularity is composed of  three elements: visibility, recognizability and influence.
The people in  school who have those three qualities are often that way because they  conform to a standard. Meanwhile, the kids who won’t or [...]</summary><author gr:unknown-author="true"><name>(author unknown)</name></author><source gr:stream-id="feed/http://startups.alltop.com/rss/"><id>tag:google.com,2005:reader/feed/http://startups.alltop.com/rss/</id><title type="html">Alltop RSS</title><link rel="alternate" href="http://startups.alltop.com" type="text/html"/></source></entry><entry gr:crawl-timestamp-msec="1317366139609"><id gr:original-id="http://visionwiz.net/2011/09/now-rate-your-friends-on-their-personal-characteristics-via-tozoy/">tag:google.com,2005:reader/item/e4536ea889a0e4a6</id><title type="html">Now Rate Your Friends According To Their Personal Characteristics Via Tozoy</title><published>2011-09-30T07:02:19Z</published><updated>2011-09-30T07:02:19Z</updated><link rel="alternate" href="http://visionwiz.net/2011/09/now-rate-your-friends-on-their-personal-characteristics-via-tozoy/" type="text/html"/><summary xml:base="http://startups.alltop.com/" type="html">Now Rate Your Friends According To Their Personal Characteristics Via Tozoy 
We have seen all sorts of rating sites for products,services,games etc. But, any of you have  ever used any friends rating sites?A site where you can rate your friends,hug him ,slap him or kiss him.
No? Then check out this new site (Tozoy).
 What [...]</summary><author gr:unknown-author="true"><name>(author unknown)</name></author><source gr:stream-id="feed/http://startups.alltop.com/rss/"><id>tag:google.com,2005:reader/feed/http://startups.alltop.com/rss/</id><title type="html">Alltop RSS</title><link rel="alternate" href="http://startups.alltop.com" type="text/html"/></source></entry><entry gr:crawl-timestamp-msec="1317333190048"><id gr:original-id="http://feedproxy.google.com/%7Er/SimplyZesty/%7E3/zzsXkKMIKLI/">tag:google.com,2005:reader/item/252dbbccc81d91d9</id><title type="html">The Coolest Festival Experience Ever – Introducing Body Music</title><published>2011-09-29T21:53:10Z</published><updated>2011-09-29T21:53:10Z</updated><link rel="alternate" href="http://feedproxy.google.com/%7Er/SimplyZesty/%7E3/zzsXkKMIKLI/" type="text/html"/><summary xml:base="http://social-media.alltop.com/" type="html">We've seen promotions at music festivals come in all shapes and sizes but none more creative than this example created by Virgin media that allowed you to create your own music using nothing other than your own body...</summary><author gr:unknown-author="true"><name>(author unknown)</name></author><source gr:stream-id="feed/http://social-media.alltop.com/rss/"><id>tag:google.com,2005:reader/feed/http://social-media.alltop.com/rss/</id><title type="html">Alltop RSS</title><link rel="alternate" href="http://social-media.alltop.com" type="text/html"/></source></entry><entry gr:crawl-timestamp-msec="1317333140510"><id gr:original-id="http://feedproxy.google.com/%7Er/BlogWorldBlog/%7E3/YidZUwWMXKQ/">tag:google.com,2005:reader/item/882af4bd048e9c47</id><title type="html">44 Brilliant Bloggers Talk About Finding Post Ideas</title><published>2011-09-29T21:52:20Z</published><updated>2011-09-29T21:52:20Z</updated><link rel="alternate" href="http://feedproxy.google.com/%7Er/BlogWorldBlog/%7E3/YidZUwWMXKQ/" type="text/html"/><summary xml:base="http://social-media.alltop.com/" type="html">Brilliant Bloggers is a weekly series here at BlogWorld where we look at the best posts from around the web all surrounding a specific topic. Every week, we’ll feature three of the most brilliant bloggers out there, along with a huge list of more resources where you can learn about the topic. You can see ...&lt;a href="http://www.blogworld.com/2011/09/29/44-brilliant-bloggers-talk-about-finding-post-ideas/"&gt; [Read more]&lt;/a&gt;</summary><author gr:unknown-author="true"><name>(author unknown)</name></author><source gr:stream-id="feed/http://social-media.alltop.com/rss/"><id>tag:google.com,2005:reader/feed/http://social-media.alltop.com/rss/</id><title type="html">Alltop RSS</title><link rel="alternate" href="http://social-media.alltop.com" type="text/html"/></source></entry><entry gr:crawl-timestamp-msec="1317333085900"><id gr:original-id="Gizmodo-5845229">tag:google.com,2005:reader/item/0f1e50a12719d913</id><category term="Drugs"/><category term="Bitcoin"/><category term="Cocaine"/><category term="PayPal"/><category term="Square"/><category term="Venmo"/><category term="virtual currency"/><category term="weed"/><title type="html">Is Digital Money the New Way to Buy Drugs? [Drugs]</title><published>2011-09-29T21:23:51Z</published><updated>2011-09-29T21:23:51Z</updated><link rel="alternate" href="http://feeds.gawker.com/~r/gizmodo/full/~3/QsZl-Xc32RA/is-digital-money-the-new-way-to-buy-drugs" type="text/html"/><summary xml:base="http://gizmodo.com/" type="html">&lt;div style="float:left;padding-right:10px"&gt;
										
					&lt;div&gt;&lt;a title="Click here to read Is Digital Money the New Way to Buy Drugs?" href="http://gizmodo.com/5845229/is-digital-money-the-new-way-to-buy-drugs"&gt;
						&lt;img style="border-color:#B3B3B3;border-width:0 1px 1px;border-style:none solid solid" height="120" width="190" title="Click here to read Is Digital Money the New Way to Buy Drugs?" alt="Click here to read Is Digital Money the New Way to Buy Drugs?" src="http://cache.gizmodo.com/assets/images/4/2011/09/small_amazonkindles_01.jpg"&gt;
											&lt;/a&gt;&lt;/div&gt;
									&lt;/div&gt;
				I'm not gonna name names, but someone just mentioned paying for weed with a Square account. It'd be equally easy to use Paypal, Venmo, Bitcoin (RIP) or any of the myriad mobile payment systems that allow you to send money from your phone.				&lt;a href="http://gizmodo.com/5845229/is-digital-money-the-new-way-to-buy-drugs" title="Click here to read more about Is Digital Money the New Way to Buy Drugs? [Drugs]"&gt;More »&lt;/a&gt;
				&lt;br style="clear:both"&gt;
			&lt;br style="clear:both"&gt;
&lt;br style="clear:both"&gt;
&lt;a href="http://ads.pheedo.com/click.phdo?s=15b8fddae0bf00f557b3b92b7aad402a&amp;amp;p=1"&gt;&lt;img alt="" style="border:0" border="0" src="http://ads.pheedo.com/img.phdo?s=15b8fddae0bf00f557b3b92b7aad402a&amp;amp;p=1"&gt;&lt;/a&gt;
&lt;img alt="" height="0" width="0" border="0" src="http://segment-pixel.invitemedia.com/pixel?code=TechCons&amp;amp;partnerID=167&amp;amp;key=segment"&gt;&lt;img alt="" height="0" width="0" border="0" src="http://pixel.quantserve.com/pixel/p-8bUhLiluj0fAw.gif?labels=pub.28252.rss.TechCons.5726,cat.TechCons.rss"&gt;&lt;img alt="" height="0" width="0" border="0" src="http://amch.questionmarket.com/adsc/d887846/17/909940/adscout.php"&gt;&lt;div&gt;
&lt;a href="http://feeds.gawker.com/~ff/gizmodo/full?a=QsZl-Xc32RA:rSILyisR7ks:H0mrP-F8Qgo"&gt;&lt;img src="http://feeds.feedburner.com/~ff/gizmodo/full?d=H0mrP-F8Qgo" border="0"&gt;&lt;/a&gt; &lt;a href="http://feeds.gawker.com/~ff/gizmodo/full?a=QsZl-Xc32RA:rSILyisR7ks:yIl2AUoC8zA"&gt;&lt;img src="http://feeds.feedburner.com/~ff/gizmodo/full?d=yIl2AUoC8zA" border="0"&gt;&lt;/a&gt; &lt;a href="http://feeds.gawker.com/~ff/gizmodo/full?a=QsZl-Xc32RA:rSILyisR7ks:D7DqB2pKExk"&gt;&lt;img src="http://feeds.feedburner.com/~ff/gizmodo/full?i=QsZl-Xc32RA:rSILyisR7ks:D7DqB2pKExk" border="0"&gt;&lt;/a&gt; &lt;a href="http://feeds.gawker.com/~ff/gizmodo/full?a=QsZl-Xc32RA:rSILyisR7ks:V_sGLiPBpWU"&gt;&lt;img src="http://feeds.feedburner.com/~ff/gizmodo/full?i=QsZl-Xc32RA:rSILyisR7ks:V_sGLiPBpWU" border="0"&gt;&lt;/a&gt;
&lt;/div&gt;&lt;img src="http://feeds.feedburner.com/~r/gizmodo/full/~4/QsZl-Xc32RA" height="1" width="1"&gt;</summary><author><name>Joe Brown</name></author><gr:likingUser>01000470083068386288</gr:likingUser><gr:likingUser>10116738665719395231</gr:likingUser><source gr:stream-id="feed/http://gizmodo.com/index.xml"><id>tag:google.com,2005:reader/feed/http://gizmodo.com/index.xml</id><title type="html">Gizmodo</title><link rel="alternate" href="http://gizmodo.com" type="text/html"/></source></entry><entry gr:crawl-timestamp-msec="1317324325085"><id gr:original-id="http://campusentrepreneurship.wordpress.com/2011/09/29/charles-schwab-simple-but-true-message-every-job-requires-an-entrepreneur/">tag:google.com,2005:reader/item/84563d1031426bda</id><title type="html">Charles Schwab Simple But True Message: Every Job Requires an Entrepreneur -</title><published>2011-09-29T19:25:25Z</published><updated>2011-09-29T19:25:25Z</updated><link rel="alternate" href="http://campusentrepreneurship.wordpress.com/2011/09/29/charles-schwab-simple-but-true-message-every-job-requires-an-entrepreneur/" type="text/html"/><summary xml:base="http://startups.alltop.com/" type="html">The simple fact is that every business in America was started by an entrepreneur, whether it is Ford Motor Co., Google or your local dry cleaner. Every single job that entrepreneur creates requires an investment. And at its core, investing … &lt;a href="http://campusentrepreneurship.wordpress.com/2011/09/29/charles-schwab-simple-but-true-message-every-job-requires-an-entrepreneur/"&gt;Continue reading &lt;span&gt;→&lt;/span&gt;&lt;/a&gt;&lt;img alt="" border="0" src="http://stats.wordpress.com/b.gif?host=campusentrepreneurship.wordpress.com&amp;amp;blog=1104673&amp;amp;post=2613&amp;amp;subd=campusentrepreneurship&amp;amp;ref=&amp;amp;feed=1" width="1" height="1"&gt;</summary><author gr:unknown-author="true"><name>(author unknown)</name></author><source gr:stream-id="feed/http://startups.alltop.com/rss/"><id>tag:google.com,2005:reader/feed/http://startups.alltop.com/rss/</id><title type="html">Alltop RSS</title><link rel="alternate" href="http://startups.alltop.com" type="text/html"/></source></entry><entry gr:crawl-timestamp-msec="1317324304295"><id gr:original-id="http://www.growthink.com/content/mike-tysons-words-wisdom">tag:google.com,2005:reader/item/0b00956550401ff9</id><title type="html">Mike Tyson's Words of Wisdom</title><published>2011-09-29T19:25:04Z</published><updated>2011-09-29T19:25:04Z</updated><link rel="alternate" href="http://www.growthink.com/content/mike-tysons-words-wisdom" type="text/html"/><summary xml:base="http://startups.alltop.com/" type="html">&lt;p&gt;&lt;img style="float:right;border:1px solid black;margin:5px" src="http://www.growthink.com/files/resources/Mike-Tyson.jpg" alt="Mike Tyson" width="183" height="273"&gt;Generally I would not use the word &amp;quot;wisdom&amp;quot; and  the name of legendary/infamous boxer &amp;quot;Mike Tyson&amp;quot; in the same sentence,  but in this case I think it&amp;#39;s deserved. Because his quote &amp;quot;everybody&amp;#39;s  got plans... until they get hit&amp;quot; is really important.  &lt;/p&gt;&lt;p&gt;I&amp;#39;m probably stating the obvious, but to make sure we&amp;#39;re all on the same  page, here&amp;#39;s what Tyson means: every boxer has a game plan when he (or  she) goes into the ring. By the time he enters the ring, the boxer has  analyzed his competitor and trained repeatedly in order to attack the  competitor&amp;#39;s weaknesses and protect himself against their strengths.      &lt;/p&gt;&lt;p&gt;But, in the heat of the battle, when you &amp;quot;get hit,&amp;quot; things quickly  change. Your gut instincts trump your well laid plans, and anything  goes.    &lt;/p&gt;&lt;p&gt;Importantly, the same holds true in business. While I strongly support  creating a business plan, things will NEVER go exactly as planned. And  the key to your success is how you react when YOU "get hit."&lt;/p&gt;&lt;p&gt;What will you and your business do when you don't get the funding you  expected? Or when a key employee leaves? Or when your number one  customer goes elsewhere? Or when the economy tanks?&lt;/p&gt;&lt;p&gt;I have found that the entrepreneurs and companies that respond best to  "getting hit" are the ones that employ mission statements.&lt;/p&gt;&lt;p&gt;What are mission statements? Mission statements  explain what your business is trying to achieve. For example:&lt;/p&gt;&lt;ul&gt;&lt;li&gt; Google's mission is to organize the world's information and make it universally accessible and useful. &lt;/li&gt;&lt;br&gt;&lt;li&gt; Kiva's mission is to connect people, through lending, for the sake of alleviating poverty. &lt;/li&gt;&lt;br&gt;&lt;li&gt; And, since 1901, Nordstrom's mission has been to "offer the customer the best possible service, selection, quality and value." &lt;/li&gt;&lt;br&gt;&lt;/ul&gt;&lt;p&gt;Why do mission statements matter? For internal (e.g., employees) and  external (investors, partners, customers) audiences, your mission can  inspire and get them excited to be part of what your company is doing.&lt;/p&gt;&lt;p&gt;And, importantly, for internal decision-making, mission statements help as &lt;strong&gt;key decisions should be made with regards to how well they help your company progress in achieving its mission.&lt;/strong&gt;&lt;/p&gt;&lt;p&gt;So, when your company hits a rut, rather than completely scrambling, you  need to ask yourself what you should be doing to achieve your mission.&lt;/p&gt;&lt;p&gt;Your mission statement keeps you grounded. It helps you make strategic  versus opportunistic decisions. Opportunistic decisions are ones that  may bring in short-term revenues, but often guide you off course (these  opportunities are often the "bright shiny objects" that distract  entrepreneurs). On the other hand, strategic decisions are those that  drive the company closer to achieving its stated mission.&lt;/p&gt;&lt;p&gt;When your company "gets hit," go back to your mission statement. Decide  what has to be done to allow your company to achieve its mission. It is  true when they say there are "many ways to skin a cat" or many different  ways of doing the same thing. So, find new ways to achieve your  mission.&lt;/p&gt;&lt;p&gt;If you can't raise funding, how else could you achieve your mission?  Could you get another company to joint venture with you and provide cash  and other resources?&lt;/p&gt;&lt;p&gt;If a key employee leaves, can you get them to still work on weekends?  Could you find other human resources? Could you outsource parts of their  job to a few others?&lt;/p&gt;&lt;p&gt;If you lose a key customer, can you find other customers? Can you  identify why you lost the customer, and improve your product/service so  you get that customer back along with many more?&lt;/p&gt;&lt;p&gt;If you have your mission statement set, and everyone in your  organization knows it well, then you and your team will constantly make  the right decisions towards achieving your company's goals. And even  when you and your company "get hit," you'll get right back up, and move  forward towards success without skipping a beat.&lt;/p&gt; &lt;p&gt;&lt;a href="http://www.growthink.com/content/mike-tysons-words-wisdom"&gt;read more&lt;/a&gt;&lt;/p&gt;</summary><author gr:unknown-author="true"><name>(author unknown)</name></author><source gr:stream-id="feed/http://startups.alltop.com/rss/"><id>tag:google.com,2005:reader/feed/http://startups.alltop.com/rss/</id><title type="html">Alltop RSS</title><link rel="alternate" href="http://startups.alltop.com" type="text/html"/></source></entry><entry gr:crawl-timestamp-msec="1317266377601"><id gr:original-id="http://mashable.com/?p=748513">tag:google.com,2005:reader/item/2b5d9ea8ff8662e6</id><category term="Uncategorized"/><category term="features"/><category term="open source"/><category term="Social Media"/><category term="software"/><category term="Web Development"/><title type="html">How Open Source Development Is Becoming More Social</title><published>2011-09-29T02:59:17Z</published><updated>2011-09-29T02:59:17Z</updated><link rel="alternate" href="http://feedproxy.google.com/~r/Mashable/~3/7gSuQiKlDT8/" type="text/html"/><content xml:base="http://mashable.com/" type="html">&lt;p&gt;&lt;div&gt;&lt;div style="float:right;margin-bottom:10px"&gt;&lt;a href="http://www.stumbleupon.com/submit?text=sdasdasd&amp;amp;url=http://mashable.com/2011/09/28/open-source-social/"&gt;&lt;img style="border:none;margin-right:5px" src="http://5.mshcdn.com/wp-content/themes/v7/img/share-buttons/stumbleupon.png" align="right"&gt;&lt;/a&gt;
&lt;a href="http://digg.com/tools/diggthis/login?url=http://mashable.com/2011/09/28/open-source-social/&amp;amp;title=How%20Open%20Source%20Development%20Is%20Becoming%20More%20Social&amp;amp;related=true&amp;amp;style=true"&gt;&lt;img style="border:none;margin-right:5px" src="http://6.mshcdn.com/wp-content/themes/v7/img/share-buttons/diggme.png" align="right"&gt;&lt;/a&gt;
&lt;a name="fb_share" href="http://www.facebook.com/sharer.php?u=http://mashable.com/2011/09/28/open-source-social/&amp;amp;src=sp" style="text-decoration:none"&gt;&lt;img style="border:none;margin-right:5px" src="http://6.mshcdn.com/wp-content/themes/v7/img/share-buttons/fb.jpg" align="right"&gt;&lt;/a&gt;
&lt;a href="http://api.tweetmeme.com/share?url=http://mashable.com/2011/09/28/open-source-social/&amp;amp;service=bit.ly&amp;amp;source=mashable"&gt;&lt;img style="border:none;margin-right:5px" width="51" height="61" src="http://api.tweetmeme.com/imagebutton.gif?url=http://mashable.com/2011/09/28/open-source-social/" align="right"&gt;&lt;/a&gt;&lt;/div&gt;&lt;div style="float:left;margin-bottom:10px"&gt;&lt;img src="http://4.mshcdn.com/wp-content/uploads/2011/09/code-360.jpg" alt="" title="social programmers" width="275" height=""&gt;&lt;/div&gt;&lt;div style="clear:both"&gt;&lt;/div&gt;&lt;/div&gt;&lt;br&gt;&lt;em&gt;&lt;span&gt;Tim Yeaton is the President and CEO of &lt;a href="http://www.blackducksoftware.com/"&gt;Black Duck Software&lt;/a&gt;. He has more 30 years experience working in the software community. Contact him at tyeaton@blackducksoftware.com.&lt;/span&gt;&lt;/em&gt;&lt;/p&gt;
&lt;p&gt;Most people do not think of software developers as being high on the “social” scale. In fact, the (misinformed) stereotype for a typical developer is that of the introverted geek. But in many ways, particularly with open source developers, this couldn’t be further from the truth. &lt;/p&gt;
&lt;p&gt;Contributing to &lt;a href="http://mashable.com/follow/topics/open-source/"&gt;open source&lt;/a&gt; software is a profoundly social activity. Some of open source’s main tenets are collaboration, transparency and meritocracy, which require developers to collaborate and share at a highly productive level. And with over 500,000 open source projects on the Internet, there’s a lot of collaboration going on. It’s clear that by participating in open source communities, developers are engaging in productive social behavior.&lt;/p&gt;
&lt;p&gt;While some people may picture open source developers as working quietly and in isolation, the reality is they may work on large projects with a wide community of collaborators. For example, Linux has nearly &lt;a href="http://www.openmind.org/FAQs.html"&gt;10,000 contributors&lt;/a&gt;. Others may focus on small, personal projects, which may or may not draw the attention of the larger development community. &lt;/p&gt;
&lt;p&gt;But even developers working on small projects are still working with other people. And virtually all new open source projects derive from those projects and the developers that preceded them, creating a vast body of work that accelerates innovation and fuels further collaboration.&lt;/p&gt;
&lt;p&gt;Today’s open source developers are contributing to projects in very different ways than just a few years ago. What has changed?&lt;/p&gt;
&lt;hr&gt;
&lt;h2&gt;Search + Social Media = Social Development&lt;/h2&gt;
&lt;hr&gt;
&lt;p&gt;Two developments — search and social media — have changed the way coders work to create “social development,” a new style of software collaboration. Let’s look first at social media’s influence on it.&lt;/p&gt;
&lt;p&gt;Social media’s impact has forced change (some good and some bad) in nearly every sector of the economy — including open source development. While communities such as &lt;a href="http://slashdot.org/"&gt;Slashdot&lt;/a&gt; and &lt;a href="http://stackoverflow.com/"&gt;Stack Overflow&lt;/a&gt; provided an early glimpse of social media’s impact on development in the FOSS community and encouraged developers to become more active within these and other communities, the effect took some time to achieve.&lt;/p&gt;
&lt;p&gt;&lt;img src="http://5.mshcdn.com/wp-content/uploads/2011/09/Forrester-Fig1.png" alt="" title="Forrester " width="640" height="474"&gt;&lt;/p&gt;
&lt;p&gt;Today, it’s not unusual to see enterprise software developers more active in social media circles, even as enterprises themselves are evolving socially. According to a recent study by Forrester, developers are engaging socially; they’re joining communities to connect with experts, seeking answers to business problems and, like many people, networking for career advancement. The figure above shows the leading reasons developers join communities: to connect with thought leaders, gain expertise and engage in high quality discussions. &lt;/p&gt;
&lt;p&gt;&lt;img src="http://5.mshcdn.com/wp-content/uploads/2011/09/Forrester-OSS-Developer-Survey-Fig2.png" alt="" title="Forrester OSS Developer Survey " width="640" height="482"&gt;&lt;/p&gt;
&lt;p&gt;Web search has also enhanced the importance of social media among open source developers, affecting this new style of development. My company recently commissioned a study with Forrester to investigate the social habits of developers. As shown above, contributors to open source projects turn to online search first for information about development technologies, followed by social sites like networks, forums and other online communities. &lt;/p&gt;
&lt;p&gt;Developers also share search results via open source or project forums, communities and more general social media tools like &lt;a href="http://mashable.com/tag/twitter/"&gt;Twitter&lt;/a&gt;.&lt;/p&gt;
&lt;p&gt;As a result, today’s “social developer,” even if not an employee of a large enterprise, is participating more than ever with enterprises – or more specifically, with developers in those enterprises who are increasingly involved with FOSS communities of various types.&lt;/p&gt;
&lt;p&gt;Social development arms corporate developers with a new toolset for producing innovative and high quality software at enterprise scale faster than ever before. This style of development wasn’t possible just a few years ago before search, social media tools and online collaboration tools made it possible to create software using social development techniques. Nevertheless, the evolution has been crucial to the success of businesses and individual developers. &lt;/p&gt;
&lt;p&gt;Another pivotal change is the fact that enterprise IT organizations are now discovering the need to “go social” and join communities as a strategy for leveraging and using more open source software, especially mission-critical components. This significant trend reflects the reality that open source use is becoming a competitive requirement.  Even within the firewall of an enterprise, the trend toward collaborative development to share best practices, facilitate code reuse, and enhance developer productivity is escalating rapidly.&lt;/p&gt;
&lt;p&gt;Other environmental and technical changes have supported the emergence of social development. Communications between project committers — which until recently were conducted through IRC channels and wikis — have expanded with the increased number of social communities. And today more than ever, FOSS developers are actively seeking enterprise adoption of their code.&lt;/p&gt;
&lt;p&gt;&lt;img src="http://5.mshcdn.com/wp-content/uploads/2011/09/Restlet-Fig3.png" alt="" title="Restlet " width="640" height="451"&gt;&lt;/p&gt;
&lt;p&gt;Another change is the emergence of sites like &lt;a href="https://github.com/"&gt;Github&lt;/a&gt; and Ohloh, a free community resource, which was specifically designed to support and encourage social development and to allow developers to give each other kudos (literally). The figure above also lists the contributors for a project called Restlet, a Java REST framework for web developers. Shown on the page are the developer profiles, kudos and code commitments to the project.  &lt;/p&gt;
&lt;p&gt;While social development isn’t a challenge for Gen Y developers, it still presents management challenges for enterprises, especially larger ones. Moving at web speed and using social tools still requires some adjustment. For example, new college hires expect to be community participants, yet large enterprises may not be comfortable with this level of transparency. Although open source projects are based on the notion of transparency, collaboration and meritocracy, some corporate policies may prohibit or limit this philosophy, just like some corporate cultures may resist the trend toward openness in development.&lt;/p&gt;
&lt;p&gt;Social interaction and social development offer tremendous new opportunities for developers and enterprises. The advent of social media tools has changed the nature of community participation as much as search. If you and your organization have not joined the growing number of “social developers,” now is the time to start.  &lt;/p&gt;
&lt;p&gt;&lt;i&gt;&lt;strong&gt;Disclosure:&lt;/strong&gt; Ohloh is owned by the author’s company.&lt;/i&gt;&lt;/p&gt;
&lt;p&gt;&lt;em&gt;Image courtesy of &lt;a rel="nofollow" href="http://www.istockphoto.com/mashableoffer.php"&gt;iStockphoto&lt;/a&gt;, &lt;a rel="nofollow" href="http://www.istockphoto.com/user_view.php?id=688535"&gt;Goldmund&lt;/a&gt;&lt;/em&gt;&lt;/p&gt;
&lt;p&gt;More About: &lt;a href="http://mashable.com/tag/features/"&gt;features&lt;/a&gt;, &lt;a href="http://mashable.com/tag/open-source/"&gt;open source&lt;/a&gt;, &lt;a href="http://mashable.com/tag/social-media/"&gt;Social Media&lt;/a&gt;, &lt;a href="http://mashable.com/tag/software/"&gt;software&lt;/a&gt;, &lt;a href="http://mashable.com/tag/web-development/"&gt;Web Development&lt;/a&gt;&lt;/p&gt;&lt;p&gt;&lt;iframe src="http://feedads.g.doubleclick.net/~ah/f/9m6h8omben53fuj7ghgrctkjc8/300/250?ca=1&amp;amp;fh=280#http%3A%2F%2Fmashable.com%2F2011%2F09%2F28%2Fopen-source-social%2F" width="100%" height="280" frameborder="0" scrolling="no" marginwidth="0" marginheight="0"&gt;&lt;/iframe&gt;&lt;/p&gt;&lt;div&gt;
&lt;a href="http://feeds.feedburner.com/~ff/Mashable?a=7gSuQiKlDT8:MJ0sgzyTENc:D7DqB2pKExk"&gt;&lt;img src="http://feeds.feedburner.com/~ff/Mashable?i=7gSuQiKlDT8:MJ0sgzyTENc:D7DqB2pKExk" border="0"&gt;&lt;/a&gt; &lt;a href="http://feeds.feedburner.com/~ff/Mashable?a=7gSuQiKlDT8:MJ0sgzyTENc:V_sGLiPBpWU"&gt;&lt;img src="http://feeds.feedburner.com/~ff/Mashable?i=7gSuQiKlDT8:MJ0sgzyTENc:V_sGLiPBpWU" border="0"&gt;&lt;/a&gt; &lt;a href="http://feeds.feedburner.com/~ff/Mashable?a=7gSuQiKlDT8:MJ0sgzyTENc:F7zBnMyn0Lo"&gt;&lt;img src="http://feeds.feedburner.com/~ff/Mashable?i=7gSuQiKlDT8:MJ0sgzyTENc:F7zBnMyn0Lo" border="0"&gt;&lt;/a&gt; &lt;a href="http://feeds.feedburner.com/~ff/Mashable?a=7gSuQiKlDT8:MJ0sgzyTENc:qj6IDK7rITs"&gt;&lt;img src="http://feeds.feedburner.com/~ff/Mashable?d=qj6IDK7rITs" border="0"&gt;&lt;/a&gt; &lt;a href="http://feeds.feedburner.com/~ff/Mashable?a=7gSuQiKlDT8:MJ0sgzyTENc:_e0tkf89iUM"&gt;&lt;img src="http://feeds.feedburner.com/~ff/Mashable?d=_e0tkf89iUM" border="0"&gt;&lt;/a&gt; &lt;a href="http://feeds.feedburner.com/~ff/Mashable?a=7gSuQiKlDT8:MJ0sgzyTENc:gIN9vFwOqvQ"&gt;&lt;img src="http://feeds.feedburner.com/~ff/Mashable?i=7gSuQiKlDT8:MJ0sgzyTENc:gIN9vFwOqvQ" border="0"&gt;&lt;/a&gt; &lt;a href="http://feeds.feedburner.com/~ff/Mashable?a=7gSuQiKlDT8:MJ0sgzyTENc:yIl2AUoC8zA"&gt;&lt;img src="http://feeds.feedburner.com/~ff/Mashable?d=yIl2AUoC8zA" border="0"&gt;&lt;/a&gt; &lt;a href="http://feeds.feedburner.com/~ff/Mashable?a=7gSuQiKlDT8:MJ0sgzyTENc:P0ZAIrC63Ok"&gt;&lt;img src="http://feeds.feedburner.com/~ff/Mashable?d=P0ZAIrC63Ok" border="0"&gt;&lt;/a&gt; &lt;a href="http://feeds.feedburner.com/~ff/Mashable?a=7gSuQiKlDT8:MJ0sgzyTENc:I9og5sOYxJI"&gt;&lt;img src="http://feeds.feedburner.com/~ff/Mashable?d=I9og5sOYxJI" border="0"&gt;&lt;/a&gt; &lt;a href="http://feeds.feedburner.com/~ff/Mashable?a=7gSuQiKlDT8:MJ0sgzyTENc:CC-BsrAYo0A"&gt;&lt;img src="http://feeds.feedburner.com/~ff/Mashable?d=CC-BsrAYo0A" border="0"&gt;&lt;/a&gt; &lt;a href="http://feeds.feedburner.com/~ff/Mashable?a=7gSuQiKlDT8:MJ0sgzyTENc:_cyp7NeR2Rw"&gt;&lt;img src="http://feeds.feedburner.com/~ff/Mashable?i=7gSuQiKlDT8:MJ0sgzyTENc:_cyp7NeR2Rw" border="0"&gt;&lt;/a&gt;
&lt;/div&gt;&lt;img src="http://feeds.feedburner.com/~r/Mashable/~4/7gSuQiKlDT8" height="1" width="1"&gt;</content><author><name>Tim Yeaton</name></author><gr:likingUser>00490252475335708998</gr:likingUser><gr:likingUser>03498253393504985905</gr:likingUser><gr:likingUser>04523945631662456613</gr:likingUser><gr:likingUser>10825893280379948382</gr:likingUser><gr:likingUser>01362224441056682765</gr:likingUser><source gr:stream-id="feed/http://feeds.feedburner.com/Mashable"><id>tag:google.com,2005:reader/feed/http://feeds.feedburner.com/Mashable</id><title type="html">Mashable!</title><link rel="alternate" href="http://mashable.com" type="text/html"/></source></entry><entry gr:crawl-timestamp-msec="1317241790871"><id gr:original-id="http://www.forbes.com/sites/martinzwilling/2011/09/28/10-metrics-every-growing-business-must-keep-an-eye-on/">tag:google.com,2005:reader/item/b68ac4d06e018596</id><title type="html">10 Metrics Every Growing Business Must Keep An Eye On</title><published>2011-09-28T20:29:50Z</published><updated>2011-09-28T20:29:50Z</updated><link rel="alternate" href="http://www.forbes.com/sites/martinzwilling/2011/09/28/10-metrics-every-growing-business-must-keep-an-eye-on/" type="text/html"/><summary xml:base="http://startups.alltop.com/" type="html">Entrepreneurs have no trouble focusing on how to build a product, and the good ones know how to find and nurture those first critical customers. Many, however, don’t know how to take their small business to the next level.  What I’m talking about here is a level of discipline and skill necessary to collect and analyze the relevant business data, known as metrics.</summary><author gr:unknown-author="true"><name>(author unknown)</name></author><source gr:stream-id="feed/http://startups.alltop.com/rss/"><id>tag:google.com,2005:reader/feed/http://startups.alltop.com/rss/</id><title type="html">Alltop RSS</title><link rel="alternate" href="http://startups.alltop.com" type="text/html"/></source></entry><entry gr:crawl-timestamp-msec="1317241528694"><id gr:original-id="http://techcrunch.com/?p=428601">tag:google.com,2005:reader/item/41ee9a3bdf014b5a</id><category term="Mobile"/><category term="Microsoft"/><category term="Windows Phone 7"/><title type="html">Microsoft Wants To Pick Your Brain For Windows Phone Tweaks</title><published>2011-09-28T20:16:15Z</published><updated>2011-09-28T20:16:15Z</updated><link rel="alternate" href="http://techcrunch.com/2011/09/28/microsoft-wants-to-pick-your-brain-for-windows-phone-tweaks/" type="text/html"/><content xml:base="http://techcrunch.com/" type="html">&lt;img width="100" height="70" src="http://tctechcrunch2011.files.wordpress.com/2011/09/download-official-windows-phone-put-people-first-logo-01.png?w=100&amp;amp;h=70&amp;amp;crop=1" alt="Download-Official-Windows-Phone-Put-people-first-Logo-01" title="Download-Official-Windows-Phone-Put-people-first-Logo-01" style="float:left;margin:0 10px 7px 0"&gt;&lt;p&gt;Mango has already begun to trickle out into the wild, and Microsoft is still trying to figure out exactly what their Windows Phone users want. Case in point: they’ve just unveiled their &lt;a href="http://windowsphone.uservoice.com/forums/101801-feature-suggestions"&gt;new Suggestion Box&lt;/a&gt;, where users can submit and vote for ideas that they would like to see implemented in Windows Phone 7.&lt;/p&gt;
&lt;p&gt;All snark aside, it’s a much better alternative to shooting your ideas out into the ether via Twitter, as the&lt;a href="http://windowsteamblog.com/windows_phone/b/windowsphone/archive/2011/09/28/have-a-new-windows-phone-feature-idea-try-suggestion-box.aspx"&gt; Windows Phone Blog&lt;/a&gt; is quick to point out. By centralizing all of their users suggestions, Microsoft can look at potential improvements and see where user priorities lay.&lt;/p&gt;
&lt;p&gt;&lt;a href="http://tctechcrunch2011.files.wordpress.com/2011/09/suggestionbox.jpg" rel="lightbox[428601]"&gt;&lt;/a&gt;&lt;/p&gt;
&lt;p&gt;Despite only being open for the past few hours, a few ideas (like the three above) are already picking up steam among the Windows Phone fanbase. For the most part, the ideas tend to range from completely reasonable (a user named DevilSpawn wants less finicky capacitive keys), to the impossible (oggyb wants all existing Windows Phones to be able to wirelessly tether, even though some devices just don’t have the hardware for it).&lt;/p&gt;
&lt;p&gt;Out of this first batch of ideas, my favorite comes from Timo, who wants to see deep GroupMe integration in Windows Phone to “enable free global texting” to anyone. While it’ll almost certainly never happen, it’s at least theoretically possible: Skype has recently acquired GroupMe, and Microsoft not-so-recently acquired Skype.&lt;/p&gt;
&lt;p&gt;Also interesting is the fact that Microsoft’s use of &lt;a href="http://www.crunchbase.com/company/uservoice"&gt;UserVoice&lt;/a&gt; means people won’t be able to stuff the ballot boxes. Users are limited to a total of 10 votes, and you can only give a particular submission up to 3 of them. Once an idea is accepted for consideration, those votes go right back to your pile for use on another worthy submission.&lt;/p&gt;
&lt;p&gt;With the site still in its infancy, none of the submissions have gained enough traction to warrant a further look from Team Windows Phone. Methinks Microsoft is trying to live up to their new tagline here, but let’s see if anything actually comes of it.&lt;/p&gt;
  &lt;br&gt;  &lt;a rel="nofollow" href="http://feeds.wordpress.com/1.0/gocomments/tctechcrunch2011.wordpress.com/428601/"&gt;&lt;/a&gt; &lt;a rel="nofollow" href="http://feeds.wordpress.com/1.0/godelicious/tctechcrunch2011.wordpress.com/428601/"&gt;&lt;/a&gt; &lt;a rel="nofollow" href="http://feeds.wordpress.com/1.0/gofacebook/tctechcrunch2011.wordpress.com/428601/"&gt;&lt;/a&gt; &lt;a rel="nofollow" href="http://feeds.wordpress.com/1.0/gotwitter/tctechcrunch2011.wordpress.com/428601/"&gt;&lt;/a&gt; &lt;a rel="nofollow" href="http://feeds.wordpress.com/1.0/gostumble/tctechcrunch2011.wordpress.com/428601/"&gt;&lt;/a&gt; &lt;a rel="nofollow" href="http://feeds.wordpress.com/1.0/godigg/tctechcrunch2011.wordpress.com/428601/"&gt;&lt;/a&gt; &lt;a rel="nofollow" href="http://feeds.wordpress.com/1.0/goreddit/tctechcrunch2011.wordpress.com/428601/"&gt;&lt;/a&gt; &lt;p&gt;&lt;iframe src="http://feedads.g.doubleclick.net/~ah/f/r0prj8i3ck982ahgpv2itggnno/468/60#http%3A%2F%2Ftechcrunch.com%2F2011%2F09%2F28%2Fmicrosoft-wants-to-pick-your-brain-for-windows-phone-tweaks%2F" width="100%" height="60" frameborder="0" scrolling="no" marginwidth="0" marginheight="0"&gt;&lt;/iframe&gt;&lt;/p&gt;&lt;div&gt;
&lt;a href="http://feeds.feedburner.com/~ff/Mobilecrunch?a=ueP_bhn7Kf0:kkyo4RtkClE:V_sGLiPBpWU"&gt;&lt;img src="http://feeds.feedburner.com/~ff/Mobilecrunch?i=ueP_bhn7Kf0:kkyo4RtkClE:V_sGLiPBpWU" border="0"&gt;&lt;/a&gt; &lt;a href="http://feeds.feedburner.com/~ff/Mobilecrunch?a=ueP_bhn7Kf0:kkyo4RtkClE:F7zBnMyn0Lo"&gt;&lt;img src="http://feeds.feedburner.com/~ff/Mobilecrunch?i=ueP_bhn7Kf0:kkyo4RtkClE:F7zBnMyn0Lo" border="0"&gt;&lt;/a&gt; &lt;a href="http://feeds.feedburner.com/~ff/Mobilecrunch?a=ueP_bhn7Kf0:kkyo4RtkClE:yIl2AUoC8zA"&gt;&lt;img src="http://feeds.feedburner.com/~ff/Mobilecrunch?d=yIl2AUoC8zA" border="0"&gt;&lt;/a&gt;
&lt;/div&gt;</content><author><name>Chris Velazco</name></author><source gr:stream-id="feed/http://feeds.feedburner.com/Mobilecrunch"><id>tag:google.com,2005:reader/feed/http://feeds.feedburner.com/Mobilecrunch</id><title type="html">TechCrunch » Mobile</title><link rel="alternate" href="http://techcrunch.com" type="text/html"/></source></entry><entry gr:crawl-timestamp-msec="1317195104823"><id gr:original-id="http://feedproxy.google.com/%7Er/Techcrunch/%7E3/5eyOQN6EpqA/">tag:google.com,2005:reader/item/bab13e3409e4fe34</id><title type="html">Groupon Closes The Redemption Loop With Loyalty Rewards</title><published>2011-09-28T07:31:44Z</published><updated>2011-09-28T07:31:44Z</updated><link rel="alternate" href="http://feedproxy.google.com/%7Er/Techcrunch/%7E3/5eyOQN6EpqA/" type="text/html"/><summary xml:base="http://social-media.alltop.com/" type="html">&lt;img width="100" height="70" src="http://tctechcrunch2011.files.wordpress.com/2011/09/groupon-reward.jpg?w=100&amp;amp;h=70&amp;amp;crop=1" alt="Groupon Reward" title="Groupon Reward" style="float:left;margin:0 10px 7px 0"&gt;Groupon may be &lt;a href="http://techcrunch.com/2011/09/23/groupon-loses-second-coo%C2%A0this-year-%E2%80%94-and-restates-revenue/"&gt;struggling&lt;/a&gt; to get its IPO out the door, but that is not stopping it from introducing new products.  Up until now, Groupon has built a billion-dollar business by getting local merchants to offer great one-time deals to consumers.  Those daily deals are all about attracting new customers.  Now the company is about to roll out a new product called Groupon Rewards that tries to give merchants a way to increase customer loyalty.  Merchants will be able to start signing up tomorrow and consumers will start seeing the rewards in October. 

With a Groupon Reward, a business that offers a regular Groupon deal will be able to follow up with another reward that gets unlocked after the customer spends a certain amount of money.  For instance, after a customer spends $50 or $100 at a store over time, she might get a Groupon Reward of $20 worth of goods for $4.

It's all tied to the credit cards people use every day so there is no need to change behavior.  There are no check-ins required or &lt;a href="http://techcrunch.com/2011/09/19/techcrunch-review-google-wallet/"&gt;NFC-powered mobile wallets&lt;/a&gt; that need to be waved over strange new terminals.  Groupon already has millions of credit cards on file.  Now it is going to turn those credit cards into digital versions of the buy-10-get-one-free punch cards from the coffee shop that you stick in your wallet.</summary><author gr:unknown-author="true"><name>(author unknown)</name></author><source gr:stream-id="feed/http://social-media.alltop.com/rss/"><id>tag:google.com,2005:reader/feed/http://social-media.alltop.com/rss/</id><title type="html">Alltop RSS</title><link rel="alternate" href="http://social-media.alltop.com" type="text/html"/></source></entry><entry gr:crawl-timestamp-msec="1317191894962"><id gr:original-id="http://techcrunch.com/?p=428103">tag:google.com,2005:reader/item/ac2adaa908cd6034</id><category term="Startups"/><category term="TC"/><category term="founders"/><category term="SeedCamp"/><category term="Seedhack"/><title type="html">Free Startup Tools: An Easy Way For Founders To Set The Terms Of Their Collaboration</title><published>2011-09-28T05:22:10Z</published><updated>2011-09-28T05:22:10Z</updated><link rel="alternate" href="http://feedproxy.google.com/~r/Techcrunch/~3/YnkYCyuTrwI/" type="text/html"/><content xml:base="http://techcrunch.com/" type="html">&lt;img width="100" height="70" src="http://tctechcrunch2011.files.wordpress.com/2011/09/collaboration-hands.jpg?w=100&amp;amp;h=70&amp;amp;crop=1" alt="collaboration-hands" title="collaboration-hands" style="float:left;margin:0 10px 7px 0"&gt;&lt;p&gt;In this, our third installment of “Free Startup Tools”, we wanted to highlight an agreement launched by &lt;a href="http://www.seedcamp.com/"&gt;Seedcamp&lt;/a&gt;, the European startup accelerator, to help startup founders negotiate the early stages of building a company. (You can check out our first post on The Founder Institute’s &lt;a href="http://techcrunch.com/2011/09/22/free-startup-docs-how-much-equity-should-advisors-get/"&gt;effort to standardize the founder-advisor relationship and compensation here&lt;/a&gt; and the second post on a &lt;a href="http://techcrunch.com/2011/09/26/free-startup-tools-how-does-your-term-sheet-compare-to-the-standards/"&gt;tool that helps founders compare their term sheets to the standards here&lt;/a&gt;.) &lt;/p&gt;
&lt;p&gt;While we’ve touched on these better ways to negotiate term sheets and relationships with advisors, founding a company also often entails bringing on co-founders to help you build your business. Of course, in doing so, it’s important for co-founders to be able to establish a level of trust that allows each founding member to fairly share in the benefits of success.&lt;/p&gt;
&lt;p&gt;To do so, Seedcamp (via its Seedhack initiative) is launching the “Seedhack Founder’s Collaboration Agreement”, which &lt;a href="http://www.seedcamp.com/2011/09/seedhack-founders-collaboration-agreement.html"&gt;according to the initiative’s blog post&lt;/a&gt;, has been created to allow newly formed founding teams to “agree on what each founder’s shareholding stake should be” as well as codifying the amount of equity co-founders should receive in accordance with the level of time and effort they pour into the business.&lt;/p&gt;
&lt;p&gt;Readers can check out the &lt;a href="http://www.seedcamp.com/main/wp-content/uploads/2011/09/Seedhack_Founder_Collaboration_Agreement.pdf"&gt;PDF of the agreement here&lt;/a&gt;.&lt;/p&gt;
&lt;p&gt;As the accelerator said via its Seedhack blog, the intent with the collaboration agreement is to have it be of use to accelerators and incubators that hose events like Seedcamp’s &lt;a href="http://www.seedcamp.com/2011/06/the-idea-for-seedhack.html"&gt;Seedhack&lt;/a&gt;, where “collaboration is key”, as well as to the thousands of startups out there building businesses (and investing sweat equity) in those many ideas, products, and tools before officially creating a “formal” company or enterprise.  &lt;/p&gt;
&lt;p&gt;Seedcamp says that it wants co-founders to treat the document as fuel for discussion, which can either be used “as-is”, but it should be noted that it is still both a work in progress and a template which founders should modify as they see fit. (Hence the items in brackets, which are left up to founders to input their own language.)&lt;/p&gt;
&lt;p&gt;Note: The Seedhack Collaboration Founders Agreement is licensed under a &lt;a href="http://creativecommons.org/licenses/by-nc-sa/3.0/"&gt;Creative Commons Attribution-NonCommercial-ShareAlike 3.0 Unported License&lt;/a&gt;.&lt;/p&gt;
&lt;p&gt;Please feel free to share your impressions of the agreement, including whether or not readers believe that the vesting schedule proposed in the document applies generally or is more in line with hackathon-type scenarios.&lt;/p&gt;
&lt;p&gt;Excerpt image &lt;a href="http://www.ideachampions.com/weblogs/archives/2011/03/35_awesome_quot.shtml"&gt;courtesy of Ideachampions.com&lt;/a&gt;&lt;/p&gt;
  &lt;br&gt;  &lt;div&gt;
   	&lt;div&gt;
       &lt;h2&gt;
   			&lt;span&gt;
   			  &lt;div&gt;
   			    &lt;a href="http://crunchbase.com"&gt;Crunchbase&lt;/a&gt;
   			  &lt;/div&gt;
   			&lt;/span&gt;
   		&lt;/h2&gt;
   		&lt;div&gt;
     		&lt;ul&gt;
    			    				&lt;li&gt;&lt;a href="javascript:void(0);"&gt;SEEDCAMP&lt;/a&gt;&lt;/li&gt;
    			  			&lt;/ul&gt;
        &lt;div&gt;
            				&lt;div&gt;
   					&lt;div&gt;
   						&lt;div&gt;
     						&lt;div&gt;
     						  &lt;span&gt;Company:&lt;/span&gt;
     						  &lt;span&gt;&lt;a href="http://www.crunchbase.com/company/seedcamp"&gt;Seedcamp&lt;/a&gt;&lt;/span&gt;
     						&lt;/div&gt;
     						&lt;div&gt;
     						  &lt;span&gt;Website:&lt;/span&gt;
     						  &lt;span&gt;&lt;a href="http://seedcamp.com"&gt;seedcamp.com&lt;/a&gt;&lt;/span&gt;
     						&lt;/div&gt;
     						                                      &lt;div&gt;
                     &lt;span&gt;Funding:&lt;/span&gt;
                     &lt;span&gt;€5M&lt;/span&gt;
                   &lt;/div&gt;
                        					&lt;/div&gt;
   						&lt;div&gt;
                 &lt;p&gt;Seedcamp is an organization to jumpstart the entrepreneurial community in Europe by putting the next generation of developers and entrepreneurs in front of a network of company builders; including seed investors, serial entrepreneurs, product experts, HR specialists, marketers, lawyers, recruiters, journalists and venture capitalists.

Seedcamp acts as a micro seed fund to invest in startup companies. Seedcamp invests all throughout the year, during Mini Seedcamp events that are held all over Europe. During its flagship event Seedcamp Week, which takes...&lt;/p&gt;
     					&lt;/div&gt;
     					&lt;div&gt;
     					       					      &lt;a href="http://www.crunchbase.com/company/seedcamp"&gt;&lt;/a&gt;
     					       					&lt;/div&gt;
     				&lt;/div&gt;
            &lt;a href="http://www.crunchbase.com/company/seedcamp"&gt;Learn more&lt;/a&gt;
       		&lt;/div&gt; 
     		     			&lt;/div&gt;
   	  &lt;/div&gt;
   	&lt;/div&gt;
 	&lt;/div&gt;
 	&lt;div style="clear:both"&gt;&lt;/div&gt;
 	&lt;br&gt;  &lt;a rel="nofollow" href="http://feeds.wordpress.com/1.0/gocomments/tctechcrunch2011.wordpress.com/428103/"&gt;&lt;/a&gt; &lt;a rel="nofollow" href="http://feeds.wordpress.com/1.0/godelicious/tctechcrunch2011.wordpress.com/428103/"&gt;&lt;/a&gt; &lt;a rel="nofollow" href="http://feeds.wordpress.com/1.0/gofacebook/tctechcrunch2011.wordpress.com/428103/"&gt;&lt;/a&gt; &lt;a rel="nofollow" href="http://feeds.wordpress.com/1.0/gotwitter/tctechcrunch2011.wordpress.com/428103/"&gt;&lt;/a&gt; &lt;a rel="nofollow" href="http://feeds.wordpress.com/1.0/gostumble/tctechcrunch2011.wordpress.com/428103/"&gt;&lt;/a&gt; &lt;a rel="nofollow" href="http://feeds.wordpress.com/1.0/godigg/tctechcrunch2011.wordpress.com/428103/"&gt;&lt;/a&gt; &lt;a rel="nofollow" href="http://feeds.wordpress.com/1.0/goreddit/tctechcrunch2011.wordpress.com/428103/"&gt;&lt;/a&gt; &lt;p&gt;&lt;iframe src="http://feedads.g.doubleclick.net/~ah/f/v7tfagih50mrtjprksjv4s1ftk/300/250?ca=1&amp;amp;fh=280#http%3A%2F%2Ftechcrunch.com%2F2011%2F09%2F27%2Ffree-startup-tools-an-easy-way-for-founders-to-set-the-terms-of-their-collaboration%2F" width="100%" height="280" frameborder="0" scrolling="no" marginwidth="0" marginheight="0"&gt;&lt;/iframe&gt;&lt;/p&gt;&lt;div&gt;
&lt;a href="http://feeds.feedburner.com/~ff/Techcrunch?a=YnkYCyuTrwI:ffXdjbYZ-4M:2mJPEYqXBVI"&gt;&lt;img src="http://feeds.feedburner.com/~ff/Techcrunch?d=2mJPEYqXBVI" border="0"&gt;&lt;/a&gt; &lt;a href="http://feeds.feedburner.com/~ff/Techcrunch?a=YnkYCyuTrwI:ffXdjbYZ-4M:7Q72WNTAKBA"&gt;&lt;img src="http://feeds.feedburner.com/~ff/Techcrunch?d=7Q72WNTAKBA" border="0"&gt;&lt;/a&gt; &lt;a href="http://feeds.feedburner.com/~ff/Techcrunch?a=YnkYCyuTrwI:ffXdjbYZ-4M:yIl2AUoC8zA"&gt;&lt;img src="http://feeds.feedburner.com/~ff/Techcrunch?d=yIl2AUoC8zA" border="0"&gt;&lt;/a&gt; &lt;a href="http://feeds.feedburner.com/~ff/Techcrunch?a=YnkYCyuTrwI:ffXdjbYZ-4M:-BTjWOF_DHI"&gt;&lt;img src="http://feeds.feedburner.com/~ff/Techcrunch?i=YnkYCyuTrwI:ffXdjbYZ-4M:-BTjWOF_DHI" border="0"&gt;&lt;/a&gt; &lt;a href="http://feeds.feedburner.com/~ff/Techcrunch?a=YnkYCyuTrwI:ffXdjbYZ-4M:D7DqB2pKExk"&gt;&lt;img src="http://feeds.feedburner.com/~ff/Techcrunch?i=YnkYCyuTrwI:ffXdjbYZ-4M:D7DqB2pKExk" border="0"&gt;&lt;/a&gt; &lt;a href="http://feeds.feedburner.com/~ff/Techcrunch?a=YnkYCyuTrwI:ffXdjbYZ-4M:qj6IDK7rITs"&gt;&lt;img src="http://feeds.feedburner.com/~ff/Techcrunch?d=qj6IDK7rITs" border="0"&gt;&lt;/a&gt;
&lt;/div&gt;&lt;img src="http://feeds.feedburner.com/~r/Techcrunch/~4/YnkYCyuTrwI" height="1" width="1"&gt;</content><author><name>Rip Empson</name></author><gr:likingUser>03027677480804790549</gr:likingUser><gr:likingUser>07003139352148688905</gr:likingUser><gr:likingUser>14185860862135114998</gr:likingUser><gr:likingUser>13558395612157863131</gr:likingUser><gr:likingUser>00353064911095896628</gr:likingUser><gr:likingUser>15010879462803019319</gr:likingUser><gr:likingUser>04503223757859146362</gr:likingUser><source gr:stream-id="feed/http://feedproxy.google.com/TechCrunch"><id>tag:google.com,2005:reader/feed/http://feedproxy.google.com/TechCrunch</id><title type="html">TechCrunch</title><link rel="alternate" href="http://techcrunch.com" type="text/html"/></source></entry></feed>